{
    "@class": "com.kony.gen.viz.model.component.KVizListBox",
    "DNDConfig": null,
    "__parentReadjusting__": false,
    "_height_": {
        "type": "ref",
        "value": "preferred"
    },
    "_left_": {
        "type": "string",
        "value": "5dp"
    },
    "_margin_": [
        0,
        0,
        0,
        0
    ],
    "_padding_": [
        0,
        0,
        0,
        0
    ],
    "_placeholder_": "Reason for Card Cancellation",
    "_skin_": "s89eb521a8664df69d428f4b5f59ab90",
    "_top_": {
        "type": "string",
        "value": "5dp"
    },
    "_width_": {
        "type": "string",
        "value": "92%"
    },
    "canUpdateUI": true,
    "containerweight": 100,
    "contentalignment": 4,
    "context": {
        "channel": "mobile",
        "formID": "frmCancelCardKA",
        "platform": "android",
        "templateType": "forms",
        "topLevelBox": null
    },
    "dropdownimage": "dropdown.png",
    "groupcells": false,
    "id": "lstCardReason",
    "ide_onSelection": "AS_ListBox_af8ea77150e54c6088563ea19b34efc7",
    "info": null,
    "isvisible": false,
    "kuid": "g0b5ec25450a4b34902438c1bb09b16c",
    "masterdata": [],
    "name": "kony.ui.ListBox",
    "parent": "flxCardReason",
    "pf": "frmCancelCardKA",
    "selectedkeys": null,
    "selectedkeyvalue": null,
    "selectedkeyvalues": null,
    "size": 18,
    "viewconfig": {
        "toggleViewConfig": {
            "viewStyle": 0
        }
    },
    "viewtype": 0,
    "wType": "ListBox",
    "zindex": 2
}