{
    "@class": "com.kony.gen.viz.model.component.KVizTextBox2",
    "DNDConfig": null,
    "__parentReadjusting__": false,
    "_bottom_": {
        "type": "string",
        "value": "4.00%"
    },
    "_height_": {
        "type": "string",
        "value": "60%"
    },
    "_margin_": [
        0,
        0,
        0,
        0
    ],
    "_padding_": [
        3,
        0,
        0,
        0
    ],
    "_placeholder_": "",
    "_skin_": "s029998596d3421892d0917ea7492e1d",
    "_text_": "",
    "_width_": {
        "type": "string",
        "value": "100%"
    },
    "accessibilityconfig": {
        "a11yLabel": "Enter your Username"
    },
    "android": {
        "ide_onEndEditing": "AS_TextField_e514cdc88b324709b89e002e06bab4d5",
        "psp": {
            "keyboardActionLabel": 12
        }
    },
    "autocapitalize": "all",
    "autocomplete": false,
    "autocorrect": false,
    "autofilter": false,
    "canUpdateUI": true,
    "centerx": {
        "type": "string",
        "value": "49.98%"
    },
    "containerheight": "",
    "containerheightmode": 1,
    "containerweight": 100,
    "contentalignment": 4,
    "disabledSkins": {},
    "focusskin": "s029998596d3421892d0917ea7492e1d",
    "id": "txtAliasName",
    "ide_onDone": "AS_TextField_ab204861afd8427ea6e6e550b27049b8",
    "ide_onTextChange": "AS_TextField_ha8166d9926e413f9c3b43aa84190b09",
    "ide_onTouchEnd": "AS_TextField_bd95b06a1b1249f49b1a6fcafee6292c",
    "info": null,
    "iphone": {
        "ide_onEndEditing": "AS_TextField_c3454ff0949d479cb2de0622bf4a0519",
        "psp": {
            "keyboardActionLabel": 1,
            "showClearButton": false,
            "showCloseButton": false
        }
    },
    "isvisible": true,
    "keyboardactionlabel": 4,
    "keyboardtype": "A",
    "kuid": "a2e0ae6001a24ab3b0edea170f5af451",
    "maxtextlength": 15,
    "mode": "A",
    "name": "kony.ui.TextBox2",
    "parent": "flxAliassName",
    "pf": "frmIPSRequestToPay",
    "securetextentry": false,
    "showclearbutton": false,
    "textinputmode": "A",
    "viewtype": "default",
    "wType": "TextField",
    "zindex": 1
}