{
    "@class": "com.kony.gen.viz.model.component.KVizTextBox2",
    "DNDConfig": null,
    "__parentReadjusting__": false,
    "_bottom_": {
        "type": "string",
        "value": "4.00%"
    },
    "_height_": {
        "type": "string",
        "value": "50%"
    },
    "_margin_": [
        0,
        0,
        0,
        0
    ],
    "_padding_": [
        3,
        0,
        0,
        0
    ],
    "_placeholder_": "",
    "_skin_": "s029998596d3421892d0917ea7492e1d",
    "_text_": "",
    "_width_": {
        "type": "string",
        "value": "100%"
    },
    "accessibilityconfig": {
        "a11yLabel": "Enter your Username"
    },
    "android": {
        "ide_onEndEditing": "AS_TextField_bcc26fc9513e4fab9cef42e7744b6a0c",
        "psp": {
            "keyboardActionLabel": 1
        }
    },
    "autocapitalize": "none",
    "autocomplete": false,
    "autocorrect": false,
    "autofilter": false,
    "canUpdateUI": true,
    "centerx": {
        "type": "string",
        "value": "50.01%"
    },
    "containerheight": "",
    "containerheightmode": 1,
    "containerweight": 100,
    "contentalignment": 4,
    "disabledSkins": {},
    "focusskin": "s029998596d3421892d0917ea7492e1d",
    "id": "txtAmountAlias",
    "ide_onDone": "AS_TextField_h4a3324d06474fccbc93677e833ff1a6",
    "ide_onTextChange": "AS_TextField_d02840b5c46c41d6ba0e2351f587d4d2",
    "ide_onTouchEnd": "AS_TextField_d5b4fec18918412687eed65cb535219d",
    "info": null,
    "inputAccessoryViewType": 1,
    "iphone": {
        "ide_onEndEditing": "AS_TextField_g561a443aaf641e8931dd57b6a63807c",
        "psp": {
            "closeButtonText": "Done",
            "inputAccessoryViewType": 1,
            "keyboardActionLabel": 1,
            "showClearButton": false,
            "showProgressIndicator": false
        }
    },
    "isvisible": true,
    "keyboardactionlabel": 4,
    "keyboardstyle": "number",
    "keyboardtype": "A",
    "kuid": "gf68df4c8ddd47dd9026f29073175206",
    "maxtextlength": 35,
    "mode": "N",
    "name": "kony.ui.TextBox2",
    "parent": "flxAmountAlias",
    "pf": "frmIPSRequestToPay",
    "securetextentry": false,
    "showclearbutton": false,
    "showoprogressindicator": false,
    "textinputmode": "N",
    "viewtype": "default",
    "wType": "TextField",
    "zindex": 1
}