{
    "@class": "com.kony.gen.viz.model.component.KVizLabel",
    "DNDConfig": null,
    "__parentReadjusting__": false,
    "_height_": {
        "type": "ref",
        "value": "preferred"
    },
    "_left_": {
        "type": "string",
        "value": "3%"
    },
    "_margin_": [
        1,
        1,
        1,
        1
    ],
    "_padding_": [
        0,
        0,
        0,
        0
    ],
    "_skin_": "s814731305aa4c6a96de69144c9969a7",
    "_text_": "",
    "_width_": {
        "type": "string",
        "value": "79%"
    },
    "_wrapping_": 2,
    "android": {
        "textStyle": {
            "letterSpacing": 0,
            "strikeThrough": false
        }
    },
    "canUpdateUI": true,
    "centery": {
        "type": "string",
        "value": "50%"
    },
    "containerweight": 100,
    "contentalignment": 4,
    "id": "lblActivateDeactivateText",
    "info": null,
    "ipad": {
        "psp": {
            "wrapping": 2
        }
    },
    "iphone": {
        "psp": {
            "wrapping": 2
        }
    },
    "isvisible": true,
    "kuid": "b9f0badc624541f0bfaaf85f6a3cdf95",
    "name": "kony.ui.Label",
    "parent": "flxAlterAuthPinLogin",
    "pf": "frmUserSettingsPinLoginKA",
    "texti18n": "i18n.acivate.pinlogin",
    "textstyle": {},
    "tooltip": "",
    "wType": "Label",
    "zindex": 1
}