{
    "@class": "com.kony.gen.viz.model.component.KVizTextBox2",
    "DNDConfig": null,
    "__parentReadjusting__": false,
    "_bottom_": {
        "type": "string",
        "value": "4%"
    },
    "_height_": {
        "type": "string",
        "value": "60%"
    },
    "_margin_": [
        0,
        0,
        0,
        0
    ],
    "_padding_": [
        3,
        0,
        0,
        0
    ],
    "_placeholder_": "",
    "_skin_": "s029998596d3421892d0917ea7492e1d",
    "_text_": "",
    "_width_": {
        "type": "string",
        "value": "100%"
    },
    "android": {
        "ide_onBeginEditing": "AS_TextField_db938196b1994235a9aaf76db9424e70",
        "ide_onEndEditing": "AS_TextField_g92ad8d7442a43eea47e01e30b6777e9"
    },
    "autocapitalize": "none",
    "autocomplete": false,
    "autocorrect": false,
    "autofilter": false,
    "canUpdateUI": true,
    "centerx": {
        "type": "string",
        "value": "50%"
    },
    "containerheight": "",
    "containerheightmode": 1,
    "containerweight": 100,
    "contentalignment": 4,
    "disabledSkins": {},
    "focusskin": "s029998596d3421892d0917ea7492e1d",
    "id": "txtNickName",
    "ide_onDone": "AS_TextField_f19f4ec953d44d89a2e1dcf53620d489",
    "ide_onTextChange": "AS_TextField_bdd448379926437d9213646e0f88bb01",
    "ide_onTouchEnd": "AS_TextField_bed6d1a6c1ef482dad18226389603e33",
    "info": null,
    "inputAccessoryViewType": 3,
    "iphone": {
        "ide_onBeginEditing": "AS_TextField_d863331615bf4e06b18528c936978faa",
        "ide_onEndEditing": "AS_TextField_da7e0e7a08d3407596c71471cde47729",
        "psp": {
            "inputAccessoryViewType": 3,
            "showClearButton": false,
            "showCloseButton": false
        }
    },
    "isvisible": true,
    "keyboardtype": "A",
    "kuid": "d4d2455d64d141519bc344191e4e5d2f",
    "mode": "A",
    "name": "kony.ui.TextBox2",
    "parent": "flxNickName",
    "pf": "frmAddBeneIPS",
    "securetextentry": false,
    "showclearbutton": false,
    "textinputmode": "A",
    "viewtype": "default",
    "wType": "TextField",
    "zindex": 1
}