{
  "operationConfig" : {
    "name" : "getAccountCashFlowDetails7223",
    "type" : "MappedToBackend",
    "cachable" : false,
    "smsEnabled" : false,
    "security" : "authorized_app_user",
    "responseEncoding" : "UTF-8",
    "httpMethod" : "GET",
    "decodeResponseBody" : false,
    "oMapping" : "<?xml version=\"1.0\" encoding=\"UTF-8\" standalone=\"yes\"?><mapper xmlns=\"http://www.kony.com/ns/mapper\">  <map inputpath=\"response_in\" outputpath=\"response_out\">    <map inputpath=\"AccountCashFlow\" outputpath=\"AccountCashFlow\">      <set-param inputpath=\"monthCredit\" outputpath=\"monthCredit\"/>      <set-param inputpath=\"month\" outputpath=\"month\"/>      <set-param inputpath=\"totalCash\" outputpath=\"totalCash\"/>      <set-param inputpath=\"totalCreditDebt\" outputpath=\"totalCreditDebt\"/>      <set-param inputpath=\"monthCash\" outputpath=\"monthCash\"/>    </map>  </map></mapper>",
    "applyCommonMapping" : true,
    "backendMeta" : {
      "serviceVersion" : "1.0",
      "operationName" : "getAccountCashFlowDetails",
      "serviceName" : "RetailBankingBEServices"
    },
    "relationshipHierarchyMapping" : {
      "children" : [ ],
      "name" : "AccountCashFlow",
      "selected" : true
    },
    "requestXmlMappingOverride" : false,
    "responseXmlMappingOverride" : false
  }
}