{
    "@class": "com.kony.gen.viz.model.component.KVizButton",
    "DNDConfig": null,
    "__parentReadjusting__": false,
    "_height_": {
        "type": "string",
        "value": "60dp"
    },
    "_left_": {
        "type": "string",
        "value": "0%"
    },
    "_margin_": [
        6,
        6,
        6,
        6
    ],
    "_padding_": [
        0,
        0,
        0,
        0
    ],
    "_render_": true,
    "_skin_": "sdbc07ede5b049d4869378359f1b4deb",
    "_text_": "Button",
    "_top_": {
        "type": "string",
        "value": "0dp"
    },
    "_width_": {
        "type": "string",
        "value": "60dp"
    },
    "android": {
        "render": true
    },
    "canUpdateUI": true,
    "containerweight": 100,
    "contentalignment": 5,
    "disabledSkins": {
        "focusSkin": "s10149300144466da99cbf92f4fdacc8"
    },
    "displaytext": false,
    "id": "btnBOJPay",
    "ide_onClick": "AS_Button_hdab772d98374f7cba0f526675df7268",
    "info": null,
    "iphone": {
        "render": true
    },
    "iscustomlayout": true,
    "isvisible": true,
    "kuid": "eb34bcf100ed46f6930d2ac4042acf1b",
    "name": "kony.ui.Button",
    "parent": "flxPayAppLink",
    "pf": "frmLoginKA",
    "retaincontentalignment": false,
    "retainflexpositionproperties": true,
    "spaan": {
        "render": true
    },
    "spabb": {
        "render": true
    },
    "spaip": {
        "render": true
    },
    "spawinphone8": {
        "render": true
    },
    "wType": "Button",
    "winphone8": {
        "render": true
    },
    "zindex": 1
}