{
    "DNDConfig": null,
    "__parentReadjusting__": false,
    "_height_": {
        "type": "string",
        "value": "100%"
    },
    "_margin_": [
        0,
        0,
        0,
        0
    ],
    "_orientation_": 6,
    "_padding_": [
        0,
        0,
        0,
        0
    ],
    "_percent_": true,
    "_skin_": "s72b13af1f654cbe9de1b6abf2f222d1",
    "_width_": {
        "type": "string",
        "value": "100%"
    },
    "allboxes": [],
    "autogrowmode": 0,
    "canUpdateUI": true,
    "centerx": {
        "type": "string",
        "value": "50%"
    },
    "centery": {
        "type": "string",
        "value": "50%"
    },
    "children": [
        "Image0d3b64fe00b8a44",
        "lblTimedOut",
        "lbldesc",
        "lblDesc1",
        "btnRetry",
        "btnErrorCancel"
    ],
    "clipbounds": true,
    "containerweight": 100,
    "enablescrolling": true,
    "id": "loginFacialAuthScreen2",
    "info": null,
    "isvisible": false,
    "kuid": "j5a276ca4c2d4fd8bff8184bf4c8536b",
    "layouttype": 4,
    "name": "kony.ui.FlexContainer",
    "parent": "loginfacialAuthScreen",
    "pf": "frmLoginKA",
    "snapgridsize": 10,
    "snaptogrid": true,
    "wType": "FlexContainer",
    "widgetalignment": 1,
    "zindex": 50
}