{
    "@class": "com.kony.gen.viz.model.container.KVizSegment2",
    "DNDConfig": null,
    "__parentReadjusting__": false,
    "_data_": [
        [
            {
                "CopylblIncommingRing0ac2c9e9c52d147": {
                    "@class": "com.viz.ide.model.segment.SimpleTextSegmentData",
                    "text": "L"
                },
                "Label0bed5640cdb4b46": {
                    "@class": "com.viz.ide.model.segment.SimpleTextSegmentData",
                    "text": "Label"
                },
                "amountAccount1": {
                    "@class": "com.viz.ide.model.segment.SimpleTextSegmentData",
                    "text": "2,254.00"
                },
                "amountcurrBal": {
                    "@class": "com.viz.ide.model.segment.SimpleTextSegmentData",
                    "text": "$00.00"
                },
                "amtOutsatndingBal": {
                    "@class": "com.viz.ide.model.segment.SimpleTextSegmentData",
                    "text": "$00.00"
                },
                "btnNav": {
                    "@class": "com.viz.ide.model.segment.SimpleTextSegmentData",
                    "text": "L"
                },
                "dummyAccountName": {
                    "@class": "com.viz.ide.model.segment.SimpleTextSegmentData",
                    "text": ""
                },
                "dummyAccountNumber": {
                    "@class": "com.viz.ide.model.segment.SimpleTextSegmentData",
                    "text": "***154"
                },
                "isPFMLabel": {
                    "@class": "com.viz.ide.model.segment.SimpleTextSegmentData",
                    "text": ""
                },
                "lblAccNumber": {
                    "@class": "com.viz.ide.model.segment.SimpleTextSegmentData",
                    "text": "***154"
                },
                "lblAccountID": {
                    "@class": "com.viz.ide.model.segment.SimpleTextSegmentData",
                    "text": "Label"
                },
                "lblBankName": {
                    "@class": "com.viz.ide.model.segment.SimpleTextSegmentData",
                    "text": ""
                },
                "lblColorKA": {
                    "@class": "com.viz.ide.model.segment.SimpleTextSegmentData",
                    "text": ""
                },
                "lblCurrency": {
                    "@class": "com.viz.ide.model.segment.SimpleTextSegmentData",
                    "text": "JOD"
                },
                "lblIncommingRing": {
                    "@class": "com.viz.ide.model.segment.SimpleTextSegmentData",
                    "text": "L"
                },
                "lblMobile": {
                    "@class": "com.viz.ide.model.segment.SimpleTextSegmentData",
                    "text": "S"
                },
                "lblRowSeparator": {
                    "@class": "com.viz.ide.model.segment.SimpleTextSegmentData",
                    "text": ""
                },
                "nameAccount1": {
                    "@class": "com.viz.ide.model.segment.SimpleTextSegmentData",
                    "text": "RichText"
                },
                "nameAccount12": {
                    "@class": "com.viz.ide.model.segment.SimpleTextSegmentData",
                    "text": "Salary account"
                },
                "typeAccount": {
                    "@class": "com.viz.ide.model.segment.SimpleTextSegmentData",
                    "text": "Available Balance"
                },
                "typeKA": {
                    "@class": "com.viz.ide.model.segment.SimpleTextSegmentData",
                    "text": ""
                }
            },
            [
                {
                    "Button0hf394843f2a54f": {
                        "@class": "com.viz.ide.model.segment.SimpleTextSegmentData",
                        "text": "o"
                    },
                    "lblTransAmount": {
                        "@class": "com.viz.ide.model.segment.SimpleTextSegmentData",
                        "text": "-130.201 JOD"
                    },
                    "lblTransDate": {
                        "@class": "com.viz.ide.model.segment.SimpleTextSegmentData",
                        "text": "Today, 5:00 PM"
                    },
                    "lblTransId": {
                        "@class": "com.viz.ide.model.segment.SimpleTextSegmentData",
                        "text": "Label"
                    },
                    "lblTransName": {
                        "@class": "com.viz.ide.model.segment.SimpleTextSegmentData",
                        "text": "Jardon"
                    }
                },
                {
                    "Button0hf394843f2a54f": {
                        "@class": "com.viz.ide.model.segment.SimpleTextSegmentData",
                        "text": "o"
                    },
                    "lblTransAmount": {
                        "@class": "com.viz.ide.model.segment.SimpleTextSegmentData",
                        "text": "-130.201 JOD"
                    },
                    "lblTransDate": {
                        "@class": "com.viz.ide.model.segment.SimpleTextSegmentData",
                        "text": "Today, 5:00 PM"
                    },
                    "lblTransId": {
                        "@class": "com.viz.ide.model.segment.SimpleTextSegmentData",
                        "text": ""
                    },
                    "lblTransName": {
                        "@class": "com.viz.ide.model.segment.SimpleTextSegmentData",
                        "text": "Jardon gas"
                    }
                }
            ]
        ]
    ],
    "_height_": {
        "type": "string",
        "value": "100%"
    },
    "_indicator_": "none",
    "_left_": {
        "type": "string",
        "value": "0dp"
    },
    "_margin_": [
        0,
        0,
        0,
        0
    ],
    "_orientation_": 2,
    "_padding_": [
        0,
        0,
        0,
        0
    ],
    "_top_": {
        "type": "string",
        "value": "0dp"
    },
    "_width_": {
        "type": "string",
        "value": "100%"
    },
    "autogrowmode": 0,
    "canUpdateUI": true,
    "containerweight": 100,
    "counter": "01",
    "disabledSkins": {
        "sectionHeaderSkin": "s67621b8a82d49f285da06b4f5a0c993"
    },
    "focusedindex": null,
    "focuseditem": null,
    "groupcells": false,
    "hasSections": true,
    "id": "segAccountPreviewKA",
    "info": null,
    "ipad": {
        "psp": {
            "indicator": "rowselect"
        }
    },
    "iphone": {
        "psp": {
            "bounces": false,
            "indicator": "none",
            "showProgressIndicator": false
        }
    },
    "isvisible": true,
    "kuid": "6874f7a77ce04c7383a5db4b160934f0",
    "masterdata": {},
    "name": "kony.ui.SegmentedUI2",
    "needpageindicator": true,
    "pageoffdotimage": "pageoffdot.png",
    "pageondotimage": "pageondot.png",
    "paginationconfig": {
        "position": "bottom"
    },
    "parent": "flxAccountsSegment",
    "pf": "frmLoginKA",
    "retainselection": false,
    "rowTemplateId": "b3afce64bda8409eb41dfa6d27d369f9",
    "rowcounter": 1,
    "rowfocusskin": "sd2ca277651a46c0ba82f3226859f5a6",
    "rowskin": "sd2ca277651a46c0ba82f3226859f5a6",
    "rowtemplate": "flxTrans",
    "screenlevelwidget": false,
    "seccounter": 0,
    "sectionHeaderTemplateId": "d6ec8423e4fc4a0ea9253aafc6a0dd46",
    "sectionheadertemplate": "yourAccount1",
    "selectedRows": null,
    "selectedState": false,
    "selectedindex": null,
    "selectedindices": null,
    "selecteditems": null,
    "selectedsectionindex": 0,
    "selectionbehavior": "default",
    "separatorcolor": "f7f7f764",
    "separatorrequired": true,
    "separatorthickness": 0,
    "showprogressindicator": false,
    "showscrollbars": true,
    "viewtype": "tableview",
    "vizProps": {},
    "wType": "Segment",
    "widgetalignment": 5,
    "widgetdatamap": {
        "Button0hf394843f2a54f": "Button0hf394843f2a54f",
        "CopylblIncommingRing0ac2c9e9c52d147": "CopylblIncommingRing0ac2c9e9c52d147",
        "Label0bed5640cdb4b46": "Label0bed5640cdb4b46",
        "amountAccount1": "amountAccount1",
        "amountcurrBal": "amountcurrBal",
        "amtOutsatndingBal": "amtOutsatndingBal",
        "btnNav": "btnNav",
        "btnNav1": "btnNav1",
        "dummyAccountName": "dummyAccountName",
        "dummyAccountNumber": "dummyAccountNumber",
        "flxLine": "flxLine",
        "flxSet": "flxSet",
        "flxTrans": "flxTrans",
        "flxamount": "flxamount",
        "isPFMLabel": "isPFMLabel",
        "lblAccNumber": "lblAccNumber",
        "lblAccountID": "lblAccountID",
        "lblBankName": "lblBankName",
        "lblColorKA": "lblColorKA",
        "lblCurrency": "lblCurrency",
        "lblIncommingRing": "lblIncommingRing",
        "lblMobile": "lblMobile",
        "lblNoData": "lblNoData",
        "lblRowSeparator": "lblRowSeparator",
        "lblTransAmount": "lblTransAmount",
        "lblTransDate": "lblTransDate",
        "lblTransId": "lblTransId",
        "lblTransName": "lblTransName",
        "nameAccount1": "nameAccount1",
        "nameAccount12": "nameAccount12",
        "nameContainer": "nameContainer",
        "typeAccount": "typeAccount",
        "typeKA": "typeKA",
        "yourAccount1": "yourAccount1"
    },
    "zindex": 1
}