{
    "@class": "com.kony.gen.viz.model.component.KVizTextBox2",
    "DNDConfig": null,
    "__markedForDelete__": true,
    "__parentReadjusting__": false,
    "_height_": {
        "type": "string",
        "value": "40dp"
    },
    "_left_": {
        "type": "string",
        "value": "0dp"
    },
    "_margin_": [
        0,
        0,
        0,
        0
    ],
    "_padding_": [
        2,
        0,
        0,
        0
    ],
    "_placeholder_": "Re-Enter Secure Code",
    "_skin_": "s91685645d0c4a43826fdd5c95fe611d",
    "_text_": "",
    "_top_": {
        "type": "string",
        "value": "10dp"
    },
    "_width_": {
        "type": "string",
        "value": "90%"
    },
    "android": {},
    "autocapitalize": "none",
    "autocomplete": false,
    "autocorrect": false,
    "autofilter": false,
    "canUpdateUI": true,
    "centerx": {
        "type": "string",
        "value": "50%"
    },
    "closebuttontext": "Done",
    "containerheight": "",
    "containerheightmode": 1,
    "containerweight": 100,
    "contentalignment": 4,
    "enabled": false,
    "focusskin": "s91685645d0c4a43826fdd5c95fe611d",
    "id": "tbxReEnterSecureCodeKA",
    "info": null,
    "iphone": {
        "onEndEditing": "AS_TextField_521006bc43bb469d9a715663c364ce11",
        "psp": {
            "showCloseButton": true
        }
    },
    "isvisible": true,
    "keyboardstyle": "A",
    "keyboardtype": "A",
    "kuid": "eb5f7578b3d443448ca66917fd5ee705",
    "maxtextlength": 4,
    "mode": "N",
    "name": "kony.ui.TextBox2",
    "ondone": "AS_TextField_8a9be1b814cf473194c618b6b871bb16",
    "ontextchange": "AS_TextField_91b4005ad4ab47a0a7421f31088a5d49",
    "paddinginpixel": false,
    "parent": "flxCreateSecureCodeKA",
    "pf": "frmConfirmCashWithDraw",
    "placeholderi18n": "i18n.cashWithdraw.reenterSecureCode",
    "placeholderskin": "sfa36c5ffd8f4b39894ae352f59c3406",
    "securetextentry": false,
    "showclosebutton": false,
    "textinputmode": "N",
    "viewtype": "default",
    "wType": "TextField",
    "zindex": 1
}