{
	"agcgw_all":{
		"CN":"connect-drcn.hispace.hicloud.com",
		"CN_back":"connect-drcn.dbankcloud.cn",
		"DE":"connect-dre.hispace.hicloud.com",
		"DE_back":"connect-dre.dbankcloud.cn",
		"RU":"connect-drru.hispace.hicloud.com",
		"RU_back":"connect-drru.dbankcloud.cn",
		"SG":"connect-dra.hispace.hicloud.com",
		"SG_back":"connect-dra.dbankcloud.cn"
	},
	"client":{
		"cp_id":"2640962000000498572",
		"product_id":"736430079244445095",
		"client_id":"360711240894383168",
		"client_secret":"76EB1871AFA46B4136ED084329F373F20163665816FA7ABEA659935DD22BA5CC",
		"project_id":"736430079244445095",
		"app_id":"102201693",
		"api_key":"CV79kvZK4/Oe8n0eo3u723Mo7QzuimSWr8qv8K/M41TBw7iYt5yPskqeVcRMBhxvfOdI7Vs7XlGbnggnYI9bldonLSin",
		"package_name":"com.bankofjordan.mobileapp"
	},
	"configuration_version":"2.0",
	"appInfos":[
		{
			"package_name":"com.bankofjordan.mobileapp",
			"app_id":"102201693"
		}
	]
}