{
    "@class": "com.kony.gen.viz.model.component.KVizButton",
    "DNDConfig": null,
    "__parentReadjusting__": false,
    "_height_": {
        "type": "string",
        "value": "70%"
    },
    "_left_": {
        "type": "string",
        "value": "0%"
    },
    "_margin_": [
        6,
        6,
        6,
        6
    ],
    "_padding_": [
        0,
        0,
        0,
        0
    ],
    "_skin_": "s17e292d54bd48bd8bd8a070c6c1819a",
    "_text_": "",
    "_top_": {
        "type": "string",
        "value": "0%"
    },
    "_width_": {
        "type": "string",
        "value": "36%"
    },
    "canUpdateUI": true,
    "containerweight": 100,
    "contentalignment": 5,
    "disabledSkins": {},
    "displaytext": true,
    "focusskin": "sbe1e969bc9948e288db010580bd90b0",
    "id": "brnRenWithInter",
    "ide_onClick": "AS_Button_h3062cb38b6249c7b74ec9d5ae8a71c1",
    "info": null,
    "isvisible": false,
    "kuid": "j7fd3b6471af413cb90b163553d17a44",
    "name": "kony.ui.Button",
    "parent": "flxMatInstruction",
    "pf": "frmOpenTermDeposit",
    "texti18n": "i18n.termDeposit.renWithInterest",
    "wType": "Button",
    "zindex": 1
}