{
    "@class": "com.kony.gen.viz.model.component.KVizButton",
    "DNDConfig": null,
    "__parentReadjusting__": false,
    "_height_": {
        "type": "string",
        "value": "60%"
    },
    "_left_": {
        "type": "string",
        "value": "1%"
    },
    "_margin_": [
        6,
        6,
        6,
        6
    ],
    "_padding_": [
        0,
        0,
        0,
        0
    ],
    "_skin_": "s494451ca8854dac96d3671570e53376",
    "_text_": "",
    "_top_": {
        "type": "string",
        "value": "5%"
    },
    "_width_": {
        "type": "string",
        "value": "31%"
    },
    "canUpdateUI": true,
    "containerweight": 100,
    "contentalignment": 5,
    "displaytext": true,
    "focusskin": "s80a175c468242d792bdc547cfe69645",
    "id": "btnClose",
    "ide_onClick": "AS_Button_ac6c62ba68c348f5a53e455a387e6f80",
    "info": null,
    "isvisible": false,
    "kuid": "jbe8f0a360594255a6dd022b231b0e34",
    "name": "kony.ui.Button",
    "parent": "flxMaturityInstructions",
    "pf": "frmOpenTermDeposit",
    "texti18n": "i18n.termDeposit.close",
    "wType": "Button",
    "zindex": 1
}