{
    "@class": "com.kony.gen.viz.model.component.KVizButton",
    "DNDConfig": null,
    "__parentReadjusting__": false,
    "_height_": {
        "type": "string",
        "value": "70%"
    },
    "_left_": {
        "type": "string",
        "value": "50%"
    },
    "_margin_": [
        6,
        6,
        6,
        6
    ],
    "_padding_": [
        0,
        0,
        0,
        0
    ],
    "_skin_": "s17e292d54bd48bd8bd8a070c6c1819a",
    "_text_": "",
    "_top_": {
        "type": "string",
        "value": "10%"
    },
    "_width_": {
        "type": "string",
        "value": "24%"
    },
    "canUpdateUI": true,
    "containerweight": 100,
    "contentalignment": 5,
    "displaytext": true,
    "focusskin": "sbe1e969bc9948e288db010580bd90b0",
    "id": "btnTener6Months",
    "ide_onClick": "AS_Button_bb6320ffbdbf4cbebbacf54edd90ad43",
    "info": null,
    "isvisible": true,
    "kuid": "i468c0237ba54cbea0d6a73e223e53e4",
    "name": "kony.ui.Button",
    "parent": "flxTenerPeriods",
    "pf": "frmOpenTermDeposit",
    "texti18n": "i18n.termDepodit.tener6Month",
    "wType": "Button",
    "zindex": 1
}