{
    "@class": "com.kony.gen.viz.model.component.KVizRichText",
    "DNDConfig": null,
    "__parentReadjusting__": false,
    "_height_": {
        "type": "ref",
        "value": "preferred"
    },
    "_left_": {
        "type": "string",
        "value": "0%"
    },
    "_margin_": [
        0,
        0,
        0,
        0
    ],
    "_padding_": [
        0,
        0,
        0,
        0
    ],
    "_skin_": "s63518157ffe443c97b3e03d9afd4918",
    "_text_": "<u>IRichTexts</u>",
    "_top_": {
        "type": "number",
        "value": "0"
    },
    "_width_": {
        "type": "string",
        "value": "100%"
    },
    "_wrapping_": 2,
    "canUpdateUI": true,
    "containerweight": 100,
    "contentalignment": 4,
    "id": "lbldepositsTermsTXT",
    "info": null,
    "isvisible": true,
    "kuid": "j3ffa29c38274daf9fe3ffec089074f4",
    "name": "kony.ui.RichText",
    "parent": "flxDepositsTNC",
    "pf": "frmOpenTermDeposit",
    "texti18n": "i18n.deposits.termsCheck",
    "wType": "RichText",
    "widgetalignment": 5,
    "zindex": 1
}