{
    "@class": "com.kony.gen.viz.model.component.KVizButton",
    "DNDConfig": null,
    "__parentReadjusting__": false,
    "_height_": {
        "type": "string",
        "value": "90%"
    },
    "_left_": {
        "type": "string",
        "value": "60%"
    },
    "_margin_": [
        6,
        6,
        6,
        6
    ],
    "_padding_": [
        0,
        0,
        0,
        0
    ],
    "_skin_": "s2ded24412f34132b3f0f811c378f250",
    "_text_": "C",
    "_top_": {
        "type": "string",
        "value": "0dp"
    },
    "_width_": {
        "type": "string",
        "value": "10%"
    },
    "canUpdateUI": true,
    "containerweight": 100,
    "contentalignment": 5,
    "disabledSkins": {},
    "displaytext": true,
    "focusskin": "s2ded24412f34132b3f0f811c378f250",
    "id": "btnRequestPayment",
    "ide_onClick": "AS_Button_h6ed5c626b64430f852b6b9e52c22d8f",
    "info": null,
    "iscustomlayout": true,
    "isvisible": false,
    "kuid": "d232cc886a88455685dd6e1c4c9cb5fb",
    "name": "kony.ui.Button",
    "parent": "flxHeader",
    "pf": "frmIPSManageBene",
    "retainflexpositionproperties": true,
    "wType": "Button",
    "zindex": 1
}