{
    "DNDConfig": null,
    "__parentReadjusting__": false,
    "_bottom_": {
        "type": "string",
        "value": "0%"
    },
    "_height_": {
        "type": "string",
        "value": "81%"
    },
    "_left_": {
        "type": "string",
        "value": "14%"
    },
    "_margin_": [
        0,
        0,
        0,
        0
    ],
    "_orientation_": 6,
    "_padding_": [
        0,
        0,
        0,
        0
    ],
    "_percent_": true,
    "_skin_": "s388f0c575ef4d08ac3a5ed0a4b90085",
    "_width_": {
        "type": "string",
        "value": "72%"
    },
    "allboxes": [],
    "autogrowmode": 0,
    "canUpdateUI": true,
    "children": [
        "cardImage",
        "cardNumber",
        "CardHolder",
        "ValidThru"
    ],
    "clipbounds": true,
    "containerId": true,
    "containerweight": 100,
    "enablescrolling": true,
    "id": "flxCardDetails",
    "info": null,
    "iscustomlayout": false,
    "isvisible": true,
    "kuid": "fefefd55b4ee48de865b72a45a790a47",
    "layouttype": 2,
    "name": "kony.ui.FlexContainer",
    "parent": "flxCreditCardTemplateKA",
    "pf": "segmanagecardstmplt",
    "retainflexpositionproperties": false,
    "snapgridsize": 10,
    "snaptogrid": true,
    "wType": "FlexContainer",
    "widgetalignment": 1,
    "zindex": 1
}