{
    "@class": "com.kony.gen.viz.model.component.KVizButton",
    "DNDConfig": null,
    "__parentReadjusting__": false,
    "_height_": {
        "type": "string",
        "value": "50dp"
    },
    "_left_": {
        "type": "string",
        "value": "0dp"
    },
    "_margin_": [
        6,
        6,
        6,
        6
    ],
    "_padding_": [
        0,
        0,
        0,
        0
    ],
    "_skin_": "s1b558d5a76c4e74aa712819f5be63d1",
    "_text_": "",
    "_top_": {
        "type": "string",
        "value": "0dp"
    },
    "_width_": {
        "type": "string",
        "value": "50dp"
    },
    "canUpdateUI": true,
    "containerweight": 100,
    "contentalignment": 5,
    "displaytext": true,
    "focusskin": "sb803869ef8f4c42a3233b6ac9dce91b",
    "id": "androidBack",
    "ide_onClick": "AS_Button_c775a247c808453087ef0d7e72ff78e5",
    "info": null,
    "iphone": {
        "psp": {
            "showProgressIndicator": false
        }
    },
    "isvisible": true,
    "kuid": "e03edc8c287341fd86b4c1aafb02a9e8",
    "name": "kony.ui.Button",
    "onclick": "AS_Button_b6247b77933d4457b33a97f99c6d3e54",
    "parent": "flxAndroidTittleBarKA",
    "pf": "frmCreditCardsKA",
    "showprogressindicator": false,
    "wType": "Button",
    "zindex": 1
}