{
    "@class": "com.kony.gen.viz.model.component.KVizButton",
    "DNDConfig": null,
    "__parentReadjusting__": false,
    "_bottom_": {
        "type": "string",
        "value": "2%"
    },
    "_height_": {
        "type": "string",
        "value": "30%"
    },
    "_left_": {
        "type": "string",
        "value": "25%"
    },
    "_margin_": [
        6,
        6,
        6,
        6
    ],
    "_padding_": [
        0,
        0,
        0,
        0
    ],
    "_skin_": "sf7766faf6e34d0789442a84c1e76e1a",
    "_text_": "Check",
    "_width_": {
        "type": "string",
        "value": "50%"
    },
    "canUpdateUI": true,
    "containerweight": 100,
    "contentalignment": 5,
    "displaytext": true,
    "focusskin": "sf7766faf6e34d0789442a84c1e76e1a",
    "id": "btnsearch",
    "info": null,
    "isvisible": true,
    "kuid": "de0eb9936ccd4968b78cdfb052974841",
    "name": "kony.ui.Button",
    "parent": "flxTop",
    "pf": "frmChequeStatus",
    "wType": "Button",
    "zindex": 1
}