{
    "@class": "com.kony.gen.viz.model.component.KVizLabel",
    "DNDConfig": null,
    "__parentReadjusting__": false,
    "_height_": {
        "type": "ref",
        "value": "preferred"
    },
    "_left_": {
        "type": "string",
        "value": "5%"
    },
    "_margin_": [
        1,
        1,
        1,
        1
    ],
    "_padding_": [
        0,
        0,
        0,
        0
    ],
    "_skin_": "scec492f4de846a6a0fc0cafc7d6fe2e",
    "_text_": "Check Re-Order",
    "_width_": {
        "type": "ref",
        "value": "preferred"
    },
    "_wrapping_": 2,
    "canUpdateUI": true,
    "centery": {
        "type": "string",
        "value": "50%"
    },
    "containerweight": 100,
    "contentalignment": 4,
    "enabled": false,
    "id": "Label01f864cb479e14f",
    "info": null,
    "ipad": {
        "psp": {
            "wrapping": 2
        }
    },
    "iphone": {
        "psp": {
            "wrapping": 2
        }
    },
    "isvisible": true,
    "kuid": "fcbb8ed4ff5d4918b231d9e770f7fce1",
    "name": "kony.ui.Label",
    "parent": "CopyFlexContainer0b2b1c26ffbf74f",
    "pf": "frmMoreCheckReorderKA",
    "texti18n": "i18n.more.CheckReOrder",
    "tooltip": "",
    "wType": "Label"
}