{
    "DNDConfig": null,
    "__parentReadjusting__": false,
    "_height_": {
        "type": "string",
        "value": "20%"
    },
    "_left_": {
        "type": "string",
        "value": "0%"
    },
    "_margin_": [
        0,
        0,
        0,
        0
    ],
    "_orientation_": 6,
    "_padding_": [
        0,
        0,
        0,
        0
    ],
    "_percent_": true,
    "_skin_": "s388f0c575ef4d08ac3a5ed0a4b90085",
    "_top_": {
        "type": "string",
        "value": "1%"
    },
    "_width_": {
        "type": "string",
        "value": "100%"
    },
    "allboxes": [],
    "autogrowmode": 0,
    "canUpdateUI": true,
    "children": [
        "lblBeneficaryAddressTitle",
        "lblBeneficaryAddress1",
        "lblBeneficaryAddress2",
        "lblBeneficaryAddress3"
    ],
    "clipbounds": true,
    "containerweight": 100,
    "enablescrolling": true,
    "id": "flxBeneficiaryAddress",
    "info": null,
    "isvisible": true,
    "kuid": "g66f45ac2e13463a966c550b5b736bb7",
    "layouttype": 4,
    "name": "kony.ui.FlexContainer",
    "parent": "flxTransferedStatusDetailsBody",
    "pf": "frmTransactionDetailKA",
    "snapgridsize": 10,
    "snaptogrid": true,
    "wType": "FlexContainer",
    "widgetalignment": 1,
    "zindex": 1
}