{
    "@class": "com.kony.gen.viz.model.component.KVizButton",
    "DNDConfig": null,
    "__parentReadjusting__": false,
    "_height_": {
        "type": "string",
        "value": "35dp"
    },
    "_margin_": [
        6,
        6,
        6,
        6
    ],
    "_padding_": [
        0,
        0,
        0,
        0
    ],
    "_skin_": "s94d80e187a44bd9bb9ce6db5e729010",
    "_text_": "Edit",
    "_top_": {
        "type": "string",
        "value": "5dp"
    },
    "_width_": {
        "type": "string",
        "value": "260dp"
    },
    "canUpdateUI": true,
    "centerx": {
        "type": "string",
        "value": "50%"
    },
    "containerweight": 100,
    "contentalignment": 5,
    "displaytext": true,
    "focusskin": "s6e8459b84e349d98629a088bbfe1304",
    "id": "btnEditTranscation",
    "ide_onClick": "AS_Button_c5ad31cef3c74b7fb0242e9ef8d6a744",
    "info": null,
    "isvisible": false,
    "kuid": "2dbce5a0ef61436084a67da64ab9c199",
    "name": "kony.ui.Button",
    "parent": "FlexContainer002f7e6e2ce6b49",
    "pf": "frmConfirmTransferKA",
    "wType": "Button",
    "zindex": 1
}