{
    "@class": "com.kony.gen.viz.model.component.KVizButton",
    "DNDConfig": null,
    "__parentReadjusting__": false,
    "_height_": {
        "type": "string",
        "value": "50dp"
    },
    "_margin_": [
        6,
        6,
        6,
        6
    ],
    "_padding_": [
        0,
        0,
        0,
        0
    ],
    "_skin_": "sf7766faf6e34d0789442a84c1e76e1a",
    "_text_": "Confirm",
    "_top_": {
        "type": "number",
        "value": "0"
    },
    "_width_": {
        "type": "string",
        "value": "70%"
    },
    "canUpdateUI": true,
    "centerx": {
        "type": "string",
        "value": "50.00%"
    },
    "containerweight": 100,
    "contentalignment": 5,
    "displaytext": true,
    "focusskin": "sad5d6d4890b44858a39e4bf8a290332",
    "id": "btnConfirm",
    "ide_onClick": "AS_Button_j3a396c4a6db4b0c8b31e56c2286117f",
    "info": null,
    "isvisible": true,
    "kuid": "d871b0bf6e8c4c7bb3236e7b22f80e89",
    "name": "kony.ui.Button",
    "parent": "flxButtonHolder",
    "pf": "frmAddExternalAccountKA",
    "texti18n": "i18n.Bene.Confirm",
    "wType": "Button",
    "zindex": 1
}