{
    "@class": "com.kony.gen.viz.model.component.KVizTextBox2",
    "DNDConfig": null,
    "__parentReadjusting__": false,
    "_bottom_": {
        "type": "string",
        "value": "4%"
    },
    "_height_": {
        "type": "string",
        "value": "60%"
    },
    "_margin_": [
        0,
        0,
        0,
        0
    ],
    "_padding_": [
        3,
        0,
        0,
        0
    ],
    "_placeholder_": "",
    "_skin_": "s029998596d3421892d0917ea7492e1d",
    "_text_": "",
    "_width_": {
        "type": "string",
        "value": "100%"
    },
    "accessibilityconfig": {
        "a11yLabel": "Enter your Username"
    },
    "android": {
        "ide_onEndEditing": "AS_TextField_c7989c6782d147488b779f4ef866a7df",
        "onEndEditing": "AS_TextField_f22940afad26433d8e45a70811274f96",
        "psp": {
            "keyboardActionLabel": 12
        }
    },
    "autocapitalize": "words",
    "autocomplete": false,
    "autocorrect": false,
    "autofilter": false,
    "canUpdateUI": true,
    "centerx": "50%",
    "containerheight": "",
    "containerheightmode": 1,
    "containerweight": 100,
    "contentalignment": 4,
    "disabledSkins": {},
    "focusskin": "s029998596d3421892d0917ea7492e1d",
    "id": "txtBenficiryNickName",
    "ide_onDone": "AS_TextField_h9d810c1660b4a039f40f20733af9c7c",
    "ide_onTextChange": "AS_TextField_b234fd53545743b893641ef68036d06f",
    "ide_onTouchEnd": "AS_TextField_j95852d9a84c49d3a769c1d1d8ae06d2",
    "info": null,
    "iphone": {
        "ide_onEndEditing": "AS_TextField_c8d6a29aa8f34c37a3f26de0af175c69",
        "onBeginEditing": "AS_TextField_c0713df9ccfc44dba27a3f28bca350b8",
        "onEndEditing": "AS_TextField_c0713df9ccfc44dba27a3f28bca350b8",
        "psp": {
            "keyboardActionLabel": 1
        }
    },
    "isvisible": true,
    "keyboardactionlabel": 4,
    "keyboardtype": "A",
    "kuid": "c314ec3dd2864eb19c879cf2c73cf3e9",
    "maxtextlength": 35,
    "mode": "A",
    "name": "kony.ui.TextBox2",
    "parent": "flxBenficiryNickName",
    "pf": "frmAddExternalAccountKA",
    "securetextentry": false,
    "textinputmode": "A",
    "viewtype": "default",
    "wType": "TextField",
    "zindex": 1
}