{
    "@class": "com.kony.gen.viz.model.component.KVizButton",
    "DNDConfig": null,
    "__parentReadjusting__": false,
    "_height_": {
        "type": "string",
        "value": "100%"
    },
    "_margin_": [
        6,
        6,
        6,
        6
    ],
    "_padding_": [
        0,
        0,
        0,
        0
    ],
    "_right_": {
        "type": "string",
        "value": "5%"
    },
    "_skin_": "s6f262efe0094f1daa5d420436b8daea",
    "_text_": "",
    "_top_": {
        "type": "string",
        "value": "0%"
    },
    "_width_": {
        "type": "string",
        "value": "9%"
    },
    "canUpdateUI": true,
    "containerweight": 100,
    "contentalignment": 5,
    "displaytext": true,
    "focusskin": "s6f262efe0094f1daa5d420436b8daea",
    "id": "btnQRCodeReader",
    "ide_onClick": "AS_Button_e9e4c0f013fe4fd8b78936ce8bb16990",
    "info": null,
    "isvisible": false,
    "kuid": "fbfb0094903e4a34904457f6ce55fc71",
    "name": "kony.ui.Button",
    "parent": "flxScanMerchantQR",
    "pf": "frmJoMoPayLanding",
    "wType": "Button",
    "zindex": 5
}