{
    "@class": "com.kony.gen.viz.model.component.KVizButton",
    "DNDConfig": null,
    "__parentReadjusting__": false,
    "_height_": {
        "type": "string",
        "value": "100%"
    },
    "_left_": "0dp",
    "_margin_": [
        6,
        6,
        6,
        6
    ],
    "_padding_": [
        0,
        0,
        0,
        0
    ],
    "_skin_": "sd3a41987f644ccea1a1c110fa339c2d",
    "_text_": "",
    "_top_": "0dp",
    "_width_": {
        "type": "string",
        "value": "100%"
    },
    "canUpdateUI": true,
    "containerweight": 100,
    "contentalignment": 5,
    "displaytext": true,
    "focusskin": "s4a474f768d84d40a70f44c068b4940d",
    "id": "CopyMorebtn0a2834e158b5c42",
    "ide_onClick": "AS_Button_e0ad8a8ca784434ab03180183211c2c6",
    "info": null,
    "iphone": {
        "psp": {
            "showProgressIndicator": false
        }
    },
    "isvisible": true,
    "kuid": "df3e27c07d8344e88afd60452640df36",
    "name": "kony.ui.Button",
    "parent": "CopyflxMoreOption0h4e2eeea332040",
    "pf": "frmAccountDetailKA",
    "showprogressindicator": false,
    "wType": "Button",
    "zindex": 1
}