{
    "@class": "com.kony.gen.viz.model.component.KVizLabel",
    "DNDConfig": null,
    "__parentReadjusting__": false,
    "_height_": {
        "type": "string",
        "value": "39dp"
    },
    "_margin_": [
        1,
        1,
        1,
        1
    ],
    "_padding_": [
        0,
        0,
        0,
        0
    ],
    "_skin_": "s09477fbfb2f45048565b6d787d0cd37",
    "_text_": "Statements",
    "_top_": {
        "type": "string",
        "value": "9dp"
    },
    "_width_": {
        "type": "string",
        "value": "90%"
    },
    "_wrapping_": 2,
    "canUpdateUI": true,
    "centerx": {
        "type": "string",
        "value": "50%"
    },
    "containerweight": 100,
    "contentalignment": 2,
    "enabled": false,
    "id": "CopyStatementsLbl0d8341593b14e46",
    "info": null,
    "ipad": {
        "psp": {
            "wrapping": 2
        }
    },
    "iphone": {
        "psp": {
            "wrapping": 2
        }
    },
    "isvisible": true,
    "kuid": "gdfb5d36996544828ecec1f295d524e9",
    "name": "kony.ui.Label",
    "parent": "CopyStatementsFlx0c375d1f5e2b040",
    "pf": "frmAccountDetailKA",
    "texti18n": "i18n.overview.accountStatements",
    "tooltip": "",
    "wType": "Label",
    "zindex": 1
}