{
    "DNDConfig": null,
    "__parentReadjusting__": false,
    "_height_": {
        "type": "string",
        "value": "15%"
    },
    "_left_": {
        "type": "string",
        "value": "0"
    },
    "_margin_": [
        0,
        0,
        0,
        0
    ],
    "_orientation_": 6,
    "_padding_": [
        0,
        0,
        0,
        0
    ],
    "_percent_": true,
    "_skin_": "s388f0c575ef4d08ac3a5ed0a4b90085",
    "_top_": {
        "type": "string",
        "value": "0dp"
    },
    "_width_": {
        "type": "string",
        "value": "100%"
    },
    "allboxes": [],
    "autogrowmode": 0,
    "canUpdateUI": true,
    "children": [
        "lblLoansSearchIcon",
        "lblLoansSearchArea",
        "lblLoansExportIcon",
        "lblLoansFilterIcon",
        "CopylblLoansFilterIcon0bdce4598dc274d",
        "flexLoanSingleLine"
    ],
    "clipbounds": true,
    "containerweight": 100,
    "enablescrolling": true,
    "id": "flxLoansSearchScreen",
    "info": null,
    "isvisible": true,
    "kuid": "e1d191dd931746759b06e79583d286c0",
    "layouttype": 2,
    "name": "kony.ui.FlexContainer",
    "parent": "flxLoansLower",
    "pf": "frmAccountDetailKA",
    "snapgridsize": 10,
    "snaptogrid": true,
    "wType": "FlexContainer",
    "widgetalignment": 1,
    "zindex": 10000
}