{
    "@class": "com.kony.gen.viz.model.component.KVizButton",
    "DNDConfig": null,
    "__parentReadjusting__": false,
    "_height_": {
        "type": "string",
        "value": "50dp"
    },
    "_margin_": [
        6,
        6,
        6,
        6
    ],
    "_padding_": [
        0,
        0,
        0,
        0
    ],
    "_right_": {
        "type": "string",
        "value": "80dp"
    },
    "_skin_": "see68cd63ba243d98af2bd9f497e474c",
    "_text_": "]",
    "_top_": {
        "type": "string",
        "value": "0dp"
    },
    "_width_": {
        "type": "string",
        "value": "40dp"
    },
    "android": {
        "psp": {
            "pressedSkin": "see68cd63ba243d98af2bd9f497e474c"
        }
    },
    "canUpdateUI": true,
    "containerweight": 100,
    "contentalignment": 5,
    "disabledSkins": {},
    "displaytext": true,
    "focusskin": "see68cd63ba243d98af2bd9f497e474c",
    "id": "btnDepositCalCulator",
    "ide_onClick": "AS_Button_c18a63ecf3524cf3beca0344874af4b4",
    "info": null,
    "iscustomlayout": true,
    "isvisible": false,
    "kuid": "fa725d4f9fa4452c84a34064a347035c",
    "name": "kony.ui.Button",
    "parent": "FlexContainer0b9fde1e61d3c44",
    "pf": "frmAccountsLandingKA",
    "retaincontentalignment": true,
    "retainflexpositionproperties": true,
    "wType": "Button",
    "zindex": 1
}