{
    "@class": "com.kony.gen.viz.model.component.KVizTextBox2",
    "DNDConfig": null,
    "__parentReadjusting__": false,
    "_height_": {
        "type": "number",
        "value": "32"
    },
    "_left_": {
        "type": "string",
        "value": "2%"
    },
    "_margin_": [
        0,
        0,
        0,
        0
    ],
    "_padding_": [
        0,
        0,
        0,
        0
    ],
    "_placeholder_": "Enter E-mail",
    "_skin_": "s91685645d0c4a43826fdd5c95fe611d",
    "_text_": "",
    "_top_": {
        "type": "string",
        "value": "30%"
    },
    "_width_": {
        "type": "string",
        "value": "260dp"
    },
    "android": {
        "psp": {
            "keyboardActionLabel": 1
        }
    },
    "autocapitalize": "none",
    "autocomplete": false,
    "autocorrect": false,
    "autofilter": false,
    "canUpdateUI": true,
    "containerheight": "",
    "containerheightmode": 1,
    "containerweight": 100,
    "contentalignment": 4,
    "enabled": false,
    "focusskin": "s16addfe9da944a3add187c9cd34aa56",
    "id": "tbxEmailKA",
    "info": null,
    "iphone": {},
    "isvisible": true,
    "keyboardactionlabel": 1,
    "keyboardstyle": "emailpad",
    "keyboardtype": "A",
    "kuid": "ad1cf1d3167441c6813405f35f5f06f6",
    "mode": "A",
    "name": "kony.ui.TextBox2",
    "parent": "flxemail",
    "pf": "frmEnrolluserLandingKA",
    "placeholderi18n": "i18n.login.enterEmailHy",
    "securetextentry": false,
    "textinputmode": "A",
    "viewtype": "default",
    "wType": "TextField"
}