{
    "@class": "com.kony.gen.viz.model.component.KVizButton",
    "DNDConfig": null,
    "__parentReadjusting__": false,
    "_height_": {
        "type": "string",
        "value": "20%"
    },
    "_left_": {
        "type": "string",
        "value": "5%"
    },
    "_margin_": [
        6,
        6,
        6,
        6
    ],
    "_padding_": [
        0,
        0,
        0,
        0
    ],
    "_skin_": "s1858dc0a19e403a93a532b59571c961",
    "_text_": "t",
    "_top_": {
        "type": "string",
        "value": "5%"
    },
    "_width_": {
        "type": "string",
        "value": "7%"
    },
    "canUpdateUI": true,
    "containerweight": 100,
    "contentalignment": 5,
    "displaytext": true,
    "focusskin": "s1858dc0a19e403a93a532b59571c961",
    "id": "btnCard",
    "ide_onClick": "AS_Button_fb3fd93f738d41238621624d47672227",
    "info": null,
    "isvisible": true,
    "kuid": "e37956f2b0e0434fbd89b1e258c7325c",
    "name": "kony.ui.Button",
    "parent": "flxCardDetails",
    "pf": "frmCreditCardPayment",
    "wType": "Button",
    "zindex": 2
}