{
    "DNDConfig": null,
    "__parentReadjusting__": false,
    "_height_": {
        "type": "string",
        "value": "91%"
    },
    "_left_": {
        "type": "string",
        "value": "0dp"
    },
    "_margin_": [
        0,
        0,
        0,
        0
    ],
    "_orientation_": 6,
    "_padding_": [
        0,
        0,
        0,
        0
    ],
    "_percent_": true,
    "_skin_": "s3f548bda3524e0388552e16122dc6fa",
    "_top_": {
        "type": "string",
        "value": "9%"
    },
    "_width_": {
        "type": "string",
        "value": "100%"
    },
    "allboxes": [],
    "allowhorizontalbounce": false,
    "allowverticalbounce": true,
    "bounces": false,
    "canUpdateUI": true,
    "children": [
        "flxAccountNumber",
        "lblFromTitle",
        "flxFrom",
        "flxTo",
        "flxFromContainer",
        "lblToTitle",
        "flxToContainer",
        "lblModeOfBranch",
        "flxRadioDeliveryMode",
        "flxBranch",
        "flxAddressMail",
        "lblFromService",
        "lblToService",
        "lblBranchCode",
        "lblAccBranch",
        "lblFromDateHidee",
        "lblToDateHidee"
    ],
    "clipbounds": true,
    "containerweight": 100,
    "decelerat": false,
    "dragg": false,
    "enablescrolling": true,
    "horizontalscrollindicator": true,
    "id": "flxScrllMain",
    "info": null,
    "isvisible": true,
    "kuid": "e374314d38784690a40a2c04c7093b58",
    "layouttype": 4,
    "name": "kony.ui.FlexScrollContainer",
    "pagingenabled": false,
    "parent": "frmRequestStatementAccounts",
    "pf": "frmRequestStatementAccounts",
    "scrolldirection": 2,
    "snapgridsize": 10,
    "snaptogrid": true,
    "track": false,
    "verticalscrollindicator": false,
    "wType": "FlexScrollContainer",
    "widgetalignment": 1,
    "zindex": 1
}