{
    "@class": "com.kony.gen.viz.model.component.KVizLabel",
    "DNDConfig": null,
    "__parentReadjusting__": false,
    "_height_": {
        "type": "string",
        "value": "40%"
    },
    "_left_": {
        "type": "string",
        "value": "0%"
    },
    "_margin_": [
        1,
        1,
        1,
        1
    ],
    "_padding_": [
        0,
        0,
        0,
        0
    ],
    "_skin_": "s253c4b5c1d64fbc9867399488272dbb",
    "_text_": "Cust Name ",
    "_top_": {
        "type": "string",
        "value": "20%"
    },
    "_width_": {
        "type": "string",
        "value": "60%"
    },
    "_wrapping_": 2,
    "android": {
        "textStyle": {
            "letterSpacing": 0,
            "strikeThrough": false
        }
    },
    "canUpdateUI": true,
    "containerweight": 100,
    "contentalignment": 4,
    "id": "lblTitleCustName",
    "info": null,
    "ipad": {
        "psp": {
            "wrapping": 2
        }
    },
    "iphone": {
        "psp": {
            "wrapping": 2
        }
    },
    "iscustomlayout": false,
    "isvisible": true,
    "kuid": "d51f05364d34469d89da5a1aa5f6b7b6",
    "name": "kony.ui.Label",
    "parent": "flxCustName",
    "pf": "frmBills",
    "retaincontentalignment": false,
    "retainflexpositionproperties": false,
    "texti18n": "i18n.myprofile.FirstName",
    "textstyle": {},
    "tooltip": "",
    "wType": "Label",
    "zindex": 1
}