{
    "@class": "com.kony.gen.viz.model.component.KVizTextBox2",
    "DNDConfig": null,
    "__parentReadjusting__": false,
    "_bottom_": {
        "type": "string",
        "value": "4%"
    },
    "_height_": {
        "type": "string",
        "value": "60%"
    },
    "_margin_": [
        0,
        0,
        0,
        0
    ],
    "_padding_": [
        3,
        0,
        0,
        0
    ],
    "_placeholder_": "",
    "_skin_": "s029998596d3421892d0917ea7492e1d",
    "_text_": "",
    "_width_": {
        "type": "string",
        "value": "100%"
    },
    "accessibilityconfig": {
        "a11yLabel": "Enter your Username"
    },
    "android": {
        "ide_onEndEditing": "AS_TextField_f9e4b56de84c4e7586a4d5807b103085",
        "onEndEditing": "AS_TextField_ja28486c7a3043998424fea66ecabfa6"
    },
    "autocapitalize": "none",
    "autocomplete": false,
    "autocorrect": false,
    "autofilter": false,
    "canUpdateUI": true,
    "centerx": {
        "type": "string",
        "value": "50%"
    },
    "containerheight": "",
    "containerheightmode": 1,
    "containerweight": 100,
    "contentalignment": 4,
    "disabledSkins": {},
    "focusskin": "s029998596d3421892d0917ea7492e1d",
    "id": "tbxBillerID",
    "ide_onDone": "AS_TextField_h16af155e1bc47138eda1342c4388ad7",
    "ide_onTextChange": "AS_TextField_c0756115e64f4e1a81ddd590a8430675",
    "ide_onTouchEnd": "AS_TextField_ac70cace2d8d4c09b1542711af09a37b",
    "info": null,
    "iphone": {
        "ide_onEndEditing": "AS_TextField_f1eaf0b38e3e4c75b46e5adf9b5f2c40",
        "onBeginEditing": "AS_TextField_c0713df9ccfc44dba27a3f28bca350b8",
        "onEndEditing": "AS_TextField_c0713df9ccfc44dba27a3f28bca350b8"
    },
    "isvisible": true,
    "keyboardtype": "A",
    "kuid": "hc0eba6793d54c71b49cf4daa01d274e",
    "maxtextlength": 35,
    "mode": "A",
    "name": "kony.ui.TextBox2",
    "parent": "flxBillerID",
    "pf": "frmAddNewPayeeKA",
    "securetextentry": false,
    "textinputmode": "A",
    "viewtype": "default",
    "wType": "TextField",
    "zindex": 1
}