{
    "@class": "com.kony.gen.viz.model.component.KVizButton",
    "DNDConfig": null,
    "__markedForDelete__": true,
    "__parentReadjusting__": false,
    "_height_": {
        "type": "string",
        "value": "100%"
    },
    "_margin_": [
        6,
        6,
        6,
        6
    ],
    "_padding_": [
        0,
        0,
        0,
        0
    ],
    "_right_": {
        "type": "string",
        "value": "20%"
    },
    "_skin_": "sbdbc65107b746c7870a660f64d4b256",
    "_text_": "0",
    "_width_": {
        "type": "string",
        "value": "10%"
    },
    "canUpdateUI": true,
    "centery": {
        "type": "string",
        "value": "50%"
    },
    "containerId": true,
    "containerweight": 100,
    "contentalignment": 5,
    "displaytext": true,
    "focusskin": "sbdbc65107b746c7870a660f64d4b256",
    "id": "btnUpdateBene",
    "ide_onClick": "AS_Button_j1979157760d4889bb4c090698b04a8b",
    "info": null,
    "isvisible": true,
    "kuid": "bce150425b0a4a469da2883cdbf80e34",
    "name": "kony.ui.Button",
    "parent": "flxAnimateBenf",
    "pf": "segJMPBene",
    "wType": "Button",
    "zindex": 1
}