{
    "@class": "com.kony.gen.viz.model.component.KVizLabel",
    "DNDConfig": null,
    "__parentReadjusting__": false,
    "_height_": {
        "type": "ref",
        "value": "preferred"
    },
    "_left_": {
        "type": "string",
        "value": "13dp"
    },
    "_margin_": [
        1,
        1,
        1,
        1
    ],
    "_padding_": [
        0,
        0,
        0,
        0
    ],
    "_skin_": "sd3886761ead41b8974b1fab3f3fe636",
    "_text_": "XYZ Bank",
    "_top_": {
        "type": "string",
        "value": "55dp"
    },
    "_width_": {
        "type": "ref",
        "value": "preferred"
    },
    "_wrapping_": 2,
    "canUpdateUI": true,
    "containerweight": 100,
    "contentalignment": 4,
    "enabled": false,
    "id": "toAccountBankNameKA",
    "info": null,
    "ipad": {
        "psp": {
            "wrapping": 2
        }
    },
    "iphone": {
        "psp": {
            "wrapping": 2
        }
    },
    "isvisible": true,
    "kuid": "587f33b7c46e47e0a86aceca411f48cb",
    "name": "kony.ui.Label",
    "parent": "toAccountNameContainer",
    "pf": "frmNewTransferKA",
    "tooltip": "",
    "wType": "Label",
    "zindex": 1
}