{
    "@class": "com.kony.gen.viz.model.component.KVizTextBox2",
    "DNDConfig": null,
    "__parentReadjusting__": false,
    "_height_": {
        "type": "string",
        "value": "48%"
    },
    "_left_": {
        "type": "string",
        "value": "20dp"
    },
    "_margin_": [
        0,
        0,
        0,
        0
    ],
    "_padding_": [
        0,
        0,
        0,
        0
    ],
    "_placeholder_": "0.000",
    "_skin_": "s029998596d3421892d0917ea7492e1d",
    "_text_": "",
    "_top_": {
        "type": "string",
        "value": "19%"
    },
    "_width_": {
        "type": "string",
        "value": "82%"
    },
    "android": {
        "ide_onEndEditing": "AS_TextField_h38731e15fc54580a10f911f0a3e069f",
        "psp": {
            "keyboardActionLabel": 4
        }
    },
    "autocapitalize": "none",
    "autocomplete": false,
    "autocorrect": false,
    "autofilter": false,
    "canUpdateUI": true,
    "containerheight": "",
    "containerheightmode": 1,
    "containerweight": 100,
    "contentalignment": 4,
    "focusskin": "s2398421dbd2495a868884b445f4afe3",
    "id": "txtBox",
    "ide_onDone": "AS_TextField_d89cd9d4d9804a29b8b9d35051f88f18",
    "ide_onTextChange": "AS_TextField_b751b9b023d545c8bdcbe3e5725b9a1b",
    "ide_onTouchStart": "AS_TextField_e529c8d4c0a9419491861170617350c6",
    "info": null,
    "iphone": {
        "ide_onEndEditing": "AS_TextField_jf64c673d56c46cc96567dd2c966fd7d",
        "psp": {
            "closeButtonText": "Done",
            "inputAccessoryViewType": 1,
            "keyboardActionLabel": 1,
            "showClearButton": false,
            "showCloseButton": true,
            "showProgressIndicator": false
        }
    },
    "isvisible": true,
    "keyboardactionlabel": 4,
    "keyboardstyle": "number",
    "keyboardtype": "A",
    "kuid": "b89b352a78d34db782b4f415e84f4d00",
    "maxtextlength": 9,
    "mode": "N",
    "name": "kony.ui.TextBox2",
    "paddinginpixel": false,
    "parent": "flxAmount",
    "pf": "frmNewTransferKA",
    "placeholderskin": "s2484680d5974fa68d5a96a96c6b37b6",
    "securetextentry": false,
    "showclearbutton": false,
    "showoprogressindicator": false,
    "textinputmode": "N",
    "viewtype": "default",
    "wType": "TextField",
    "zindex": 1
}