{
    "@class": "com.kony.gen.viz.model.component.KVizButton",
    "DNDConfig": null,
    "__parentReadjusting__": false,
    "_height_": {
        "type": "ref",
        "value": "preferred"
    },
    "_left_": {
        "type": "string",
        "value": "0%"
    },
    "_margin_": [
        6,
        6,
        6,
        6
    ],
    "_padding_": [
        0,
        0,
        0,
        0
    ],
    "_skin_": "sfdddcea6cff4d788f42120343a323ef",
    "_text_": "s",
    "_width_": {
        "type": "string",
        "value": "100%"
    },
    "canUpdateUI": true,
    "centery": {
        "type": "string",
        "value": "50%"
    },
    "containerweight": 100,
    "contentalignment": 4,
    "displaytext": true,
    "focusskin": "sfdddcea6cff4d788f42120343a323ef",
    "id": "btnReplaceDebitCards",
    "ide_onClick": "AS_Button_ab9ab0fe7884491589d7b06781b0118b",
    "info": null,
    "isvisible": true,
    "kuid": "a7dd8416e0764d7e95b3c1133a53480c",
    "name": "kony.ui.Button",
    "parent": "flxReplaceDebitCards",
    "pf": "frmApplyNewCardsKA",
    "wType": "Button",
    "zindex": 1
}