{
    "DNDConfig": null,
    "__parentReadjusting__": false,
    "_height_": {
        "type": "string",
        "value": "40%"
    },
    "_left_": {
        "type": "string",
        "value": "5%"
    },
    "_margin_": [
        0,
        0,
        0,
        0
    ],
    "_orientation_": 6,
    "_padding_": [
        0,
        0,
        0,
        0
    ],
    "_percent_": true,
    "_skin_": "s388f0c575ef4d08ac3a5ed0a4b90085",
    "_top_": {
        "type": "string",
        "value": "2%"
    },
    "_width_": {
        "type": "string",
        "value": "90%"
    },
    "allboxes": [],
    "autogrowmode": 0,
    "canUpdateUI": true,
    "children": [
        "lblDateFromCards",
        "CopyFlexContainer0c7c87912c7ac48",
        "CopyFlexContainer0d5ae4aa3c34e4c",
        "calDateFromCards",
        "calDateToCards",
        "lblDateToCards",
        "CopyLabel0ief60611be0e42",
        "CopyLabel0i237b695a64a49",
        "lblCalenderIconFrom",
        "lblCalenderIconTo"
    ],
    "clipbounds": true,
    "containerweight": 100,
    "enablescrolling": true,
    "id": "CopyFlexContainer0c481c34c5bb540",
    "info": null,
    "isvisible": true,
    "kuid": "jb1e38250ed047ccaa53aa036cf68f22",
    "layouttype": 2,
    "name": "kony.ui.FlexContainer",
    "parent": "flxCardsFilterScreen",
    "pf": "frmFilterTransaction",
    "snapgridsize": 10,
    "snaptogrid": true,
    "wType": "FlexContainer",
    "widgetalignment": 1,
    "zindex": 1
}