{
  "background_image": "pinreminderbackground.png",
  "bg_type": "image",
  "border_color": "000000ff",
  "border_style": "plain",
  "border_type": 0,
  "border_width": 0,
  "isDefaultSkin": false,
  "kuid": "s5fd661aaec4476499a48296dd0afbc8",
  "wType": "FlexContainer"
}