{
  "background_color": "00000000",
  "bg_type": "one",
  "border_color": "000000ff",
  "border_radius": 2,
  "border_style": "custom",
  "border_type": 0,
  "border_width": 0,
  "font_color": "000000ff",
  "font_name": "Arial",
  "font_size": 100,
  "font_style": "normal",
  "font_weight": "normal",
  "isDefaultSkin": false,
  "kuid": "sc4cbd6070a243bea2ea6f42e445c9b0",
  "wType": "Group"
}