{
  "background_color": "00000000",
  "bg_type": "one",
  "border_color": "424242ff",
  "border_style": "plain",
  "border_type": 0,
  "border_width": 0,
  "font_color": "debf23ff",
  "font_name": "System",
  "font_size": 100,
  "font_style": "normal",
  "font_weight": "normal",
  "isDefaultSkin": false,
  "kuid": "s742660243324bb68bf1218ecb1d5101",
  "wType": "Label",
  "watchos": {
    "font_name": "Boj-iWatch-Font"
  }
}