{
  "background_color": "ffffffff",
  "bg_type": "one",
  "border_color": "282828ff",
  "border_style": "plain",
  "border_type": 0,
  "border_width": 1,
  "font_color": "555555ff",
  "font_name": "Cairo-Regular",
  "font_size": 125,
  "isDefaultSkin": false,
  "kuid": "s0c8fbd096b34deba6114c085ea333f9",
  "wType": "TextField"
}