{
  "android": {
    "font_name": "Cairo-Regular",
    "font_size": 0,
    "isForked": false
  },
  "background_color": "00000000",
  "bg_type": "one",
  "border_color": "000000ff",
  "border_style": "plain",
  "border_type": 0,
  "border_width": 0,
  "desktopweb": {
    "font_size": 0,
    "isForked": false
  },
  "font_color": "00000000",
  "font_name": "Cairo-Regular",
  "font_size": 0,
  "ipad": {
    "font_size": 0,
    "isForked": false
  },
  "iphone": {
    "font_size": 0,
    "isForked": false
  },
  "isDefaultSkin": false,
  "kiosk": {
    "font_size": 0,
    "isForked": false
  },
  "kuid": "s231e5bedfd343109c7774e98452ccb4",
  "spaan": {
    "font_size": 0,
    "isForked": false
  },
  "spaandroidtablet": {
    "font_size": 0,
    "isForked": false
  },
  "spabb": {
    "font_size": 0,
    "isForked": false
  },
  "spaip": {
    "font_size": 0,
    "isForked": false
  },
  "spaipad": {
    "font_size": 0,
    "isForked": false
  },
  "spawindowstablet": {
    "font_size": 0,
    "isForked": false
  },
  "spawinphone8": {
    "font_size": 0,
    "isForked": false
  },
  "tabrcandroid": {
    "font_size": 0,
    "isForked": false
  },
  "wType": "Calendar",
  "watchos": {
    "font_size": 0,
    "isForked": false
  },
  "windows8": {
    "font_size": 0,
    "isForked": false
  },
  "winphone8": {
    "font_size": 0,
    "isForked": false
  }
}