{
    "android": {
        "border_color": {
            "angle": 180,
            "colors": [
                "0000ff00",
                "0000ff00",
                "ffffff00",
                "ffffff80"
            ],
            "cs": [
                0,
                44,
                91,
                95
            ],
            "gradientType": "toBottom",
            "gt": "linear"
        },
        "border_style": "custom",
        "border_type": 1,
        "bottom_left_border_radius": 4,
        "bottom_right_border_radius": 4,
        "font_name": "Cairo-Regular",
        "font_size": 100,
        "isForked": true,
        "top_left_border_radius": 4,
        "top_right_border_radius": 4
    },
    "background_color": "00000000",
    "bg_type": "one",
    "border_color": "424242ff",
    "border_style": "plain",
    "border_type": 0,
    "border_width": 1,
    "desktopweb": {
        "font_name": "Andale Mono",
        "font_size": 100,
        "isForked": false
    },
    "fontSizeInPx": false,
    "font_color": "ffffff7f",
    "font_name": "Cairo-Regular",
    "font_size": 100,
    "font_style": "normal",
    "font_weight": "normal",
    "ipad": {
        "border_color": {
            "angle": 180,
            "colors": [
                "0000ff00",
                "0000ff00",
                "ffffff00",
                "ffffff80"
            ],
            "cs": [
                0,
                44,
                91,
                95
            ],
            "gradientType": "toBottom",
            "gt": "linear"
        },
        "border_radius": 4,
        "border_style": "custom",
        "border_type": 1,
        "font_name": "AmericanTypewriter",
        "font_size": 100,
        "isForked": true
    },
    "iphone": {
        "border_color": {
            "angle": 180,
            "colors": [
                "0000ff00",
                "0000ff00",
                "ffffff00",
                "ffffff80"
            ],
            "cs": [
                0,
                44,
                91,
                95
            ],
            "gradientType": "toBottom",
            "gt": "linear"
        },
        "border_radius": 4,
        "border_style": "custom",
        "border_type": 1,
        "font_name": "Cairo-Regular",
        "font_size": 100,
        "isForked": true
    },
    "isDefaultSkin": false,
    "kiosk": {
        "border_color": {
            "angle": 180,
            "colors": [
                "0000ff00",
                "0000ff00",
                "ffffff00",
                "ffffff80"
            ],
            "cs": [
                0,
                44,
                91,
                95
            ],
            "gradientType": "toBottom",
            "gt": "linear"
        },
        "border_radius": 4,
        "border_style": "custom",
        "border_type": 1,
        "font_name": "GenericMonospace",
        "font_size": 100,
        "isForked": true
    },
    "kuid": "s1fa39467c72472b9b33671af710d1ab",
    "spaan": {
        "font_name": "Andale Mono",
        "font_size": 100,
        "isForked": false
    },
    "spaandroidtablet": {
        "font_name": "Andale Mono",
        "font_size": 100,
        "isForked": false
    },
    "spabb": {
        "font_name": "Andale Mono",
        "font_size": 100,
        "isForked": false
    },
    "spaip": {
        "font_name": "Andale Mono",
        "font_size": 100,
        "isForked": false
    },
    "spaipad": {
        "font_name": "Andale Mono",
        "font_size": 100,
        "isForked": false
    },
    "spawindowstablet": {
        "font_name": "Andale Mono",
        "font_size": 100,
        "isForked": false
    },
    "spawinphone8": {
        "font_name": "Andale Mono",
        "font_size": 100,
        "isForked": false
    },
    "tabrcandroid": {
        "border_color": {
            "angle": 180,
            "colors": [
                "0000ff00",
                "0000ff00",
                "ffffff00",
                "ffffff80"
            ],
            "cs": [
                0,
                44,
                91,
                95
            ],
            "gradientType": "toBottom",
            "gt": "linear"
        },
        "border_style": "custom",
        "border_type": 1,
        "bottom_left_border_radius": 4,
        "bottom_right_border_radius": 4,
        "font_name": "BoJFont",
        "font_size": 100,
        "isForked": true,
        "top_left_border_radius": 4,
        "top_right_border_radius": 4
    },
    "wType": "Label",
    "watchos": {
        "font_name": "Arial",
        "font_size": 100,
        "isForked": false
    },
    "windows8": {
        "border_color": {
            "angle": 180,
            "colors": [
                "0000ff00",
                "0000ff00",
                "ffffff00",
                "ffffff80"
            ],
            "cs": [
                0,
                44,
                91,
                95
            ],
            "gradientType": "toBottom",
            "gt": "linear"
        },
        "border_style": "custom",
        "border_type": 1,
        "bottom_left_border_radius": 4,
        "bottom_right_border_radius": 4,
        "font_name": "GenericMonospace",
        "font_size": 100,
        "isForked": true,
        "top_left_border_radius": 4,
        "top_right_border_radius": 4
    },
    "winphone8": {
        "border_color": {
            "angle": 180,
            "colors": [
                "0000ff00",
                "0000ff00",
                "ffffff00",
                "ffffff80"
            ],
            "cs": [
                0,
                44,
                91,
                95
            ],
            "gradientType": "toBottom",
            "gt": "linear"
        },
        "border_style": "custom",
        "border_type": 1,
        "bottom_left_border_radius": 4,
        "bottom_right_border_radius": 4,
        "font_name": "GenericMonospace",
        "font_size": 100,
        "isForked": true,
        "top_left_border_radius": 4,
        "top_right_border_radius": 4
    }
}