{
  "background_color": "093759ff",
  "bg_type": "one",
  "border_color": "ffffff7f",
  "border_style": "plain",
  "border_type": 0,
  "border_width": 0,
  "isDefaultSkin": false,
  "kuid": "sa1a1a15fe55455b8196f8d785f05c2b",
  "wType": "FlexContainer"
}