{
  "android": {
    "font_name": "Cairo-Regular",
    "font_size": 97,
    "isForked": false
  },
  "androidwearos": {
    "font_size": 125,
    "isForked": false
  },
  "background_color": "00000000",
  "bg_type": "one",
  "border_color": "424242ff",
  "border_style": "plain",
  "border_type": 0,
  "border_width": 0,
  "desktopweb": {
    "font_name": "Cairo-Regular",
    "font_size": 219,
    "isForked": false
  },
  "fontSizeInPx": true,
  "font_color": "ffffff66",
  "font_name": "Cairo-Regular",
  "font_size": 97,
  "font_style": "normal",
  "font_weight": "normal",
  "ipad": {
    "font_name": "Cairo-Regular",
    "font_size": 125,
    "isForked": false
  },
  "iphone": {
    "font_name": "Cairo-Regular",
    "font_size": 88,
    "isForked": false
  },
  "isDefaultSkin": false,
  "kiosk": {
    "font_name": "GenericMonospace",
    "font_size": 219,
    "isForked": false
  },
  "kuid": "sbf1041f43284e209fa68623403864d5",
  "spaan": {
    "font_name": "Cairo-Regular",
    "font_size": 156,
    "isForked": false
  },
  "spaandroidtablet": {
    "font_name": "Cairo-Regular",
    "font_size": 167,
    "isForked": false
  },
  "spabb": {
    "font_name": "Cairo-Regular",
    "font_size": 194,
    "isForked": false
  },
  "spaip": {
    "font_name": "Cairo-Regular",
    "font_size": 142,
    "isForked": false
  },
  "spaipad": {
    "font_name": "Cairo-Regular",
    "font_size": 137,
    "isForked": false
  },
  "spawindowstablet": {
    "font_name": "Cairo-Regular",
    "font_size": 137,
    "isForked": false
  },
  "spawinphone8": {
    "font_name": "Cairo-Regular",
    "font_size": 194,
    "isForked": false
  },
  "tabrcandroid": {
    "font_name": "Cairo-Regular",
    "font_size": 207,
    "isForked": false
  },
  "wType": "Label",
  "watchos": {
    "font_name": "Cairo-Regular",
    "font_size": 125,
    "isForked": false
  },
  "windows8": {
    "font_name": "GenericMonospace",
    "font_size": 85,
    "isForked": false
  },
  "winphone8": {
    "font_name": "GenericMonospace",
    "font_size": 117,
    "isForked": false
  }
}