{
  "android": {
    "font_name": "Lato-Light",
    "font_size": 93,
    "isForked": false
  },
  "background_color": "3d3d3d00",
  "bg_type": "one",
  "border_color": "424242ff",
  "border_style": "plain",
  "border_type": 0,
  "border_width": 0,
  "desktopweb": {
    "font_name": "Cairo-Regular",
    "font_size": 93,
    "isForked": false
  },
  "fontSizeInPx": false,
  "font_color": "3d3d3dff",
  "font_name": "Cairo-Regular",
  "font_size": 93,
  "font_style": "normal",
  "font_weight": "normal",
  "ipad": {
    "font_name": "Cairo-Regular",
    "font_size": 93,
    "isForked": false
  },
  "iphone": {
    "font_name": "Lato-Light",
    "font_size": 93,
    "isForked": false
  },
  "isDefaultSkin": false,
  "kiosk": {
    "font_name": "GenericMonospace",
    "font_size": 93,
    "isForked": false
  },
  "kuid": "sc441318c5c441c6969f73d740b7d999",
  "spaan": {
    "font_name": "Cairo-Regular",
    "font_size": 93,
    "isForked": false
  },
  "spaandroidtablet": {
    "font_name": "Cairo-Regular",
    "font_size": 93,
    "isForked": false
  },
  "spabb": {
    "font_name": "Cairo-Regular",
    "font_size": 93,
    "isForked": false
  },
  "spaip": {
    "font_name": "Cairo-Regular",
    "font_size": 93,
    "isForked": false
  },
  "spaipad": {
    "font_name": "Cairo-Regular",
    "font_size": 93,
    "isForked": false
  },
  "spawindowstablet": {
    "font_name": "Cairo-Regular",
    "font_size": 93,
    "isForked": false
  },
  "spawinphone8": {
    "font_name": "Cairo-Regular",
    "font_size": 93,
    "isForked": false
  },
  "tabrcandroid": {
    "font_name": "Cairo-Regular",
    "font_size": 93,
    "isForked": false
  },
  "wType": "Label",
  "watchos": {
    "font_name": "Cairo-Regular",
    "font_size": 93,
    "isForked": false
  },
  "windows8": {
    "font_name": "GenericMonospace",
    "font_size": 93,
    "isForked": false
  },
  "winphone8": {
    "font_name": "GenericMonospace",
    "font_size": 93,
    "isForked": false
  }
}