{
  "android": {
    "font_name": "BoJFont",
    "font_size": 180,
    "isForked": false
  },
  "background_color": "00000000",
  "bg_type": "one",
  "border_color": "424242ff",
  "border_style": "plain",
  "border_type": 0,
  "border_width": 0,
  "desktopweb": {
    "font_name": "Cairo-Regular",
    "font_size": 180,
    "isForked": false
  },
  "fontSizeInPx": false,
  "font_color": "0aacd6ff",
  "font_name": "Cairo-Regular",
  "font_size": 180,
  "font_style": "normal",
  "font_weight": "normal",
  "ipad": {
    "font_name": "Cairo-Regular",
    "font_size": 180,
    "isForked": false
  },
  "iphone": {
    "font_name": "BoJFont",
    "font_size": 180,
    "isForked": false
  },
  "isDefaultSkin": false,
  "kiosk": {
    "font_name": "GenericMonospace",
    "font_size": 180,
    "isForked": false
  },
  "kuid": "s391c83d39e84548aa5c542c36c1bcb8",
  "spaan": {
    "font_name": "Cairo-Regular",
    "font_size": 180,
    "isForked": false
  },
  "spaandroidtablet": {
    "font_name": "Cairo-Regular",
    "font_size": 180,
    "isForked": false
  },
  "spabb": {
    "font_name": "Cairo-Regular",
    "font_size": 180,
    "isForked": false
  },
  "spaip": {
    "font_name": "Cairo-Regular",
    "font_size": 180,
    "isForked": false
  },
  "spaipad": {
    "font_name": "Cairo-Regular",
    "font_size": 180,
    "isForked": false
  },
  "spawindowstablet": {
    "font_name": "Cairo-Regular",
    "font_size": 180,
    "isForked": false
  },
  "spawinphone8": {
    "font_name": "Cairo-Regular",
    "font_size": 180,
    "isForked": false
  },
  "tabrcandroid": {
    "font_name": "Cairo-Regular",
    "font_size": 180,
    "isForked": false
  },
  "wType": "Label",
  "watchos": {
    "font_name": "Cairo-Regular",
    "font_size": 180,
    "isForked": false
  },
  "windows8": {
    "font_name": "GenericMonospace",
    "font_size": 180,
    "isForked": false
  },
  "winphone8": {
    "font_name": "GenericMonospace",
    "font_size": 180,
    "isForked": false
  }
}