{
  "background_color": "efefefff",
  "bg_type": "one",
  "border_color": "efefefff",
  "border_radius": 20,
  "border_style": "custom",
  "border_type": 0,
  "border_width": 1,
  "isDefaultSkin": false,
  "kuid": "se7b5e7673bd49e6bbab5ebf395e267a",
  "wType": "FlexContainer"
}