{
    "android": {
        "background_color": {
            "angle": 90,
            "colors": [
                "ffffff66",
                "ffffff40",
                "ffffff26"
            ],
            "cs": [
                0,
                0,
                100
            ],
            "gradientType": "toRight",
            "gt": "linear"
        },
        "background_style": "linear",
        "bg_type": "ms_gradient",
        "border_color": "ffffff02",
        "border_style": "custom",
        "border_type": 0,
        "border_width": 1,
        "bottom_left_border_radius": 2,
        "bottom_right_border_radius": 2,
        "font_color": "ffffffff",
        "font_name": "Lato-Black",
        "font_size": 77,
        "isForked": true,
        "text_shadow": {
            "br": 0,
            "color": "000000ff",
            "nm": 0,
            "x": 0,
            "y": 0
        },
        "top_left_border_radius": 2,
        "top_right_border_radius": 2
    },
    "background_color": "56a9ddff",
    "bg_type": "one",
    "border_color": "ffffffff",
    "border_style": "plain",
    "border_type": 0,
    "border_width": 0,
    "desktopweb": {
        "background_color": {
            "angle": 90,
            "colors": [
                "ffffff66",
                "ffffff40",
                "ffffff26"
            ],
            "cs": [
                0,
                0,
                100
            ],
            "gradientType": "toRight",
            "gt": "linear"
        },
        "background_style": "linear",
        "bg_type": "ms_gradient",
        "bottom_left_border_color": "ffffffff",
        "bottom_left_border_style": "plain",
        "bottom_left_border_width": 0,
        "bottom_right_border_color": "ffffffff",
        "bottom_right_border_style": "plain",
        "bottom_right_border_width": 0,
        "font_color": "ffffffff",
        "font_name": "Cairo-Regular",
        "font_size": 77,
        "isForked": true,
        "shadow": {
            "br": 0,
            "color": "000000ff",
            "inner": false,
            "nm": 0,
            "x": 0,
            "y": 0
        },
        "text_shadow": {
            "br": 0,
            "color": "000000ff",
            "nm": 0,
            "x": 0,
            "y": 0
        },
        "top_left_border_color": "ffffffff",
        "top_left_border_style": "plain",
        "top_left_border_width": 0,
        "top_right_border_color": "ffffffff",
        "top_right_border_style": "plain",
        "top_right_border_width": 0
    },
    "font_color": "ffffffff",
    "font_name": "Cairo-Regular",
    "font_size": 148,
    "font_style": "normal",
    "font_weight": "normal",
    "ipad": {
        "background_color": {
            "angle": 90,
            "colors": [
                "ffffff66",
                "ffffff40",
                "ffffff26"
            ],
            "cs": [
                0,
                0,
                100
            ],
            "gradientType": "toRight",
            "gt": "linear"
        },
        "background_style": "linear",
        "bg_type": "ms_gradient",
        "border_color": "ffffff02",
        "border_radius": 2,
        "border_style": "custom",
        "border_type": 0,
        "border_width": 1,
        "font_color": "ffffffff",
        "font_name": "Lato-Black",
        "font_size": 77,
        "isForked": true,
        "shadow": {
            "br": 0,
            "color": "000000ff",
            "inner": false,
            "nm": 0,
            "x": 0,
            "y": 0
        },
        "text_shadow": {
            "br": 0,
            "color": "000000ff",
            "nm": 0,
            "x": 0,
            "y": 0
        }
    },
    "iphone": {
        "background_color": {
            "angle": 90,
            "colors": [
                "ffffff66",
                "ffffff40",
                "ffffff26"
            ],
            "cs": [
                0,
                0,
                100
            ],
            "gradientType": "toRight",
            "gt": "linear"
        },
        "background_style": "linear",
        "bg_type": "ms_gradient",
        "border_color": "ffffff02",
        "border_radius": 2,
        "border_style": "custom",
        "border_type": 0,
        "border_width": 1,
        "font_color": "ffffffff",
        "font_name": "Lato-Black",
        "font_size": 77,
        "isForked": true,
        "shadow": {
            "br": 0,
            "color": "000000ff",
            "inner": false,
            "nm": 0,
            "x": 0,
            "y": 0
        },
        "text_shadow": {
            "br": 0,
            "color": "000000ff",
            "nm": 0,
            "x": 0,
            "y": 0
        }
    },
    "isDefaultSkin": false,
    "kiosk": {
        "background_color": "ffffff00",
        "bg_type": "one",
        "border_color": "ffffff02",
        "border_radius": 2,
        "border_style": "custom",
        "border_type": 0,
        "border_width": 1,
        "font_color": "ffffffff",
        "font_name": "GenericMonospace",
        "font_size": 77,
        "isForked": true
    },
    "kuid": "s521a62f00464d0399c3c59c5c83a237",
    "spaan": {
        "background_color": {
            "angle": 90,
            "colors": [
                "ffffff66",
                "ffffff40",
                "ffffff26"
            ],
            "cs": [
                0,
                0,
                100
            ],
            "gradientType": "toRight",
            "gt": "linear"
        },
        "background_style": "linear",
        "bg_type": "ms_gradient",
        "bottom_left_border_color": "ffffffff",
        "bottom_left_border_style": "plain",
        "bottom_left_border_width": 0,
        "bottom_right_border_color": "ffffffff",
        "bottom_right_border_style": "plain",
        "bottom_right_border_width": 0,
        "font_color": "ffffffff",
        "font_name": "Cairo-Regular",
        "font_size": 77,
        "isForked": true,
        "shadow": {
            "br": 0,
            "color": "000000ff",
            "inner": false,
            "nm": 0,
            "x": 0,
            "y": 0
        },
        "text_shadow": {
            "br": 0,
            "color": "000000ff",
            "nm": 0,
            "x": 0,
            "y": 0
        },
        "top_left_border_color": "ffffffff",
        "top_left_border_style": "plain",
        "top_left_border_width": 0,
        "top_right_border_color": "ffffffff",
        "top_right_border_style": "plain",
        "top_right_border_width": 0
    },
    "spaandroidtablet": {
        "background_color": {
            "angle": 90,
            "colors": [
                "ffffff66",
                "ffffff40",
                "ffffff26"
            ],
            "cs": [
                0,
                0,
                100
            ],
            "gradientType": "toRight",
            "gt": "linear"
        },
        "background_style": "linear",
        "bg_type": "ms_gradient",
        "bottom_left_border_color": "ffffffff",
        "bottom_left_border_style": "plain",
        "bottom_left_border_width": 0,
        "bottom_right_border_color": "ffffffff",
        "bottom_right_border_style": "plain",
        "bottom_right_border_width": 0,
        "font_color": "ffffffff",
        "font_name": "Cairo-Regular",
        "font_size": 77,
        "isForked": true,
        "shadow": {
            "br": 0,
            "color": "000000ff",
            "inner": false,
            "nm": 0,
            "x": 0,
            "y": 0
        },
        "text_shadow": {
            "br": 0,
            "color": "000000ff",
            "nm": 0,
            "x": 0,
            "y": 0
        },
        "top_left_border_color": "ffffffff",
        "top_left_border_style": "plain",
        "top_left_border_width": 0,
        "top_right_border_color": "ffffffff",
        "top_right_border_style": "plain",
        "top_right_border_width": 0
    },
    "spabb": {
        "background_color": {
            "angle": 90,
            "colors": [
                "ffffff66",
                "ffffff40",
                "ffffff26"
            ],
            "cs": [
                0,
                0,
                100
            ],
            "gradientType": "toRight",
            "gt": "linear"
        },
        "background_style": "linear",
        "bg_type": "ms_gradient",
        "bottom_left_border_color": "ffffffff",
        "bottom_left_border_style": "plain",
        "bottom_left_border_width": 0,
        "bottom_right_border_color": "ffffffff",
        "bottom_right_border_style": "plain",
        "bottom_right_border_width": 0,
        "font_color": "ffffffff",
        "font_name": "Cairo-Regular",
        "font_size": 77,
        "isForked": true,
        "shadow": {
            "br": 0,
            "color": "000000ff",
            "inner": false,
            "nm": 0,
            "x": 0,
            "y": 0
        },
        "text_shadow": {
            "br": 0,
            "color": "000000ff",
            "nm": 0,
            "x": 0,
            "y": 0
        },
        "top_left_border_color": "ffffffff",
        "top_left_border_style": "plain",
        "top_left_border_width": 0,
        "top_right_border_color": "ffffffff",
        "top_right_border_style": "plain",
        "top_right_border_width": 0
    },
    "spaip": {
        "background_color": {
            "angle": 90,
            "colors": [
                "ffffff66",
                "ffffff40",
                "ffffff26"
            ],
            "cs": [
                0,
                0,
                100
            ],
            "gradientType": "toRight",
            "gt": "linear"
        },
        "background_style": "linear",
        "bg_type": "ms_gradient",
        "bottom_left_border_color": "ffffffff",
        "bottom_left_border_style": "plain",
        "bottom_left_border_width": 0,
        "bottom_right_border_color": "ffffffff",
        "bottom_right_border_style": "plain",
        "bottom_right_border_width": 0,
        "font_color": "ffffffff",
        "font_name": "Cairo-Regular",
        "font_size": 77,
        "isForked": true,
        "shadow": {
            "br": 0,
            "color": "000000ff",
            "inner": false,
            "nm": 0,
            "x": 0,
            "y": 0
        },
        "text_shadow": {
            "br": 0,
            "color": "000000ff",
            "nm": 0,
            "x": 0,
            "y": 0
        },
        "top_left_border_color": "ffffffff",
        "top_left_border_style": "plain",
        "top_left_border_width": 0,
        "top_right_border_color": "ffffffff",
        "top_right_border_style": "plain",
        "top_right_border_width": 0
    },
    "spaipad": {
        "background_color": {
            "angle": 90,
            "colors": [
                "ffffff66",
                "ffffff40",
                "ffffff26"
            ],
            "cs": [
                0,
                0,
                100
            ],
            "gradientType": "toRight",
            "gt": "linear"
        },
        "background_style": "linear",
        "bg_type": "ms_gradient",
        "bottom_left_border_color": "ffffffff",
        "bottom_left_border_style": "plain",
        "bottom_left_border_width": 0,
        "bottom_right_border_color": "ffffffff",
        "bottom_right_border_style": "plain",
        "bottom_right_border_width": 0,
        "font_color": "ffffffff",
        "font_name": "Cairo-Regular",
        "font_size": 77,
        "isForked": true,
        "shadow": {
            "br": 0,
            "color": "000000ff",
            "inner": false,
            "nm": 0,
            "x": 0,
            "y": 0
        },
        "text_shadow": {
            "br": 0,
            "color": "000000ff",
            "nm": 0,
            "x": 0,
            "y": 0
        },
        "top_left_border_color": "ffffffff",
        "top_left_border_style": "plain",
        "top_left_border_width": 0,
        "top_right_border_color": "ffffffff",
        "top_right_border_style": "plain",
        "top_right_border_width": 0
    },
    "spawindowstablet": {
        "background_color": {
            "angle": 90,
            "colors": [
                "ffffff66",
                "ffffff40",
                "ffffff26"
            ],
            "cs": [
                0,
                0,
                100
            ],
            "gradientType": "toRight",
            "gt": "linear"
        },
        "background_style": "linear",
        "bg_type": "ms_gradient",
        "bottom_left_border_color": "ffffffff",
        "bottom_left_border_style": "plain",
        "bottom_left_border_width": 0,
        "bottom_right_border_color": "ffffffff",
        "bottom_right_border_style": "plain",
        "bottom_right_border_width": 0,
        "font_color": "ffffffff",
        "font_name": "Cairo-Regular",
        "font_size": 77,
        "isForked": true,
        "shadow": {
            "br": 0,
            "color": "000000ff",
            "inner": false,
            "nm": 0,
            "x": 0,
            "y": 0
        },
        "text_shadow": {
            "br": 0,
            "color": "000000ff",
            "nm": 0,
            "x": 0,
            "y": 0
        },
        "top_left_border_color": "ffffffff",
        "top_left_border_style": "plain",
        "top_left_border_width": 0,
        "top_right_border_color": "ffffffff",
        "top_right_border_style": "plain",
        "top_right_border_width": 0
    },
    "spawinphone8": {
        "background_color": {
            "angle": 90,
            "colors": [
                "ffffff66",
                "ffffff40",
                "ffffff26"
            ],
            "cs": [
                0,
                0,
                100
            ],
            "gradientType": "toRight",
            "gt": "linear"
        },
        "background_style": "linear",
        "bg_type": "ms_gradient",
        "bottom_left_border_color": "ffffffff",
        "bottom_left_border_style": "plain",
        "bottom_left_border_width": 0,
        "bottom_right_border_color": "ffffffff",
        "bottom_right_border_style": "plain",
        "bottom_right_border_width": 0,
        "font_color": "ffffffff",
        "font_name": "Cairo-Regular",
        "font_size": 77,
        "isForked": true,
        "shadow": {
            "br": 0,
            "color": "000000ff",
            "inner": false,
            "nm": 0,
            "x": 0,
            "y": 0
        },
        "text_shadow": {
            "br": 0,
            "color": "000000ff",
            "nm": 0,
            "x": 0,
            "y": 0
        },
        "top_left_border_color": "ffffffff",
        "top_left_border_style": "plain",
        "top_left_border_width": 0,
        "top_right_border_color": "ffffffff",
        "top_right_border_style": "plain",
        "top_right_border_width": 0
    },
    "tabrcandroid": {
        "background_color": {
            "angle": 90,
            "colors": [
                "ffffff66",
                "ffffff40",
                "ffffff26"
            ],
            "cs": [
                0,
                0,
                100
            ],
            "gradientType": "toRight",
            "gt": "linear"
        },
        "background_style": "linear",
        "bg_type": "ms_gradient",
        "border_color": "ffffff02",
        "border_style": "custom",
        "border_type": 0,
        "border_width": 1,
        "bottom_left_border_radius": 2,
        "bottom_right_border_radius": 2,
        "font_color": "ffffffff",
        "font_name": "Lato-Black",
        "font_size": 77,
        "isForked": true,
        "text_shadow": {
            "br": 0,
            "color": "000000ff",
            "nm": 0,
            "x": 0,
            "y": 0
        },
        "top_left_border_radius": 2,
        "top_right_border_radius": 2
    },
    "wType": "Button",
    "windows8": {
        "background_color": "ffffff00",
        "bg_type": "one",
        "border_color": "ffffff02",
        "border_style": "custom",
        "border_type": 0,
        "border_width": 1,
        "bottom_left_border_radius": 2,
        "bottom_right_border_radius": 2,
        "font_color": "ffffffff",
        "font_name": "GenericMonospace",
        "font_size": 77,
        "isForked": true,
        "top_left_border_radius": 2,
        "top_right_border_radius": 2
    },
    "winphone8": {
        "background_color": "ffffff00",
        "bg_type": "one",
        "border_color": "ffffff02",
        "border_style": "custom",
        "border_type": 0,
        "border_width": 1,
        "bottom_left_border_radius": 2,
        "bottom_right_border_radius": 2,
        "font_color": "ffffffff",
        "font_name": "GenericMonospace",
        "font_size": 77,
        "isForked": true,
        "top_left_border_radius": 2,
        "top_right_border_radius": 2
    }
}