{
  "background_image": "card_gold.png",
  "bg_type": "image",
  "border_color": "15447800",
  "border_radius": 40,
  "border_style": "custom",
  "border_type": 0,
  "border_width": 5,
  "isDefaultSkin": false,
  "kuid": "sf57bf43f85a46cfacb998d96728f459",
  "wType": "FlexContainer"
}