{
  "background_color": "1a2980ff",
  "bg_type": "one",
  "border_color": "000000ff",
  "border_style": "plain",
  "border_type": 0,
  "border_width": 0,
  "isDefaultSkin": false,
  "kuid": "s5c56f07b5614e9d9e09e9e0d501b530",
  "wType": "FlexContainer"
}