{
  "background_color": "052c49ff",
  "bg_type": "one",
  "border_color": "000000ff",
  "border_style": "plain",
  "border_type": 0,
  "border_width": 0,
  "isDefaultSkin": false,
  "kuid": "sc5281c8ea3d42a595a1ab9e06519c11",
  "wType": "FlexContainer"
}