{
  "background_color": "ffffff33",
  "bg_type": "one",
  "border_color": "ffffff33",
  "border_style": "plain",
  "border_type": 0,
  "border_width": 0,
  "isDefaultSkin": false,
  "kuid": "s0441d14e06341dab290ad059b11525b",
  "wType": "FlexContainer"
}