{
  "background_color": "c1d52fff",
  "bg_type": "one",
  "border_color": "c1d52fff",
  "border_style": "rc",
  "border_type": 0,
  "border_width": 1,
  "isDefaultSkin": false,
  "kuid": "s5974156ab784436b74a4694fb26204e",
  "wType": "FlexContainer"
}