{
  "android": {
    "font_name": "Lato-Semibold",
    "font_size": 114,
    "isForked": false
  },
  "background_color": "ffffffff",
  "bg_type": "one",
  "border_color": "454545ff",
  "border_style": "plain",
  "border_type": 0,
  "border_width": 0,
  "desktopweb": {
    "font_name": "Cairo-Regular",
    "font_size": 114,
    "isForked": false
  },
  "fontSizeInPx": false,
  "font_color": "3d3d3dff",
  "font_name": "Cairo-Regular",
  "font_size": 114,
  "font_style": "normal",
  "font_weight": "normal",
  "ipad": {
    "font_name": "Cairo-Regular",
    "font_size": 114,
    "isForked": false
  },
  "iphone": {
    "font_name": "Lato-Semibold",
    "font_size": 114,
    "isForked": false
  },
  "isDefaultSkin": false,
  "kiosk": {
    "font_name": "GenericMonospace",
    "font_size": 114,
    "isForked": false
  },
  "kuid": "scca46a18cb1497b8873e17843148a3c",
  "spaan": {
    "font_name": "Cairo-Regular",
    "font_size": 114,
    "isForked": false
  },
  "spaandroidtablet": {
    "font_name": "Cairo-Regular",
    "font_size": 114,
    "isForked": false
  },
  "spabb": {
    "font_name": "Cairo-Regular",
    "font_size": 114,
    "isForked": false
  },
  "spaip": {
    "font_name": "Cairo-Regular",
    "font_size": 114,
    "isForked": false
  },
  "spaipad": {
    "font_name": "Cairo-Regular",
    "font_size": 114,
    "isForked": false
  },
  "spawindowstablet": {
    "font_name": "Cairo-Regular",
    "font_size": 114,
    "isForked": false
  },
  "spawinphone8": {
    "font_name": "Cairo-Regular",
    "font_size": 114,
    "isForked": false
  },
  "tabrcandroid": {
    "font_name": "Cairo-Regular",
    "font_size": 114,
    "isForked": false
  },
  "wType": "ListBox",
  "watchos": {
    "font_name": "Cairo-Regular",
    "font_size": 114,
    "isForked": false
  },
  "windows8": {
    "font_name": "GenericMonospace",
    "font_size": 114,
    "isForked": false
  },
  "winphone8": {
    "font_name": "GenericMonospace",
    "font_size": 114,
    "isForked": false
  }
}