{
  "background_color": "d9d9d900",
  "bg_type": "one",
  "border_color": "000000ff",
  "border_style": "plain",
  "border_type": 0,
  "border_width": 0,
  "isDefaultSkin": false,
  "kuid": "s06f3ea31fb840bcaf26cb0034b0f096",
  "wType": "FlexContainer"
}