{
  "background_color": "2697ed00",
  "bg_type": "one",
  "border_color": "000000ff",
  "border_style": "plain",
  "border_type": 0,
  "border_width": 0,
  "isDefaultSkin": false,
  "kuid": "s5cd978445eb43e4a6beec160c1d36f9",
  "wType": "FlexContainer"
}