{
  "background_color": "052c49ff",
  "bg_type": "one",
  "border_color": "000000ff",
  "border_style": "plain",
  "border_type": 0,
  "border_width": 0,
  "isDefaultSkin": false,
  "kuid": "s2f8c2eae708447a964b0b1a68fc57aa",
  "wType": "Segment"
}