{
  "background_color": "f7f7f7ff",
  "bg_type": "one",
  "border_color": "000000ff",
  "border_style": "plain",
  "border_type": 0,
  "border_width": 0,
  "isDefaultSkin": false,
  "kuid": "sc6473e83d0944a8ad304d4f7cd0dd69",
  "wType": "FlexContainer"
}