{
  "background_color": "00000000",
  "bg_type": "one",
  "border_color": "00000019",
  "border_radius": 10,
  "border_style": "custom",
  "border_type": 0,
  "border_width": 1,
  "isDefaultSkin": false,
  "kuid": "s88a445ff0f9432ab539cebce4d1baf7",
  "wType": "FlexContainer"
}