{
  "background_color": "79bc43ff",
  "bg_type": "one",
  "border_color": "000000ff",
  "border_style": "plain",
  "border_type": 0,
  "border_width": 0,
  "isDefaultSkin": false,
  "kuid": "s82784405b234d5bbf1e4bace4032e86",
  "wType": "FlexContainer"
}