{
  "android": {
    "font_name": "Lato-Regular",
    "font_size": 86,
    "isForked": false
  },
  "background_color": "1798f2ff",
  "bg_type": "one",
  "border_color": "1798f2ff",
  "border_radius": 20,
  "border_style": "custom",
  "border_type": 0,
  "border_width": 1,
  "desktopweb": {
    "font_size": 86,
    "isForked": false
  },
  "fontSizeInPx": false,
  "font_color": "ffffffff",
  "font_name": "Cairo-Regular",
  "font_size": 86,
  "font_style": "normal",
  "font_weight": "normal",
  "ipad": {
    "font_size": 86,
    "isForked": false
  },
  "iphone": {
    "font_name": "Lato-Regular",
    "font_size": 86,
    "isForked": false
  },
  "isDefaultSkin": false,
  "kiosk": {
    "font_size": 86,
    "isForked": false
  },
  "kuid": "s678e205c1644360a3460e4f0b076277",
  "spaan": {
    "font_size": 86,
    "isForked": false
  },
  "spaandroidtablet": {
    "font_size": 86,
    "isForked": false
  },
  "spabb": {
    "font_size": 86,
    "isForked": false
  },
  "spaip": {
    "font_size": 86,
    "isForked": false
  },
  "spaipad": {
    "font_size": 86,
    "isForked": false
  },
  "spawindowstablet": {
    "font_size": 86,
    "isForked": false
  },
  "spawinphone8": {
    "font_size": 86,
    "isForked": false
  },
  "tabrcandroid": {
    "font_size": 86,
    "isForked": false
  },
  "wType": "Label",
  "watchos": {
    "font_size": 86,
    "isForked": false
  },
  "windows8": {
    "font_size": 86,
    "isForked": false
  },
  "winphone8": {
    "font_size": 86,
    "isForked": false
  }
}