{
  "background_color": "f7f7f7ff",
  "bg_type": "one",
  "border_color": "e2e2e219",
  "border_radius": 10,
  "border_style": "custom",
  "border_type": 0,
  "border_width": 1,
  "isDefaultSkin": false,
  "kuid": "s1079dea56a44bc6acc8f926c536dbf7",
  "wType": "FlexContainer"
}