{
  "background_color": "ffffffff",
  "bg_type": "one",
  "border_color": "ffffffff",
  "border_style": "rc",
  "border_type": 0,
  "border_width": 1,
  "isDefaultSkin": false,
  "kuid": "sa3bdf39cb43420287e6a256e0a410d5",
  "wType": "FlexContainer"
}