{
    "DNDConfig": null,
    "__markedForDelete__": true,
    "__parentReadjusting__": false,
    "_height_": {
        "type": "ref",
        "value": "preferred"
    },
    "_left_": {
        "type": "string",
        "value": "5%"
    },
    "_margin_": [
        0,
        0,
        0,
        0
    ],
    "_orientation_": 6,
    "_padding_": [
        0,
        0,
        0,
        0
    ],
    "_percent_": true,
    "_skin_": "s7f677559e4b40e6878028bdaf5b47d5",
    "_top_": {
        "type": "string",
        "value": "5%"
    },
    "_width_": {
        "type": "string",
        "value": "90%"
    },
    "allboxes": [],
    "autogrowmode": 1,
    "canUpdateUI": true,
    "children": [
        "flxQuickBalanceSwitch",
        "segAccounts",
        "LabelNoRecordsKA"
    ],
    "clipbounds": true,
    "containerweight": 100,
    "enablescrolling": true,
    "id": "flxQuickBalance",
    "info": null,
    "isvisible": true,
    "kuid": "cf8d389033c549fd87825eca35989b93",
    "layouttype": 4,
    "name": "kony.ui.FlexContainer",
    "parent": "FlexScrollContainer0ade157aa36f344",
    "pf": "frmAuthorizationAlternatives",
    "snapgridsize": 10,
    "snaptogrid": true,
    "wType": "FlexContainer",
    "widgetalignment": 1,
    "zindex": 1
}