{
    "DNDConfig": null,
    "__parentReadjusting__": false,
    "_height_": {
        "type": "string",
        "value": "2%"
    },
    "_left_": {
        "type": "string",
        "value": "0%"
    },
    "_margin_": [
        0,
        0,
        0,
        0
    ],
    "_orientation_": 6,
    "_padding_": [
        0,
        0,
        0,
        0
    ],
    "_percent_": true,
    "_skin_": "s41b8d5154b444e89fc37ffd25161530",
    "_top_": {
        "type": "string",
        "value": "86%"
    },
    "_width_": {
        "type": "string",
        "value": "100%"
    },
    "allboxes": [],
    "autogrowmode": 0,
    "canUpdateUI": true,
    "children": [],
    "clipbounds": true,
    "containerweight": 100,
    "enablescrolling": true,
    "id": "flxBorderAccountNumber",
    "info": null,
    "isvisible": false,
    "kuid": "f24c1332104e40458fa582335e2b3122",
    "layouttype": 2,
    "name": "kony.ui.FlexContainer",
    "parent": "flxAccountNumber",
    "pf": "frmIPSRegistration",
    "snapgridsize": 10,
    "snaptogrid": true,
    "wType": "FlexContainer",
    "widgetalignment": 1,
    "zindex": 1
}