{
    "@class": "com.kony.gen.viz.model.component.KVizButton",
    "DNDConfig": null,
    "__parentReadjusting__": false,
    "_height_": {
        "type": "string",
        "value": "50%"
    },
    "_left_": {
        "type": "string",
        "value": "5%"
    },
    "_margin_": [
        6,
        6,
        6,
        6
    ],
    "_padding_": [
        0,
        0,
        0,
        0
    ],
    "_skin_": "scba750aa7f9473cadaf087f2356ea10",
    "_text_": "",
    "_width_": {
        "type": "string",
        "value": "14%"
    },
    "canUpdateUI": true,
    "centery": {
        "type": "string",
        "value": "50%"
    },
    "containerId": true,
    "containerweight": 100,
    "contentalignment": 5,
    "displaytext": true,
    "focusskin": "scba750aa7f9473cadaf087f2356ea10",
    "id": "btnBillsPayAccounts",
    "ide_onClick": "AS_Button_a438737d3f0b4c7a8a371526c4acb10e",
    "info": null,
    "iscustomlayout": true,
    "isvisible": true,
    "kuid": "j4d8e6d3d8284965adf7132f05af1428",
    "name": "kony.ui.Button",
    "parent": "flxToAnimate",
    "pf": "segbulkpaymenttmp",
    "retainflexpositionproperties": true,
    "wType": "Button",
    "zindex": 1
}