{
    "@class": "com.kony.gen.viz.model.container.KVizSegment2",
    "DNDConfig": null,
    "__parentReadjusting__": false,
    "_bounces_": false,
    "_data_": [
        {
            "accountnumber": {
                "@class": "com.viz.ide.model.segment.SimpleTextSegmentData",
                "text": ""
            },
            "btnBillsPayAccounts": {
                "@class": "com.viz.ide.model.segment.SimpleTextSegmentData",
                "text": "q"
            },
            "dueAmount": {
                "@class": "com.viz.ide.model.segment.SimpleTextSegmentData",
                "text": ""
            },
            "lblBillerType": {
                "@class": "com.viz.ide.model.segment.SimpleTextSegmentData",
                "text": ""
            },
            "lblBulkSelection": {
                "@class": "com.viz.ide.model.segment.SimpleTextSegmentData",
                "text": "r"
            },
            "lblInitial": {
                "@class": "com.viz.ide.model.segment.SimpleTextSegmentData",
                "text": ""
            },
            "lblpaidAmount": {
                "@class": "com.viz.ide.model.segment.SimpleTextSegmentData",
                "text": "asdfghj98765432"
            },
            "paidAmount": {
                "@class": "com.viz.ide.model.segment.SimpleTextSegmentData",
                "text": "Label"
            },
            "payeename": {
                "@class": "com.viz.ide.model.segment.SimpleTextSegmentData",
                "text": ""
            },
            "payeenickname": {
                "@class": "com.viz.ide.model.segment.SimpleTextSegmentData",
                "text": ""
            },
            "txtpaidAmount": {
                "@class": "com.viz.ide.model.segment.ComplexTextSegmentData",
                "text": "TextBox2"
            }
        }
    ],
    "_height_": {
        "type": "string",
        "value": "85%"
    },
    "_indicator_": "none",
    "_left_": {
        "type": "string",
        "value": "0%"
    },
    "_margin_": [
        0,
        0,
        0,
        0
    ],
    "_orientation_": 2,
    "_padding_": [
        0,
        0,
        0,
        0
    ],
    "_top_": {
        "type": "string",
        "value": "0%"
    },
    "_width_": {
        "type": "string",
        "value": "100%"
    },
    "autogrowmode": 0,
    "canUpdateUI": true,
    "containerweight": 100,
    "counter": "00",
    "editstyle": "swipe",
    "focusedindex": null,
    "focuseditem": null,
    "groupcells": false,
    "hasSections": false,
    "id": "bulkpaymentsegmant",
    "info": null,
    "invokedProperty": "pageOnDotImage",
    "ipad": {
        "psp": {
            "indicator": "rowselect"
        }
    },
    "iphone": {
        "psp": {
            "bounces": true,
            "editStyle": "swipe",
            "indicator": "none",
            "showProgressIndicator": true
        }
    },
    "isvisible": true,
    "kuid": "fe40f855fa6b4cd89323a49b18879b1f",
    "masterdata": {},
    "name": "kony.ui.SegmentedUI2",
    "needpageindicator": true,
    "paddinginpixel": false,
    "pageoffdotimage": "pageoffdot.png",
    "pageondotimage": "pageondot.png",
    "paginationconfig": {
        "position": "bottom",
        "vdistance": 1
    },
    "parent": "flxMainContainer",
    "pf": "frmBulkPaymentConfirmKA",
    "retainselection": false,
    "rowTemplateId": "f2f4ada8fe7847948c18464f5c1ded44",
    "rowcounter": 0,
    "rowfocusskin": "s5fa38be22fb4f22b7c642b08276ab82",
    "rowskin": "sf50ddbd75934159ae5d26fc1d954683",
    "rowtemplate": "flxBulkPaymentSeg",
    "screenlevelwidget": false,
    "seccounter": 0,
    "sectionHeaderTemplateId": null,
    "sectionheaderskin": "s67621b8a82d49f285da06b4f5a0c993",
    "selectedRows": null,
    "selectedState": false,
    "selectedindex": null,
    "selectedindices": null,
    "selecteditems": null,
    "selectedsectionindex": 0,
    "selectionbehavior": "default",
    "separatorrequired": false,
    "separatorthickness": 0,
    "showprogressindicator": true,
    "showscrollbars": false,
    "swipeContext": {
        "currentPage": 0,
        "imageWidth": 750,
        "widthRatio": 0
    },
    "viewtype": "tableview",
    "vizProps": {},
    "wType": "Segment",
    "widgetalignment": 5,
    "widgetdatamap": {
        "accountnumber": "accountnumber",
        "btnBillsPayAccounts": "btnBillsPayAccounts",
        "contactListDivider": "contactListDivider",
        "dueAmount": "dueAmount",
        "flxAnimate": "flxAnimate",
        "flxBulkPaymentSeg": "flxBulkPaymentSeg",
        "flxDetails": "flxDetails",
        "flxIcon1": "flxIcon1",
        "flxIconContainer": "flxIconContainer",
        "flxPaidAmount": "flxPaidAmount",
        "flxToAnimate": "flxToAnimate",
        "hiddenDueAmount": "hiddenDueAmount",
        "lblBillerType": "lblBillerType",
        "lblBulkSelection": "lblBulkSelection",
        "lblInitial": "lblInitial",
        "lblTick": "lblTick",
        "lblpaidAmount": "lblpaidAmount",
        "paidAmount": "paidAmount",
        "payeename": "payeename",
        "payeenickname": "payeenickname",
        "txtpaidAmount": "txtpaidAmount"
    },
    "zindex": 2
}