{
    "DNDConfig": null,
    "__parentReadjusting__": false,
    "_height_": {
        "type": "ref",
        "value": "preferred"
    },
    "_left_": {
        "type": "string",
        "value": "0.00%"
    },
    "_margin_": [
        0,
        0,
        0,
        0
    ],
    "_orientation_": 6,
    "_padding_": [
        0,
        0,
        0,
        0
    ],
    "_percent_": true,
    "_skin_": "s388f0c575ef4d08ac3a5ed0a4b90085",
    "_top_": {
        "type": "string",
        "value": "0dp"
    },
    "_width_": {
        "type": "string",
        "value": "100%"
    },
    "allboxes": [],
    "autogrowmode": 1,
    "canUpdateUI": true,
    "children": [
        "lblAliasTypeTitleSeg",
        "lblAliasTitleSeg",
        "lblALiasIBANTitleSeg",
        "lblAliasTypeSeg",
        "lblAliasSeg",
        "lblAliasIBANSeg",
        "aliasShareBtn",
        "btnDelete"
    ],
    "clipbounds": true,
    "containerId": true,
    "containerweight": 100,
    "enablescrolling": true,
    "id": "flxIPSAlias",
    "info": null,
    "iscustomlayout": false,
    "isvisible": true,
    "kuid": "i481b819b71e4246a0b1444d1a72e976",
    "layouttype": 2,
    "name": "kony.ui.FlexContainer",
    "parent": "flxMainSeg",
    "pf": "segGetAllIPSAlias",
    "retainflexpositionproperties": true,
    "snapgridsize": 10,
    "snaptogrid": true,
    "wType": "FlexContainer",
    "widgetalignment": 1,
    "zindex": 1
}