{
    "@class": "com.kony.gen.viz.model.component.KVizLabel",
    "DNDConfig": null,
    "__parentReadjusting__": false,
    "_height_": {
        "type": "string",
        "value": "25dp"
    },
    "_left_": {
        "type": "string",
        "value": "0%"
    },
    "_margin_": [
        1,
        1,
        1,
        1
    ],
    "_padding_": [
        0,
        0,
        0,
        0
    ],
    "_skin_": "s3edf50da0e64d5b8f85f0889052373b",
    "_text_": "Deposit type",
    "_top_": {
        "type": "string",
        "value": "8dp"
    },
    "_width_": {
        "type": "string",
        "value": "100%"
    },
    "_wrapping_": 2,
    "canUpdateUI": true,
    "containerweight": 100,
    "contentalignment": 4,
    "enabled": false,
    "id": "CopylblType0h4ec86d4693b46",
    "info": null,
    "ipad": {
        "psp": {
            "wrapping": 2
        }
    },
    "iphone": {
        "psp": {
            "wrapping": 2
        }
    },
    "iscustomlayout": false,
    "isvisible": true,
    "kuid": "e11066b9784f41b3b029fbc30d5785bd",
    "name": "kony.ui.Label",
    "parent": "CopyflxRight0dfa7e6fbdb0f47",
    "pf": "frmAccountInfoKA",
    "retaincontentalignment": false,
    "retainflexpositionproperties": false,
    "texti18n": "i18.deposit.Interestaccount",
    "tooltip": "",
    "wType": "Label"
}