{
    "@class": "com.kony.gen.viz.model.component.KVizBrowser",
    "DNDConfig": null,
    "__parentReadjusting__": false,
    "_height_": {
        "type": "string",
        "value": "91%"
    },
    "_left_": {
        "type": "string",
        "value": "0dp"
    },
    "_margin_": [
        0,
        0,
        0,
        0
    ],
    "_padding_": [
        0,
        0,
        0,
        0
    ],
    "_top_": {
        "type": "string",
        "value": "0dp"
    },
    "_type_": 4,
    "_width_": {
        "type": "string",
        "value": "100%"
    },
    "canUpdateUI": true,
    "containerweight": 69,
    "detecttelnumber": true,
    "htmlstring": "Browser",
    "id": "BrowserTCCardless",
    "info": null,
    "isvisible": false,
    "kuid": "db671762b7ef41b3b94dab51ddce980f",
    "margininpixel": false,
    "method": "get",
    "name": "kony.ui.Browser",
    "paddinginpixel": false,
    "parent": "flxMainContainer",
    "pf": "frmCardlessTransaction",
    "requesturlconfig": {
        "URL": "",
        "requestMethod": "post"
    },
    "screenlevelwidget": false,
    "url": "",
    "wType": "Browser",
    "zindex": 1
}