{
    "@class": "com.kony.gen.viz.model.container.KVizScrollFlexForm",
    "DNDConfig": null,
    "_headers_": [],
    "_margin_": [
        0,
        0,
        0,
        0
    ],
    "_orientation_": 1,
    "_padding_": [
        0,
        0,
        0,
        0
    ],
    "_percent_": true,
    "_skin_": "s7529acab1bb4d38ac10d37576b7b58a",
    "_title_": null,
    "addWidgetsdone": false,
    "allboxes": [],
    "android": {
        "ide_onDeviceBack": "AS_Form_df62ef33d09644ffb89d27ae389f1ab4",
        "psp": {
            "windowSoftInputMode": 2
        }
    },
    "canUpdateUI": true,
    "children": [
        "flxMainContainer"
    ],
    "containerweight": 100,
    "currentLocale": "ar",
    "desktopweb": {
        "needAppMenu": false
    },
    "device": "iPhoneXS",
    "displayorientation": 1,
    "enabledforidletimeout": true,
    "header": "frmCardlessTransaction_header",
    "id": "frmCardlessTransaction",
    "ide_postShow": "AS_Form_hc6edfb735aa452885967b5931319343",
    "info": null,
    "initdone": false,
    "inputaccessoryviewtype": 4,
    "invokedProperty": "headers",
    "ipad": {
        "psp": {
            "inputAccessoryViewType": 4
        }
    },
    "iphone": {
        "psp": {
            "inputAccessoryViewType": 1,
            "titleBarAttributes": {
                "barStyle": 0,
                "hidesBackButton": true,
                "kuid": "g7066b33bda24ddbb7fd22268c0c1421",
                "leftBarButtonItems": [
                    {
                        "kuid": "d646b4a635c5407f87c6a21237ab1a5a",
                        "leftButtonText": "Back",
                        "leftTitle": "Back",
                        "prevFormTitle": false,
                        "titleBarLeftSideView": "button",
                        "type": 4
                    }
                ],
                "leftItemsSupplementBackButton": true,
                "prompt": "",
                "renderTitleText": true,
                "rightBarButtonItems": [
                    {
                        "enabled": true,
                        "info": {
                            "title": "Edit"
                        },
                        "kuid": "f143e71ecde74b4b97ed0846f8f623d8",
                        "style": 0,
                        "tintColor": "33333300",
                        "type": 1
                    }
                ],
                "tintColor": "33333300",
                "translucent": true
            }
        },
        "titleBar": false
    },
    "isvisible": true,
    "kuid": "b7e7974060664c0093c575d8bba1e829",
    "layouttype": 2,
    "name": "kony.ui.Form2",
    "needappmenu": true,
    "paddinginpixel": false,
    "platform": "iphone",
    "prevDevice": "Z10",
    "prevPlatform": "spabb",
    "retainscrollposition": false,
    "shellCSS": "iOS_iPhoneXS",
    "snapgridsize": 10,
    "snaptogrid": true,
    "titleBarSkin": "s01a3c761ed44dcab0d6537d1b55b621",
    "titlebar": true,
    "type": 3,
    "wType": "Form"
}