{
    "DNDConfig": null,
    "__parentReadjusting__": false,
    "_bottom_": {
        "type": "string",
        "value": "0dp"
    },
    "_height_": {
        "type": "string",
        "value": "44dp"
    },
    "_left_": {
        "type": "string",
        "value": "0%"
    },
    "_margin_": [
        0,
        0,
        0,
        0
    ],
    "_padding_": [
        0,
        0,
        0,
        0
    ],
    "_skin_": "s3a72e41f61f4997b2b34dfd00878123",
    "_width_": {
        "type": "string",
        "value": "100%"
    },
    "accessibilityconfig": {},
    "allboxes": [],
    "autogrowmode": 0,
    "canUpdateUI": true,
    "children": [
        "lblRegisterMobileBanking"
    ],
    "clipbounds": true,
    "containerweight": 100,
    "disabledSkins": {},
    "enabled": false,
    "enablescrolling": true,
    "focusskin": "s873425536fc458d8596a087130d1c64",
    "id": "flxRegisterMobileBanking",
    "ide_onClick": "AS_FlexContainer_bfc59840e10d49d195c637031a38e41a",
    "info": null,
    "isvisible": false,
    "kuid": "d22483bb16c749d1a9ad0aa57de62b3b",
    "layouttype": 2,
    "name": "kony.ui.FlexContainer",
    "orientation": 6,
    "parent": "loginMainScreen",
    "percent": true,
    "pf": "frmLanguageChange",
    "snapgridsize": 10,
    "snaptogrid": true,
    "wType": "FlexContainer",
    "widgetalignment": 1,
    "zindex": 50
}