{
    "@class": "com.kony.gen.viz.model.component.KVizButton",
    "DNDConfig": null,
    "__parentReadjusting__": false,
    "_height_": {
        "type": "string",
        "value": "35dp"
    },
    "_margin_": [
        6,
        6,
        6,
        6
    ],
    "_padding_": [
        0,
        0,
        0,
        0
    ],
    "_skin_": "sd128935a0994de98e699966fd0fa9ef",
    "_text_": "Go to Account Overview",
    "_top_": {
        "type": "string",
        "value": "5dp"
    },
    "_width_": {
        "type": "string",
        "value": "260dp"
    },
    "canUpdateUI": true,
    "centerx": {
        "type": "string",
        "value": "50%"
    },
    "containerweight": 100,
    "contentalignment": 5,
    "displaytext": true,
    "focusskin": "s6e8459b84e349d98629a088bbfe1304",
    "id": "btnEditTranscation",
    "ide_onClick": "AS_Button_9d10b67388e747f6909a7ccf3ee4f3b2",
    "info": null,
    "isvisible": true,
    "kuid": "21194993c4584ed29a58bf19236c89ad",
    "name": "kony.ui.Button",
    "parent": "innerSuccessContainer",
    "pf": "frmSuccessFormKA",
    "texti18n": "i18n.accountOverview.GotoAccountOverview",
    "wType": "Button",
    "zindex": 1
}