{
  "operationConfig" : {
    "name" : "prCardlessTransList7073",
    "type" : "MappedToBackend",
    "cachable" : false,
    "smsEnabled" : false,
    "security" : "authorized_app",
    "responseEncoding" : "UTF-8",
    "httpMethod" : "GET",
    "decodeResponseBody" : false,
    "iMapping" : "<?xml version=\"1.0\" encoding=\"UTF-8\" standalone=\"yes\"?><mapper xmlns=\"http://www.kony.com/ns/mapper\">        <map inputpath=\"request_in\" outputpath=\"request_out\">                <set-param inputpath=\"usr\" outputpath=\"usr\"/>                <set-param inputpath=\"pass\" outputpath=\"pass\"/>                <set-param inputpath=\"custId\" outputpath=\"custID\"/>                <set-param inputpath=\"p_user_id\" outputpath=\"p_user_id\"/>                <set-param inputpath=\"p_channel\" outputpath=\"p_channel\"/>        </map></mapper>",
    "applyCommonMapping" : true,
    "backendMeta" : {
      "serviceVersion" : "1.0",
      "operationName" : "prCardlessTransList",
      "serviceName" : "BOJCardlessTransList"
    },
    "relationshipHierarchyMapping" : {
      "children" : [ ],
      "name" : "Accounts",
      "selected" : true
    },
    "requestXmlMappingOverride" : true,
    "responseXmlMappingOverride" : true
  }
}