{
    "@class": "com.kony.gen.viz.model.component.KVizButton",
    "DNDConfig": null,
    "__parentReadjusting__": false,
    "_height_": {
        "type": "string",
        "value": "45dp"
    },
    "_margin_": [
        6,
        6,
        6,
        6
    ],
    "_padding_": [
        0,
        0,
        0,
        0
    ],
    "_skin_": "s369ab04a83040bc808b21001c014f1a",
    "_text_": "H",
    "_width_": {
        "type": "string",
        "value": "100%"
    },
    "canUpdateUI": true,
    "centerx": {
        "type": "string",
        "value": "50%"
    },
    "centery": {
        "type": "string",
        "value": "40%"
    },
    "containerweight": 100,
    "contentalignment": 5,
    "disabledSkins": {},
    "displaytext": true,
    "focusskin": "sd291eaf83084ea781b9988b6f1fc66d",
    "id": "btnAccounts",
    "ide_onClick": "AS_Button_e13ba2a8826249a099d7179f02429b0a",
    "info": null,
    "isvisible": true,
    "kuid": "d8110ade47df495baf5041a49b6c6fe2",
    "name": "kony.ui.Button",
    "parent": "FlxAccounts",
    "pf": "frmPayBillHome",
    "wType": "Button",
    "zindex": 1
}