{
    "@class": "com.kony.gen.viz.model.component.KVizLabel",
    "DNDConfig": null,
    "__parentReadjusting__": false,
    "_height_": {
        "type": "string",
        "value": "40%"
    },
    "_left_": {
        "type": "string",
        "value": "5%"
    },
    "_margin_": [
        1,
        1,
        1,
        1
    ],
    "_padding_": [
        0,
        0,
        0,
        0
    ],
    "_skin_": "sb817cc03d5e45889008d3584ffe4d45",
    "_text_": "Number of Cheque Book",
    "_top_": {
        "type": "string",
        "value": "0%"
    },
    "_width_": {
        "type": "ref",
        "value": "preferred"
    },
    "_wrapping_": 2,
    "android": {
        "textStyle": {
            "letterSpacing": 0,
            "strikeThrough": false
        }
    },
    "canUpdateUI": true,
    "containerweight": 100,
    "contentalignment": 4,
    "id": "CopylblAccountStaticText0b80c8a938e0945",
    "info": null,
    "ipad": {
        "psp": {
            "wrapping": 2
        }
    },
    "iphone": {
        "psp": {
            "wrapping": 2
        }
    },
    "isvisible": true,
    "kuid": "bd0d7f2e4da04778b939c6a968388aa6",
    "name": "kony.ui.Label",
    "parent": "CopyflxBranch0d4e114b0c2a741",
    "pf": "frmOrderChequeBookConfirm",
    "texti18n": "i18n.ordercheck.numberofbook",
    "textstyle": {},
    "tooltip": "",
    "wType": "Label",
    "zindex": 1
}