{
    "@class": "com.kony.gen.viz.model.component.KVizLabel",
    "DNDConfig": null,
    "__parentReadjusting__": false,
    "_height_": {
        "type": "ref",
        "value": "preferred"
    },
    "_left_": {
        "type": "string",
        "value": "3.50%"
    },
    "_margin_": [
        1,
        1,
        1,
        1
    ],
    "_padding_": [
        1,
        0,
        0,
        0
    ],
    "_skin_": "s756d717acf342538a0ebcf186dac18d",
    "_text_": "Label",
    "_width_": {
        "type": "ref",
        "value": "preferred"
    },
    "_wrapping_": 2,
    "android": {
        "textStyle": {
            "letterSpacing": 0,
            "strikeThrough": false
        }
    },
    "canUpdateUI": true,
    "centery": {
        "type": "string",
        "value": "70dp"
    },
    "containerId": true,
    "containerweight": 100,
    "contentalignment": 4,
    "id": "lblRefRTP",
    "info": null,
    "ipad": {
        "psp": {
            "wrapping": 2
        }
    },
    "iphone": {
        "psp": {
            "wrapping": 2
        }
    },
    "iscustomlayout": false,
    "isvisible": true,
    "kuid": "cf67b232e4ef4e61bb5a7b3d52853a9b",
    "name": "kony.ui.Label",
    "paddinginpixel": false,
    "parent": "flxRTP",
    "pf": "tmpPendingRTP",
    "retaincontentalignment": false,
    "retainflexpositionproperties": false,
    "texti18n": "i18n.common.ReferenceNumber",
    "textstyle": {},
    "tooltip": "",
    "wType": "Label",
    "zindex": 1
}