{
  "operationConfig" : {
    "name" : "prGetEfwServtypes7856",
    "type" : "MappedToBackend",
    "cachable" : false,
    "smsEnabled" : false,
    "security" : "public",
    "responseEncoding" : "UTF-8",
    "httpMethod" : "GET",
    "decodeResponseBody" : false,
    "iMapping" : "<?xml version=\"1.0\" encoding=\"UTF-8\" standalone=\"yes\"?><mapper xmlns=\"http://www.kony.com/ns/mapper\">              <map inputpath=\"request_in\" outputpath=\"request_out\">                            <set-param inputpath=\"custId\" outputpath=\"custId\"/>                            <set-param inputpath=\"usr\" outputpath=\"usr\"/>                            <set-param inputpath=\"lang\" outputpath=\"lang\"/>                            <set-param inputpath=\"pass\" outputpath=\"pass\"/>                            <set-param inputpath=\"p_code_type\" outputpath=\"p_code_type\"/>              </map></mapper>",
    "oMapping" : "<?xml version=\"1.0\" encoding=\"UTF-8\" standalone=\"yes\"?><mapper xmlns=\"http://www.kony.com/ns/mapper\">              <map inputpath=\"response_in\" outputpath=\"response_out\">                            <set-param inputpath=\"BS_BOJ_EFW_SERVTYPES_TTYPEType\" outputpath=\"BS_BOJ_EFW_SERVTYPES_TTYPEType\"/>              </map></mapper>",
    "applyCommonMapping" : false,
    "backendMeta" : {
      "serviceVersion" : "1.0",
      "operationName" : "prGetEfwServtypes",
      "serviceName" : "BOJGetEfwServtypes"
    },
    "relationshipHierarchyMapping" : {
      "children" : [ ],
      "name" : "Payee",
      "selected" : true
    },
    "requestXmlMappingOverride" : true,
    "responseXmlMappingOverride" : true
  }
}