{
    "@class": "com.kony.gen.viz.model.container.KVizSegment2",
    "DNDConfig": null,
    "__parentReadjusting__": false,
    "_bounces_": false,
    "_data_": [
        {
            "lblAccountName": {
                "@class": "com.viz.ide.model.segment.SimpleTextSegmentData",
                "text": "Label"
            },
            "lblAccountNickName": {
                "@class": "com.viz.ide.model.segment.SimpleTextSegmentData",
                "text": "Label"
            },
            "lblAccountNumber": {
                "@class": "com.viz.ide.model.segment.SimpleTextSegmentData",
                "text": "Label"
            },
            "lblDefaultAccounts": {
                "@class": "com.viz.ide.model.segment.SimpleTextSegmentData",
                "text": "s"
            },
            "lblLinkAccounts": {
                "@class": "com.viz.ide.model.segment.SimpleTextSegmentData",
                "text": "q"
            }
        },
        {
            "lblAccountName": {
                "@class": "com.viz.ide.model.segment.SimpleTextSegmentData",
                "text": "Label"
            },
            "lblAccountNickName": {
                "@class": "com.viz.ide.model.segment.SimpleTextSegmentData",
                "text": "Label"
            },
            "lblAccountNumber": {
                "@class": "com.viz.ide.model.segment.SimpleTextSegmentData",
                "text": "Label"
            },
            "lblDefaultAccounts": {
                "@class": "com.viz.ide.model.segment.SimpleTextSegmentData",
                "text": "s"
            },
            "lblLinkAccounts": {
                "@class": "com.viz.ide.model.segment.SimpleTextSegmentData",
                "text": "q"
            }
        },
        {
            "lblAccountName": {
                "@class": "com.viz.ide.model.segment.SimpleTextSegmentData",
                "text": "Label"
            },
            "lblAccountNickName": {
                "@class": "com.viz.ide.model.segment.SimpleTextSegmentData",
                "text": "Label"
            },
            "lblAccountNumber": {
                "@class": "com.viz.ide.model.segment.SimpleTextSegmentData",
                "text": "Label"
            },
            "lblDefaultAccounts": {
                "@class": "com.viz.ide.model.segment.SimpleTextSegmentData",
                "text": "s"
            },
            "lblLinkAccounts": {
                "@class": "com.viz.ide.model.segment.SimpleTextSegmentData",
                "text": "q"
            }
        }
    ],
    "_height_": {
        "type": "ref",
        "value": "preferred"
    },
    "_indicator_": "none",
    "_left_": {
        "type": "string",
        "value": "5%"
    },
    "_margin_": [
        0,
        0,
        0,
        0
    ],
    "_orientation_": 2,
    "_padding_": [
        0,
        0,
        0,
        0
    ],
    "_top_": {
        "type": "string",
        "value": "0%"
    },
    "_width_": {
        "type": "string",
        "value": "90%"
    },
    "android": {
        "psp": {
            "dockSectionHeaders": true
        }
    },
    "autogrowmode": 1,
    "canUpdateUI": true,
    "containerweight": 100,
    "counter": "02",
    "focusedindex": null,
    "focuseditem": null,
    "groupcells": false,
    "hasSections": false,
    "id": "segCardLinkedAccounts",
    "info": null,
    "ipad": {
        "psp": {
            "indicator": "rowselect"
        }
    },
    "iphone": {
        "psp": {
            "bounces": false,
            "indicator": "none",
            "showProgressIndicator": false
        }
    },
    "isvisible": true,
    "kuid": "a9b4f30db53d4561b1c811609390cd1c",
    "masterdata": {},
    "name": "kony.ui.SegmentedUI2",
    "needpageindicator": true,
    "pageoffdotimage": "pageoffdot.png",
    "pageondotimage": "pageondot.png",
    "paginationconfig": {
        "position": "bottom"
    },
    "parent": "flxBody",
    "pf": "frmCardLinkedAccounts",
    "retainselection": false,
    "rowTemplateId": "ga54dd6d57f945839065f3f22ca7c667",
    "rowcounter": 2,
    "rowfocusskin": "s27c76e85b844e03945d12f1113a8f87",
    "rowskin": "s27c76e85b844e03945d12f1113a8f87",
    "rowtemplate": "flxtemplateLinkedAccounts",
    "screenlevelwidget": false,
    "seccounter": 0,
    "sectionheaderskin": "s67621b8a82d49f285da06b4f5a0c993",
    "selectedRows": null,
    "selectedState": false,
    "selectedindex": null,
    "selectedindices": null,
    "selecteditems": null,
    "selectedsectionindex": 0,
    "selectionbehavior": "default",
    "separatorrequired": false,
    "separatorthickness": 0,
    "showprogressindicator": false,
    "showscrollbars": false,
    "viewtype": "tableview",
    "wType": "Segment",
    "widgetalignment": 5,
    "widgetdatamap": {
        "Copydivider0c263b496ea8345": "Copydivider0c263b496ea8345",
        "flxAccountDetails": "flxAccountDetails",
        "flxAccountLinkOptions": "flxAccountLinkOptions",
        "flxDefaultAccounts": "flxDefaultAccounts",
        "flxDivider": "flxDivider",
        "flxILineDisabled": "flxILineDisabled",
        "flxIcon1": "flxIcon1",
        "flxInnerDisabled": "flxInnerDisabled",
        "flxInnerEnabled": "flxInnerEnabled",
        "flxLineEnabled": "flxLineEnabled",
        "flxLinkAccounts": "flxLinkAccounts",
        "flxLinkedAccountsDisabled": "flxLinkedAccountsDisabled",
        "flxLinkedAccountsEnable": "flxLinkedAccountsEnable",
        "flxtemplateLinkedAccounts": "flxtemplateLinkedAccounts",
        "lblAccountName": "lblAccountName",
        "lblAccountNickName": "lblAccountNickName",
        "lblAccountNumber": "lblAccountNumber",
        "lblDefaultAccounts": "lblDefaultAccounts",
        "lblLinkAccounts": "lblLinkAccounts",
        "lblTick": "lblTick"
    },
    "zindex": 1
}