{
    "AS_Button_568dcdda66984d008b5f4e1183e21068": {
        "id": "AS_Button_568dcdda66984d008b5f4e1183e21068",
        "type": "ACTION_SEQUENCE",
        "actions": [{
            "id": "NAVIGATE_TO_FORM__onClick_bdc7d28ed64845a5b3eedb8037493a2f",
            "type": "NAVIGATE_TO_FORM",
            "formKUID": "46f36ea071694fd5850c61e28c2bf835",
            "mappings": {},
            "mappingsOrder": [],
            "parentId": "",
            "callbackType": null,
            "enableMappingEditor": true
        }]
    }
}