{
    "AS_Button_558c13ecc5214ccc81a06b2f44ef9d02": {
        "id": "AS_Button_558c13ecc5214ccc81a06b2f44ef9d02",
        "type": "ACTION_SEQUENCE",
        "actions": [{
            "id": "NAVIGATE_TO_FORM__onClick_0d782c6bf0744c4196577502f0f75bb0",
            "type": "NAVIGATE_TO_FORM",
            "formId": "frmUnauthInformationKA",
            "formKUID": "8ca0339cab9a45bf93258e727c1f8406",
            "mappings": {},
            "mappingsOrder": [],
            "parentId": "",
            "callbackType": null,
            "enableMappingEditor": true
        }]
    }
}