{
    "AS_Button_1922d50e915240f5ae9c944bdf451b1e": {
        "id": "AS_Button_1922d50e915240f5ae9c944bdf451b1e",
        "type": "ACTION_SEQUENCE",
        "params": [{
            "datatype": "collection",
            "name": "eventobject"
        }],
        "actions": [{
            "id": "NAVIGATE_TO_FORM__onClick_a3009fec1200412d91ed9d92f18a468b",
            "type": "NAVIGATE_TO_FORM",
            "formId": "frmLoginKA",
            "formKUID": "7b1aa8fceb6b4070833e9eab879b0e5e",
            "mappings": {},
            "mappingsOrder": [],
            "parentId": "",
            "callbackType": null,
            "enableMappingEditor": true
        }]
    }
}