{
    "AS_Button_c865309b23694307b59904d2d4cdbe62": {
        "id": "AS_Button_c865309b23694307b59904d2d4cdbe62",
        "type": "ACTION_SEQUENCE",
        "actions": [{
            "id": "NAVIGATE_TO_FORM__onClick_11756dcfdfa34d1e9156083b056bc887",
            "type": "NAVIGATE_TO_FORM",
            "formId": "frmSearchKA",
            "formKUID": "ac09c32a534449b3b0961f8e48e26015",
            "mappings": {},
            "mappingsOrder": [],
            "parentId": "",
            "callbackType": null,
            "enableMappingEditor": true
        }]
    }
}