{
    "AS_Button_1c86737e53594073bc56d6eb215766dd": {
        "id": "AS_Button_1c86737e53594073bc56d6eb215766dd",
        "type": "ACTION_SEQUENCE",
        "actions": [{
            "id": "NAVIGATE_TO_FORM___2c9445bcd4714855b15154d474a22d63",
            "type": "NAVIGATE_TO_FORM",
            "formId": "frmUserSettingsAccountPreviewKA",
            "formKUID": "7891569f547446feb05fd0bfc49efb41",
            "mappings": {},
            "mappingsOrder": [],
            "parentId": "",
            "callbackType": null,
            "enableMappingEditor": true
        }]
    }
}