{
    "AS_Button_490e01edadb34c2aa2d5af535c2199ef": {
        "id": "AS_Button_490e01edadb34c2aa2d5af535c2199ef",
        "type": "ACTION_SEQUENCE",
        "actions": [{
            "id": "NAVIGATE_TO_FORM__onClick_64b14ce7159448f9b48dfb34ddb98f4a",
            "type": "NAVIGATE_TO_FORM",
            "formId": "frmMoreLandingKA",
            "formKUID": "f90cf53e47ae407c83e2e30720fff3da",
            "mappings": {},
            "mappingsOrder": [],
            "parentId": "",
            "callbackType": null,
            "enableMappingEditor": true
        }]
    }
}