{
    "AS_Button_e1b67d1fbbea4542a057771679695e58": {
        "id": "AS_Button_e1b67d1fbbea4542a057771679695e58",
        "type": "ACTION_SEQUENCE",
        "actions": [{
            "id": "NAVIGATE_TO_FORM__onClick_07da863de8854b5cb2bd6111f616e677",
            "type": "NAVIGATE_TO_FORM",
            "formId": "frmAccountsLandingKA",
            "formKUID": "d62a2a0906c64d2281addc95893a6544",
            "mappings": {},
            "mappingsOrder": [],
            "parentId": "",
            "callbackType": null,
            "enableMappingEditor": true
        }]
    }
}