{
    "AS_Form_fb98c55e1cfb4013b6ba7458a11db3ff": {
        "id": "AS_Form_fb98c55e1cfb4013b6ba7458a11db3ff",
        "type": "ACTION_SEQUENCE",
        "params": [{
            "datatype": "collection",
            "name": "eventobject"
        }],
        "actions": [{
            "id": "ADD_SNIPPET__0982b2da06114140818fd350d820f88b",
            "type": "ADD_SNIPPET",
            "codeSnippet": "disableBackButton();",
            "parentId": null,
            "callbackType": null
        }]
    }
}