{
    "AS_FlexScrollContainer_eff01ea249ec4b70b738d9a14ebc6f2c": {
        "id": "AS_FlexScrollContainer_eff01ea249ec4b70b738d9a14ebc6f2c",
        "type": "ACTION_SEQUENCE",
        "params": [{
            "datatype": "collection",
            "name": "eventobject"
        }, {
            "datatype": "string",
            "name": "x"
        }, {
            "datatype": "string",
            "name": "y"
        }],
        "actions": [{
            "id": "ADD_SNIPPET__05416795bbbc4367934e1ecae123ad72",
            "type": "ADD_SNIPPET",
            "codeSnippet": "doneScrolling();",
            "parentId": null,
            "callbackType": null
        }]
    }
}