{
    "DNDConfig": null,
    "__parentReadjusting__": false,
    "_height_": {
        "type": "string",
        "value": "80.20%"
    },
    "_margin_": [
        0,
        0,
        0,
        0
    ],
    "_orientation_": 6,
    "_padding_": [
        0,
        0,
        0,
        0
    ],
    "_percent_": true,
    "_skin_": "s6a30c1324a24258ba095e6de4680406",
    "_top_": {
        "type": "string",
        "value": "7dp"
    },
    "_width_": "85%",
    "allboxes": [],
    "autogrowmode": 0,
    "canUpdateUI": true,
    "centerx": {
        "type": "string",
        "value": "50%"
    },
    "centery": {
        "type": "string",
        "value": "50%"
    },
    "children": [
        "flxStrtKA",
        "lblhyphenKA",
        "flxEndKA"
    ],
    "clipbounds": true,
    "containerId": true,
    "containerweight": 100,
    "disabledSkins": {},
    "enablescrolling": true,
    "focusskin": "s80fb16bc25e4df5ac33b9f783297cbe",
    "id": "flxInnerRound",
    "info": null,
    "isvisible": true,
    "kuid": "d7a4ac24f17a4b15b39a1eb4f5469850",
    "layouttype": 3,
    "name": "kony.ui.FlexContainer",
    "parent": "flxWrapperKA",
    "pf": "tmpTwoLabelsWithHyphen",
    "snapgridsize": 10,
    "snaptogrid": true,
    "wType": "FlexContainer",
    "widgetalignment": 1,
    "zindex": 1
}