{
    "@class": "com.kony.gen.viz.model.component.KVizButton",
    "DNDConfig": null,
    "__parentReadjusting__": false,
    "_height_": {
        "type": "string",
        "value": "99%"
    },
    "_left_": {
        "type": "string",
        "value": "33.50%"
    },
    "_margin_": [
        6,
        6,
        6,
        6
    ],
    "_padding_": [
        0,
        0,
        0,
        0
    ],
    "_skin_": "s5253604489842bd8355e2612bbbf6f9",
    "_text_": "",
    "_top_": {
        "type": "string",
        "value": "1%"
    },
    "_width_": {
        "type": "string",
        "value": "33%"
    },
    "canUpdateUI": true,
    "containerweight": 100,
    "contentalignment": 5,
    "displaytext": true,
    "focusskin": "s5253604489842bd8355e2612bbbf6f9",
    "id": "btnWeekly",
    "ide_onClick": "AS_Button_a10c970a784842da835dc1f056b63cdf",
    "info": null,
    "iphone": {
        "psp": {
            "showProgressIndicator": false
        }
    },
    "isvisible": true,
    "kuid": "d07e112a3ec14cebba2dd42f36616d8d",
    "name": "kony.ui.Button",
    "paddinginpixel": false,
    "parent": "flxdays",
    "pf": "frmEnableInternetTransactionKA",
    "showprogressindicator": false,
    "texti18n": "i18n.transfers.WeeklyOnce",
    "wType": "Button",
    "zindex": 3
}