{
    "DNDConfig": null,
    "__parentReadjusting__": false,
    "_height_": {
        "type": "string",
        "value": "25dp"
    },
    "_margin_": [
        0,
        0,
        0,
        0
    ],
    "_orientation_": 6,
    "_padding_": [
        0,
        0,
        0,
        0
    ],
    "_percent_": true,
    "_right_": {
        "type": "string",
        "value": "3%"
    },
    "_skin_": "s5384c55ad894841ae78a8cff35309bf",
    "_width_": {
        "type": "string",
        "value": "44dp"
    },
    "allboxes": [],
    "autogrowmode": 0,
    "canUpdateUI": true,
    "centery": {
        "type": "string",
        "value": "50%"
    },
    "children": [
        "CopyflxRoundDBlue0i13b50d999c446",
        "Copyflxlakeer0e9ab052dc56845"
    ],
    "clipbounds": true,
    "containerweight": 100,
    "enablescrolling": true,
    "id": "flxSwitchOffMO",
    "ide_onClick": "AS_FlexContainer_b66f189e397044aaab7bd93b11b0faae",
    "info": null,
    "isvisible": true,
    "kuid": "aff8ab582c7d43b599e30fb968bfad91",
    "layouttype": 2,
    "name": "kony.ui.FlexContainer",
    "parent": "flxTogglemailOrder",
    "pf": "frmEnableInternetTransactionKA",
    "snapgridsize": 10,
    "snaptogrid": true,
    "wType": "FlexContainer",
    "widgetalignment": 1,
    "zindex": 1
}