{
    "@class": "com.kony.gen.viz.model.component.KVizLabel",
    "DNDConfig": null,
    "__parentReadjusting__": false,
    "_height_": {
        "type": "ref",
        "value": "preferred"
    },
    "_left_": {
        "type": "string",
        "value": "3.50%"
    },
    "_margin_": [
        1,
        1,
        1,
        1
    ],
    "_padding_": [
        1,
        0,
        0,
        0
    ],
    "_skin_": "s756d717acf342538a0ebcf186dac18d",
    "_text_": "",
    "_width_": {
        "type": "ref",
        "value": "preferred"
    },
    "_wrapping_": 2,
    "android": {
        "textStyle": {
            "letterSpacing": 0,
            "strikeThrough": false
        }
    },
    "canUpdateUI": true,
    "centery": {
        "type": "string",
        "value": "45dp"
    },
    "containerId": true,
    "containerweight": 100,
    "contentalignment": 4,
    "id": "lblTransCustNameRTP",
    "info": null,
    "ipad": {
        "psp": {
            "wrapping": 2
        }
    },
    "iphone": {
        "psp": {
            "wrapping": 2
        }
    },
    "iscustomlayout": false,
    "isvisible": true,
    "kuid": "b3f6e8c5a5f64f2db1b6b69741a3e73f",
    "name": "kony.ui.Label",
    "paddinginpixel": false,
    "parent": "flxRTP",
    "pf": "tmpSegIPSPaymentHistory",
    "retaincontentalignment": false,
    "retainflexpositionproperties": false,
    "texti18n": "i18n.myprofile.FirstName",
    "textstyle": {},
    "tooltip": "",
    "wType": "Label",
    "zindex": 1
}