{
    "AS_Switch_cc072f30bb294c15a0ec51090a76cf51": {
        "id": "AS_Switch_cc072f30bb294c15a0ec51090a76cf51",
        "type": "ACTION_SEQUENCE",
        "name": "AccoutsAlertsRequiedOnClick",
        "params": [{
            "datatype": "collection",
            "name": "eventobject"
        }],
        "language": "js",
        "actions": [{
            "id": "ADD_SNIPPET_ide_onSlide_9e4398a02aeb46129aaa1a0dea66ff3a",
            "type": "ADD_SNIPPET",
            "codeSnippet": " if(frmAccountAlertsKA.SwitchAlert.selectedIndex===1)\n    {\n      frmAccountAlertsKA.androidAlerts.setVisibility(false);\n      frmAccountAlertsKA.HiddenAlertsReq.text=\"false\";\n      }else\n      {\n      \tfrmAccountAlertsKA.androidAlerts.setVisibility(true);\n        frmAccountAlertsKA.HiddenAlertsReq.text=\"true\";\n\t }\nvar INSTANCE = kony.sdk.mvvm.KonyApplicationContext.getAppInstance();\nvar controller = INSTANCE.getFormController(\"frmAccountAlertsKA\");\ncontroller.performAction(\"saveData\");",
            "callbackType": null
        }]
    }
}