{
    "AS_Segment_b87cd0ce8bc44d86970a23b9774e55bb": {
        "id": "AS_Segment_b87cd0ce8bc44d86970a23b9774e55bb",
        "type": "ACTION_SEQUENCE",
        "name": "actionOnRowClickOfSeg",
        "params": [{
            "datatype": "collection",
            "name": "eventobject"
        }, {
            "datatype": "number",
            "name": "sectionNumber"
        }, {
            "datatype": "number",
            "name": "rowNumber"
        }],
        "contextObj": {
            "type": "forms",
            "platform": null,
            "KUID": "i5fdc67c266a42c59e6302f1645d0c56"
        },
        "language": "js",
        "actions": [{
            "id": "ADD_SNIPPET__ic66c62e9a484c21abb7f7df59a9db94",
            "type": "ADD_SNIPPET",
            "codeSnippet": "kony.print(\"Deleted\");",
            "parentId": null,
            "callbackType": null
        }]
    }
}