{
    "AS_Form_fdcb338d0f634f4ba9088c165acc82d5": {
        "id": "AS_Form_fdcb338d0f634f4ba9088c165acc82d5",
        "type": "ACTION_SEQUENCE",
        "name": "actionOnDOBPostshow",
        "params": [{
            "datatype": "collection",
            "name": "eventobject"
        }],
        "contextObj": {
            "type": "forms",
            "platform": "",
            "KUID": "g01e44fc626946168f2084ad3d64d5ff"
        },
        "language": "js",
        "actions": [{
            "id": "ADD_SNIPPET__gf45410b2ab84c038b3f9479742d17ce",
            "type": "ADD_SNIPPET",
            "codeSnippet": "kony.print(\"Deleted\");",
            "parentId": null,
            "callbackType": null
        }]
    }
}