{
    "AS_Button_b2154ed14dcc4e9cbdf9d3ff31805889": {
        "id": "AS_Button_b2154ed14dcc4e9cbdf9d3ff31805889",
        "type": "ACTION_SEQUENCE",
        "name": "actionOnMaritalLogout",
        "params": [{
            "datatype": "collection",
            "name": "eventobject"
        }],
        "language": "js",
        "actions": [{
            "id": "SHOW_ALERT_ide_onClick_af6df3ee492b4e4bbbb51dee7d7a8247",
            "type": "SHOW_ALERT",
            "alertType": "constants.ALERT_TYPE_CONFIRMATION",
            "alertTitle": "Confirm Sign Out",
            "yesLabel": "Sign Out",
            "noLabel": "Cancel",
            "alertMessage": "Are you sure you want to sign out?",
            "messageType": "constant",
            "alertTitlei18n": "i18n.common.confirmSignOut",
            "yesLabeli18n": "i18n.common.signOut",
            "noLabeli18n": "i18n.common.cancel",
            "alertMessagei18n": "i18n.common.signOutAlert",
            "iconPosition": "constants.ALERT_ICON_POSITION_LEFT"
        }, {
            "id": "ADD_SNIPPET_ide_onClick_a473b58947d9448484b0524958143039",
            "type": "ADD_SNIPPET",
            "codeSnippet": "kony.print(\"Deleted\");",
            "parentId": "SHOW_ALERT_ide_onClick_af6df3ee492b4e4bbbb51dee7d7a8247",
            "callbackType": "True"
        }]
    }
}