{
    "AS_Button_c3af6ee810504bd5ae96cbe7052e0639": {
        "id": "AS_Button_c3af6ee810504bd5ae96cbe7052e0639",
        "type": "ACTION_SEQUENCE",
        "name": "actionOnDone",
        "params": [{
            "datatype": "collection",
            "name": "eventobject"
        }],
        "contextObj": {
            "type": "forms",
            "platform": "",
            "KUID": "b4870a6da63f4ff881da0234729a0f4e"
        },
        "language": "js",
        "actions": [{
            "id": "ADD_SNIPPET__be2ee40f2ff54afbb956a9e4cc53786a",
            "type": "ADD_SNIPPET",
            "codeSnippet": "kony.print(\"Deleted\");",
            "parentId": null,
            "callbackType": null
        }]
    }
}