{
    "AS_Image_f8e30bdb0ef24e718f97a54a19ce754d": {
        "id": "AS_Image_f8e30bdb0ef24e718f97a54a19ce754d",
        "type": "ACTION_SEQUENCE",
        "name": "actionOnDownloadCompleteOfPostloginAdImage2",
        "params": [{
            "datatype": "collection",
            "name": "eventobject"
        }, {
            "datatype": "string",
            "name": "imagesrc"
        }, {
            "datatype": "boolean",
            "name": "issuccess"
        }],
        "contextObj": {
            "name": "frmPostLoginAdvertisementKA",
            "type": "forms",
            "platform": "",
            "KUID": "a71da10c725748d8a1298eb522d627b9"
        },
        "language": "js",
        "actions": [{
            "id": "ADD_SNIPPET__fcbb6594286d4f46b93fdff8a64329fd",
            "type": "ADD_SNIPPET",
            "codeSnippet": "var postLoginVC = applicationManager.getpostLoginAdsViewController();\npostLoginVC.onAdImageDownloadComplete(issuccess,2);\n",
            "parentId": null,
            "callbackType": null
        }]
    }
}