{
    "AS_Image_d029f281aa6e4081947593768f9eb4cc": {
        "id": "AS_Image_d029f281aa6e4081947593768f9eb4cc",
        "type": "ACTION_SEQUENCE",
        "name": "actionOnDownloadCompleteOfPostloginAdImage4",
        "params": [{
            "datatype": "collection",
            "name": "eventobject"
        }, {
            "datatype": "string",
            "name": "imagesrc"
        }, {
            "datatype": "boolean",
            "name": "issuccess"
        }],
        "contextObj": {
            "name": "frmPostLoginAdvertisementKA",
            "type": "forms",
            "platform": "",
            "KUID": "a71da10c725748d8a1298eb522d627b9"
        },
        "language": "js",
        "actions": [{
            "id": "ADD_SNIPPET__f31a18b9989d480c947882a6958e21ff",
            "type": "ADD_SNIPPET",
            "codeSnippet": "var postLoginVC = applicationManager.getpostLoginAdsViewController();\npostLoginVC.onAdImageDownloadComplete(issuccess,4);\n",
            "parentId": null,
            "callbackType": null
        }]
    }
}