{
    "AS_Button_jfbef77fc0804ffabdbe5c269b9c0f78": {
        "id": "AS_Button_jfbef77fc0804ffabdbe5c269b9c0f78",
        "type": "ACTION_SEQUENCE",
        "name": "actionOnDependentsLogout",
        "params": [{
            "datatype": "collection",
            "name": "eventobject"
        }],
        "language": "js",
        "actions": [{
            "id": "SHOW_ALERT_ide_onClick_hb1a711eccee4106b474dec12ec25331",
            "type": "SHOW_ALERT",
            "alertType": "constants.ALERT_TYPE_CONFIRMATION",
            "alertTitle": "Confirm Sign Out",
            "yesLabel": "Sign Out",
            "noLabel": "Cancel",
            "alertMessage": "Are you sure you want to sign out?",
            "messageType": "constant",
            "alertTitlei18n": "i18n.common.confirmSignOut",
            "yesLabeli18n": "i18n.common.signOut",
            "noLabeli18n": "i18n.common.cancel",
            "alertMessagei18n": "i18n.common.signOutAlert",
            "iconPosition": "constants.ALERT_ICON_POSITION_LEFT"
        }, {
            "id": "ADD_SNIPPET_ide_onClick_i065e5101b7e459680630cedc17addce",
            "type": "ADD_SNIPPET",
            "codeSnippet": "kony.print(\"Deleted\");",
            "parentId": "SHOW_ALERT_ide_onClick_hb1a711eccee4106b474dec12ec25331",
            "callbackType": "True"
        }]
    }
}