{
    "AS_TextField_d543cb3cbfa74bd9ae7463e4cbe02d49": {
        "id": "AS_TextField_d543cb3cbfa74bd9ae7463e4cbe02d49",
        "type": "ACTION_SEQUENCE",
        "name": "afwanonEndEditingiPhone",
        "params": [{
            "datatype": "collection",
            "name": "eventobject"
        }, {
            "datatype": "string",
            "name": "changedtext"
        }],
        "contextObj": {
            "name": "frmJoMoPay",
            "type": "forms",
            "platform": "",
            "KUID": "d41a38dfc97d4e0a8f3b1db96d6a1ca0"
        },
        "language": "js",
        "actions": [{
            "id": "ADD_SNIPPET__a64021db9f5e48b7957faed74f155888",
            "type": "ADD_SNIPPET",
            "codeSnippet": "animateLabel(\"DOWN\",\"lblBeneficiaryStaticText\",frmJoMoPay.txtAliasDetail.text);",
            "parentId": null,
            "callbackType": null
        }]
    }
}