{
    "AS_TextField_ccb735b24bef48e4ac4ec2fab3a57716": {
        "id": "AS_TextField_ccb735b24bef48e4ac4ec2fab3a57716",
        "type": "ACTION_SEQUENCE",
        "name": "aliasTouchEndCRT",
        "params": [{
            "datatype": "collection",
            "name": "eventobject"
        }, {
            "datatype": "string",
            "name": "x"
        }, {
            "datatype": "string",
            "name": "y"
        }],
        "contextObj": {
            "type": "forms",
            "platform": null,
            "KUID": "d91f106d3024415c97c9cf88009837c7",
            "name": "frmIPSCreateAlias"
        },
        "language": "js",
        "actions": [{
            "id": "ADD_SNIPPET__j19a0111d87d42fabe4e180cf4bf9550",
            "type": "ADD_SNIPPET",
            "codeSnippet": "//Omar ALnajjar 23/02/2021 Create ALias\nanimateLabel(\"UP\",\"lblAliasName\",frmIPSCreateAlias.txtAliasName.text);\n",
            "parentId": null,
            "callbackType": null
        }]
    }
}