{
    "AS_TextField_f2e5318357034800a2dbab64f3d0fb6e": {
        "id": "AS_TextField_f2e5318357034800a2dbab64f3d0fb6e",
        "type": "ACTION_SEQUENCE",
        "name": "AS_amtAnimation",
        "params": [{
            "datatype": "collection",
            "name": "eventobject"
        }, {
            "datatype": "string",
            "name": "x"
        }, {
            "datatype": "string",
            "name": "y"
        }],
        "contextObj": {
            "name": "frmNewBillKA",
            "type": "forms",
            "platform": "",
            "KUID": "94b57de480514c9f98e1f6979b71a37b"
        },
        "language": "js",
        "actions": [{
            "id": "ADD_SNIPPET__e1a78bf1c452411f8b78a5a0ce534f1b",
            "type": "ADD_SNIPPET",
            "codeSnippet": "frmNewBillKA.tbxAmount.text = frmNewBillKA.lblHiddenAmount.text;\nanimateLabel(\"UP\",\"lblAmount\", frmNewBillKA.tbxAmount.text);",
            "parentId": null,
            "callbackType": null
        }]
    }
}