{
    "AS_TextField_b751b9b023d545c8bdcbe3e5725b9a1b": {
        "id": "AS_TextField_b751b9b023d545c8bdcbe3e5725b9a1b",
        "type": "ACTION_SEQUENCE",
        "name": "AS_AmtOnTextChange",
        "params": [{
            "datatype": "collection",
            "name": "eventobject"
        }, {
            "datatype": "string",
            "name": "changedtext"
        }],
        "contextObj": {
            "name": "frmNewTransferKA",
            "type": "forms",
            "platform": "",
            "KUID": "2ac343500306428da0ceef91a3b44d18"
        },
        "language": "js",
        "actions": [{
            "id": "ADD_SNIPPET__ae5ce0727e19472a9a7636055783491b",
            "type": "ADD_SNIPPET",
            "codeSnippet": "if(frmNewTransferKA.txtBox.text == \".\" || frmNewTransferKA.txtBox.text == 0 || frmNewTransferKA.txtBox.text == \"NaN\"){\n  frmNewTransferKA.lblNext.skin = sknLblNextDisabled;\n  frmNewTransferKA.lblNext.setEnabled(false);\n  frmNewTransferKA.lblLine3.skin = \"sknFlxOrangeLine\"; \n  frmNewTransferKA.flxInvalidAmountField.setVisibility(true);\n}\nelse{\nfrmNewTransferKA.lblLine3.skin = \"lblLine0h8b99d8a85f649\";\nfrmNewTransferKA.flxInvalidAmountField.setVisibility(false);\n}\nenableNext();\nfrmNewTransferKA.txtBox.text = fixDecimal(frmNewTransferKA.txtBox.text,getDecimalNumForCurr(frmNewTransferKA.lblFromAccCurr.text));\nfrmNewTransferKA.lblHiddenAmount.text=frmNewTransferKA.txtBox.text;",
            "parentId": null,
            "callbackType": null
        }]
    }
}