{
    "AS_Button_h05db8b9899c48469a3e8409ea660b75": {
        "id": "AS_Button_h05db8b9899c48469a3e8409ea660b75",
        "type": "ACTION_SEQUENCE",
        "name": "AS_Button_OnClickIBANEPSScreen",
        "params": [{
            "datatype": "collection",
            "name": "eventobject"
        }],
        "language": "js",
        "actions": [{
            "id": "ADD_SNIPPET_ide_onClick_a1c5214326144f2781f2520c88fd06e5",
            "type": "ADD_SNIPPET",
            "codeSnippet": "if (!transferFromBene){\n// kony.sdk.mvvm.KonyApplicationContext.showLoadingScreen(\"\");\nfrmEPS.flxDetailsAliasScroll.setVisibility(false);\nfrmEPS.flxDetailsMobileScroll.setVisibility(false);\nfrmEPS.flxDetailsIBAN.setVisibility(true);\nif(frmEPS.btnIBAN.skin === slButtonBlueFocus){\n  frmEPS.lblNext.skin = \"sknLblNextDisabled\";\n  frmEPS.btnIBAN.skin = sknOrangeBGRNDBOJ;\n  frmEPS.btnAlias.skin = slButtonBlueFocus;\n  frmEPS.btnMob.skin = slButtonBlueFocus;\n}else{\n  frmEPS.btnAlias.skin = slButtonBlueFocus;\n  frmEPS.btnIBAN.skin = sknOrangeBGRNDBOJ;\n  \n}\n // reset the other flows \n// Reset Alias Details //\n  frmEPS.txtAliasName.text = \"\";\n  frmEPS.txtAmountAlias.text = \"\";\n  frmEPS.lblIBANAliastxt.text = \"\";\n  frmEPS.lbAliasAddresstxt.text = \"\";\n  frmEPS.lblAliasBanktxt.txt = \"\";\n  frmEPS.flxBeneName.setVisibility(false);\n  frmEPS.flxAmountAlias.setVisibility(false);\n  frmEPS.flxIBANAliass.setVisibility(false);\n  frmEPS.flxAliasAddress.setVisibility(false);\n  frmEPS.flxAliasBank.setVisibility(false);\n // Reset Alias Details //\n // Reset Mob Details //\n  frmEPS.txtAliasNameMob.text = \"\";\n  frmEPS.txtAmountMob.text = \"\";\n  frmEPS.lblIBANMobtxt.text = \"\";\n  frmEPS.lblAddressMobtxt.text = \"\";\n  frmEPS.lblBankMobAliastxt.text = \"\";\n  frmEPS.flxBeneNameMob.setVisibility(false);\n  frmEPS.flxAmountMob.setVisibility(false);\n  frmEPS.flxIbanDetailsMob.setVisibility(false);\n  frmEPS.flxAddressMob.setVisibility(false);\n  frmEPS.flxBankMob.setVisibility(false);\n // Reset Mob Details //\n}",
            "callbackType": null
        }]
    }
}