{
    "AS_Button_b222ca6786d94a03a967807f5eb2b909": {
        "id": "AS_Button_b222ca6786d94a03a967807f5eb2b909",
        "type": "ACTION_SEQUENCE",
        "params": [{
            "datatype": "collection",
            "name": "eventobject"
        }, {
            "datatype": "collection",
            "name": "context"
        }],
        "contextObj": {
            "name": "segMessagesBoldTmplKA",
            "type": "templates",
            "platform": "",
            "KUID": "979b594f4a57462a94a1b15dfc2322d0"
        },
        "language": "js",
        "actions": [{
            "id": "ADD_SNIPPET__cb863fe7b2024c9ba2f8395b93deb7cc",
            "type": "ADD_SNIPPET",
            "codeSnippet": "manualDelete(\"\");",
            "parentId": null,
            "callbackType": null
        }]
    }
}