{
    "AS_Button_cf93aa7cd5ff4c2cb6fd6c1afd3c22cd": {
        "id": "AS_Button_cf93aa7cd5ff4c2cb6fd6c1afd3c22cd",
        "type": "ACTION_SEQUENCE",
        "params": [{
            "datatype": "collection",
            "name": "eventobject"
        }],
        "language": "js",
        "actions": [{
            "id": "ADD_SNIPPET_ide_onClick_ce7c4af92ce745a4ac1bf8824c5f4ae8",
            "type": "ADD_SNIPPET",
            "codeSnippet": "viewAllOffersInfo();",
            "callbackType": null
        }]
    }
}