{
    "AS_Button_fa7e771f72f74ddab0c58d750bea00a7": {
        "id": "AS_Button_fa7e771f72f74ddab0c58d750bea00a7",
        "type": "ACTION_SEQUENCE",
        "params": [{
            "datatype": "collection",
            "name": "eventobject"
        }],
        "contextObj": {
            "name": "frmAccountDetailKA",
            "type": "forms",
            "platform": "",
            "KUID": "5ed703cad63c441882fc4a36f5ea0c28"
        },
        "language": "js",
        "actions": [{
            "id": "ADD_SNIPPET__gcd9dc2abbcc4a38ace8f96972eacf5e",
            "type": "ADD_SNIPPET",
            "codeSnippet": "kony.print(\"Thid\");",
            "parentId": null,
            "callbackType": null
        }]
    }
}