{
    "AS_Button_fcb17bdc90ff40e893769e1f82871ae0": {
        "id": "AS_Button_fcb17bdc90ff40e893769e1f82871ae0",
        "type": "ACTION_SEQUENCE",
        "params": [{
            "datatype": "collection",
            "name": "eventobject"
        }],
        "contextObj": {
            "type": "forms",
            "platform": "",
            "KUID": "bf784665cb864bbb9326ee7471603cda"
        },
        "language": "js",
        "actions": [{
            "id": "ADD_SNIPPET__e3a42386402646129b3b1393aeffb6f2",
            "type": "ADD_SNIPPET",
            "codeSnippet": "kony.print(\"Deleted\");",
            "parentId": null,
            "callbackType": null
        }]
    }
}