{
    "AS_Button_e52f0361cc124c95992627d8aba8a80d": {
        "id": "AS_Button_e52f0361cc124c95992627d8aba8a80d",
        "type": "ACTION_SEQUENCE",
        "params": [{
            "datatype": "collection",
            "name": "eventobject"
        }, {
            "datatype": "string",
            "name": "x"
        }, {
            "datatype": "string",
            "name": "y"
        }],
        "contextObj": {
            "name": "frmChatBots",
            "type": "forms",
            "platform": "",
            "KUID": "a5c82996d9864c6482f65cfffe81fda4"
        },
        "language": "js",
        "actions": [{
            "id": "ADD_SNIPPET__i701f97b1d754862bfd3fb315ed5b576",
            "type": "ADD_SNIPPET",
            "codeSnippet": "kony.chatbots.user.onClickClose();",
            "parentId": null,
            "callbackType": null
        }]
    }
}