{
    "AS_Button_ib23d3ccb0364370a4e668a7e1539261": {
        "id": "AS_Button_ib23d3ccb0364370a4e668a7e1539261",
        "type": "ACTION_SEQUENCE",
        "params": [{
            "datatype": "collection",
            "name": "eventobject"
        }],
        "language": "js",
        "actions": [{
            "id": "ADD_SNIPPET_ide_onClick_ccdec34d468c430e9f6463eb52f45db7",
            "type": "ADD_SNIPPET",
            "codeSnippet": "frmPaymentDashboard.show();",
            "callbackType": null
        }]
    }
}