{
    "AS_Button_f85b9d40f2d94adb83f652f7e3411ef8": {
        "id": "AS_Button_f85b9d40f2d94adb83f652f7e3411ef8",
        "type": "ACTION_SEQUENCE",
        "name": "AS_Button_OnClickInterestToAccount",
        "params": [{
            "datatype": "collection",
            "name": "eventobject"
        }],
        "contextObj": {
            "type": "forms",
            "platform": null,
            "KUID": "f59614c5f54049dcab55c21f9c30c44e"
        },
        "language": "js",
        "actions": [{
            "id": "ADD_SNIPPET__g210392a5efa43c392f72c14e9d66da9",
            "type": "ADD_SNIPPET",
            "codeSnippet": "gblTModule = \"OpenTermDepositInterestAccount\";\ngetAllAccounts();",
            "parentId": null,
            "callbackType": null
        }]
    }
}