{
    "AS_Button_dd828ba08f9e4da2a197b208618271cf": {
        "id": "AS_Button_dd828ba08f9e4da2a197b208618271cf",
        "type": "ACTION_SEQUENCE",
        "name": "AS_Button_OnClickBtnAliasAddBeneIPS",
        "params": [{
            "datatype": "collection",
            "name": "eventobject"
        }],
        "language": "js",
        "actions": [{
            "id": "ADD_SNIPPET_ide_onClick_d0d190d2d35842989da728279f51b0f1",
            "type": "ADD_SNIPPET",
            "codeSnippet": "if (frmAddBeneIPS.lblTitle.text !== geti18Value(\"i18n.updatebene.title\")){\n\tonClickAliasTypeBtnBene(eventobject.id);  \n}\n\n",
            "callbackType": null
        }]
    }
}