{
    "AS_Button_b7fca9e843e346db8b0e764523277f0c": {
        "id": "AS_Button_b7fca9e843e346db8b0e764523277f0c",
        "type": "ACTION_SEQUENCE",
        "params": [{
            "datatype": "collection",
            "name": "eventobject"
        }],
        "language": "js",
        "actions": [{
            "id": "ADD_SNIPPET_ide_onClick_d9402d9c9b3d46c8bc7d49c02dfdcb12",
            "type": "ADD_SNIPPET",
            "codeSnippet": "if (frmAccountsLandingKA.flxDeals.isVisible === true){\n  gblTModule = \"OpenTermDeposite\";\n// getAllAccounts();\nresetForm();\n//kony.sdk.mvvm.KonyApplicationContext.showLoadingScreen(\"\");\nfrmOpenTermDeposit.show();\n}else{\n  frmNewSubAccountLandingNew.lblNext.skin = \"sknLblNextDisabled\";\n  frmNewSubAccountLandingNew.lblFre.text = geti18Value(\"i18n.common.accountType\");\n  frmNewSubAccountLandingNew.lblCurr.text = geti18Value(\"i18n.common.currencyType\");\n  frmNewSubAccountConfirm.lblCheck1.text = \"q\";\n  frmNewSubAccountLandingNew.lblFrequency.setVisibility(false);\n  frmNewSubAccountLandingNew.lblCurrHead.setVisibility(false);\n  frmNewSubAccountLandingNew.lblLine4.skin = \"sknFlxGreyLine\"\n  frmNewSubAccountLandingNew.CopylblLine0ib1721fa6b7140.skin = \"sknFlxGreyLine\";\n  frmNewSubAccountLandingNew.show();  \n}",
            "callbackType": null
        }]
    }
}