{
    "AS_TextField_hc4c3247a1f44411a8ecf1b72935c90d": {
        "id": "AS_TextField_hc4c3247a1f44411a8ecf1b72935c90d",
        "type": "ACTION_SEQUENCE",
        "name": "AS_BankDetailsAddBeneiOS",
        "params": [{
            "datatype": "collection",
            "name": "eventobject"
        }, {
            "datatype": "string",
            "name": "changedtext"
        }],
        "language": "js",
        "actions": [{
            "id": "ADD_SNIPPET_ide_onEndEditing_d975641756094b068edf59fba143ee12",
            "type": "ADD_SNIPPET",
            "codeSnippet": "if(frmAddExternalAccountKA.tbxBeneBankDetails.text !== \"\"){\n  frmAddExternalAccountKA.flxUnderlineBankDetails.skin = \"sknFlxGreenLine\";\n}else{\n  frmAddExternalAccountKA.flxUnderlineBankDetails.skin = \"sknFlxOrangeLine\";\n}\n\nanimateLabel(\"DOWN\", \"lblBeneBankDetails\", frmAddExternalAccountKA.tbxBeneBankDetails.text);",
            "callbackType": null
        }]
    }
}