{
    "AS_Button_f6c54d4816904ffa8f127f28bd502b7a": {
        "id": "AS_Button_f6c54d4816904ffa8f127f28bd502b7a",
        "type": "ACTION_SEQUENCE",
        "params": [{
            "datatype": "collection",
            "name": "eventobject"
        }],
        "language": "js",
        "actions": [{
            "id": "ADD_SNIPPET_ide_onClick_ic20b5ab103d4f67abc516a717765074",
            "type": "ADD_SNIPPET",
            "codeSnippet": "gblTModule = \"CLIQ\";\nResetFormIPSData();\ngetAllAccounts();",
            "callbackType": null
        }]
    }
}