{
    "AS_Button_e22825f55b8a49f98d32b146fe8aabaf": {
        "id": "AS_Button_e22825f55b8a49f98d32b146fe8aabaf",
        "type": "ACTION_SEQUENCE",
        "params": [{
            "datatype": "collection",
            "name": "eventobject"
        }],
        "language": "js",
        "actions": [{
            "id": "ADD_SNIPPET_ide_onClick_c588347dfa8a4d0ca761a02260d0be80",
            "type": "ADD_SNIPPET",
            "codeSnippet": "sendApproveOnRequestToPay();\nSetupRegIPSScreen();",
            "callbackType": null
        }]
    }
}