{
    "AS_Button_f08a441c022b41ff884cb92d6e675d66": {
        "id": "AS_Button_f08a441c022b41ff884cb92d6e675d66",
        "type": "ACTION_SEQUENCE",
        "name": "AS_Button_InfoCards",
        "params": [{
            "datatype": "collection",
            "name": "eventobject"
        }],
        "contextObj": {
            "name": "frmManageCardsKA",
            "type": "forms",
            "platform": "",
            "KUID": "75db60b6b4944b7faf9c556f4dbcaf8d"
        },
        "language": "js",
        "actions": [{
            "id": "ADD_SNIPPET__j86604b9c0284c15bc8d33ea9c580c27",
            "type": "ADD_SNIPPET",
            "codeSnippet": "frmManageCardsKA.btnTransactions.skin = \"btnCardsScreen\";\nfrmManageCardsKA.btnSettings.skin = \"btnCardsScreen\";\nfrmManageCardsKA.btnInfo.skin = \"btnCardFoc\";\nfrmManageCardsKA.flxSettings.isVisible = false;\nfrmManageCardsKA.flxInfo.isVisible = true;\nfrmManageCardsKA.flxTransactions.isVisible = false;",
            "parentId": null,
            "callbackType": null,
            "disabled": false
        }]
    }
}