{
    "AS_Button_e6b14efd386c4832b351b4440cb2210d": {
        "id": "AS_Button_e6b14efd386c4832b351b4440cb2210d",
        "type": "ACTION_SEQUENCE",
        "params": [{
            "datatype": "collection",
            "name": "eventobject"
        }],
        "language": "js",
        "actions": [{
            "id": "ADD_SNIPPET_ide_onClick_g11dcdb9b3fc40c1861c7bbdf33314c6",
            "type": "ADD_SNIPPET",
            "codeSnippet": "kony.boj.displayParameter(\"BOJ\");\nkony.boj.restoreDetails();\n// kony.boj.addBeneNextStatus();",
            "callbackType": null
        }]
    }
}