{
    "AS_Button_af6fbc83413b46f499500cc185e469e1": {
        "id": "AS_Button_af6fbc83413b46f499500cc185e469e1",
        "type": "ACTION_SEQUENCE",
        "params": [{
            "datatype": "collection",
            "name": "eventobject"
        }],
        "language": "js",
        "actions": [{
            "id": "ADD_SNIPPET_ide_onClick_j853dd1d8c3a4a7cb7a7621b3e1c65c7",
            "type": "ADD_SNIPPET",
            "codeSnippet": "funSelectTener(\"3Months\");",
            "callbackType": null
        }]
    }
}