{
    "AS_Button_j5986c18f245442484c6ec23f13b00b6": {
        "id": "AS_Button_j5986c18f245442484c6ec23f13b00b6",
        "type": "ACTION_SEQUENCE",
        "params": [{
            "datatype": "collection",
            "name": "eventobject"
        }],
        "contextObj": {
            "name": "frmAccountDetailKA",
            "type": "forms",
            "platform": "",
            "KUID": "5ed703cad63c441882fc4a36f5ea0c28"
        },
        "language": "js",
        "actions": [{
            "id": "ADD_SNIPPET__h4c2dd9f58bb463892996ecabe537592",
            "type": "ADD_SNIPPET",
            "codeSnippet": "kony.print(\"asdasdas\");",
            "parentId": null,
            "callbackType": null
        }]
    }
}