{
    "AS_Button_d4c7692de9824259b7809f22e47a916a": {
        "id": "AS_Button_d4c7692de9824259b7809f22e47a916a",
        "type": "ACTION_SEQUENCE",
        "params": [{
            "datatype": "collection",
            "name": "eventobject"
        }],
        "contextObj": {
            "type": "forms",
            "platform": "",
            "KUID": "c61ad12e0ab14a518f43b91ce1670e1d"
        },
        "language": "js",
        "actions": [{
            "id": "ADD_SNIPPET__bddb04fda8654991a7405770811c2ff6",
            "type": "ADD_SNIPPET",
            "codeSnippet": "kony.print(\"deleted\");",
            "parentId": null,
            "callbackType": null
        }]
    }
}