{
    "AS_Button_je3617faa99e41968fbb8f228362a47c": {
        "id": "AS_Button_je3617faa99e41968fbb8f228362a47c",
        "type": "ACTION_SEQUENCE",
        "name": "AS_Button_OnClickAddCliQBene",
        "params": [{
            "datatype": "collection",
            "name": "eventobject"
        }],
        "contextObj": {
            "name": "frmIPSManageBene",
            "type": "forms",
            "platform": "",
            "KUID": "d198f3888a0d4e49b2778593248a3f42"
        },
        "language": "js",
        "actions": [{
            "id": "ADD_SNIPPET__g4e71740a8034d77a1922f33ee5e7234",
            "type": "ADD_SNIPPET",
            "codeSnippet": "//onClickLocateUS(isLoggedIn,\"frmMore\");\nfrmAddBeneIPS.destroy();\nfrmAddBeneIPS.show();\nfrmAddBeneIPS.btnAlias.skin=\"sknOrangeBGRNDBOJ\";\nfrmAddBeneIPS.txtBankName.setEnabled(false);\nfrmAddBeneIPS.txtBeneName.setEnabled(false);\nfrmAddBeneIPS.txtIBAN.setEnabled(false);\nfrmAddBeneIPS.txtAddress.setEnabled(false);\n\nanimateLabel(\"DOWN\", \"lblIBANTitle\",frmAddBeneIPS.txtIBAN.text);\nanimateLabel(\"DOWN\", \"lblBeneNameTitle\",frmAddBeneIPS.txtBeneName.text);\nanimateLabel(\"DOWN\", \"lblAddressTitle\",frmAddBeneIPS.txtAddress.text);\nanimateLabel(\"DOWN\", \"lblBankNameTitle\",frmAddBeneIPS.txtBankName.text);\n",
            "parentId": null,
            "callbackType": null
        }]
    }
}