{
    "AS_Button_a014fb30e52346428c70240a431399b4": {
        "id": "AS_Button_a014fb30e52346428c70240a431399b4",
        "type": "ACTION_SEQUENCE",
        "params": [{
            "datatype": "collection",
            "name": "eventobject"
        }],
        "language": "js",
        "actions": [{
            "id": "ADD_SNIPPET_ide_onClick_57eb34f529c448e586a608559ecb3ba9",
            "type": "ADD_SNIPPET",
            "codeSnippet": "backTOListFormCheckReOrder();",
            "callbackType": null
        }]
    }
}