{
    "AS_Button_ef0db988dcaf4d818d25c37ebbd7a409": {
        "id": "AS_Button_ef0db988dcaf4d818d25c37ebbd7a409",
        "type": "ACTION_SEQUENCE",
        "params": [{
            "datatype": "collection",
            "name": "eventobject"
        }],
        "contextObj": {
            "name": "frmEPS",
            "type": "forms",
            "platform": "",
            "KUID": "c49bbb3175be499d86d933cee301b3c4"
        },
        "language": "js",
        "actions": []
    }
}