{
    "AS_Button_dbaa6fc3af1e43539db2d7f0868f4f43": {
        "id": "AS_Button_dbaa6fc3af1e43539db2d7f0868f4f43",
        "type": "ACTION_SEQUENCE",
        "name": "AS_Button_AccountInfoToSettings",
        "params": [{
            "datatype": "collection",
            "name": "eventobject"
        }],
        "contextObj": {
            "name": "frmAccountInfoKA",
            "type": "forms",
            "platform": "",
            "KUID": "b2f984d11c5244e6ae5f81fe393d837e"
        },
        "language": "js",
        "actions": [{
            "id": "ADD_SNIPPET__c21198af60b04a98b34b4c1c1eb569e0",
            "type": "ADD_SNIPPET",
            "codeSnippet": "gblEntryFormForSettings = \"Accounts\";\nsubMenuFlag = true;\nfrmSettingsKA.show();",
            "parentId": null,
            "callbackType": null
        }]
    }
}