{
    "AS_Button_jd8c9b9fc19a48a081acdcae6a3d73b0": {
        "id": "AS_Button_jd8c9b9fc19a48a081acdcae6a3d73b0",
        "type": "ACTION_SEQUENCE",
        "params": [{
            "datatype": "collection",
            "name": "eventobject"
        }],
        "language": "js",
        "actions": [{
            "id": "ADD_SNIPPET_ide_onClick_d44c9323247541248c7767d4bbea1389",
            "type": "ADD_SNIPPET",
            "codeSnippet": "kony.application.showLoadingScreen(null,\"\", constants.LOADING_SCREEN_POSITION_ONLY_CENTER, true, true, null);\nonClickLogin();",
            "callbackType": null
        }]
    }
}