{
    "AS_Button_34f0a076bde343fe9fd5118b758ba83a": {
        "id": "AS_Button_34f0a076bde343fe9fd5118b758ba83a",
        "type": "ACTION_SEQUENCE",
        "params": [{
            "datatype": "collection",
            "name": "eventobject"
        }],
        "language": "js",
        "actions": [{
            "id": "ADD_SNIPPET_ide_onClick_9c0f10ce66964d5494bf36d9fe4521ea",
            "type": "ADD_SNIPPET",
            "codeSnippet": "check(1);",
            "callbackType": null
        }]
    }
}