{
    "AS_Button_i2c814db60624f179654d2155c96819b": {
        "id": "AS_Button_i2c814db60624f179654d2155c96819b",
        "type": "ACTION_SEQUENCE",
        "params": [{
            "datatype": "collection",
            "name": "eventobject"
        }],
        "contextObj": {
            "name": "frmAccountDetailKA",
            "type": "forms",
            "platform": "",
            "KUID": "5ed703cad63c441882fc4a36f5ea0c28"
        },
        "language": "js",
        "actions": [{
            "id": "ADD_SNIPPET__ad9c160415494ffbbaf8b8ef9952535c",
            "type": "ADD_SNIPPET",
            "codeSnippet": "navOptTransfer(8);",
            "parentId": null,
            "callbackType": null
        }]
    }
}