{
    "AS_Button_jc63617276944c22ab8a241dcc968632": {
        "id": "AS_Button_jc63617276944c22ab8a241dcc968632",
        "type": "ACTION_SEQUENCE",
        "name": "AS_Button_onClickEfawatercoomFooterSendMony",
        "params": [{
            "datatype": "collection",
            "name": "eventobject"
        }],
        "contextObj": {
            "name": "frmAddExternalAccountHome",
            "type": "forms",
            "platform": "",
            "KUID": "e0318a85d7bb45bd847986f507b88f55"
        },
        "language": "js",
        "actions": [{
            "id": "ADD_SNIPPET__i7cb0402f7c942a38923045248b0b27b",
            "type": "ADD_SNIPPET",
            "codeSnippet": "if(kony.store.getItem(\"langPrefObj\") === \"en\")\n    kony.boj.lang = \"eng\";\n  else\n    kony.boj.lang = \"ara\";\n\ngblTModule = \"billspay\";\ngetAllAccounts();",
            "parentId": null,
            "callbackType": null
        }]
    }
}