{
    "AS_Button_bc6b02a3ca7847eebe25a1a3516e2e3f": {
        "id": "AS_Button_bc6b02a3ca7847eebe25a1a3516e2e3f",
        "type": "ACTION_SEQUENCE",
        "params": [{
            "datatype": "collection",
            "name": "eventobject"
        }],
        "contextObj": {
            "name": "frmConfirmCashWithDrawQRCodeKA",
            "type": "forms",
            "platform": null,
            "KUID": "ded4b5c79a094fb6a00d414ebe133610"
        },
        "language": "js",
        "actions": [{
            "id": "ADD_SNIPPET_ide_onClick_ec5add98ad7a431396d6f7a8db0d52cc",
            "type": "ADD_SNIPPET",
            "codeSnippet": "var vc = new kony.rb.frmConfirmCashWithDrawQRCodeKAViewController();\nvc.goBack();",
            "callbackType": null
        }]
    }
}