{
    "AS_Button_f8e345c6d28a4650b0122d49b8f819be": {
        "id": "AS_Button_f8e345c6d28a4650b0122d49b8f819be",
        "type": "ACTION_SEQUENCE",
        "params": [{
            "datatype": "collection",
            "name": "eventobject"
        }],
        "language": "js",
        "actions": [{
            "id": "ADD_SNIPPET_ide_onClick_b1029fbb7a874fbbb87cfbf37432af57",
            "type": "ADD_SNIPPET",
            "codeSnippet": "//Omar ALnajjar R2P 23/02/2021\ncustomAlertPopup(geti18Value(\"i18n.cards.Confirmation\"), \n                 geti18Value(\"i18n.transfers.eraseAllAlert\"),\n                 onClickYesBackRTP, onClickNoBackRTP, \n                 geti18Value(\"i18n.common.YES\"),\n                 geti18Value(\"i18n.common.NO\"));",
            "callbackType": null
        }]
    }
}