{
    "AS_Button_3218965d5cec4f36a55647f53af3a8ce": {
        "id": "AS_Button_3218965d5cec4f36a55647f53af3a8ce",
        "type": "ACTION_SEQUENCE",
        "params": [{
            "datatype": "collection",
            "name": "eventobject"
        }],
        "language": "js",
        "actions": [{
            "id": "INVOKE_FUNCTION__ide_onClick_e1b4c5bfd1cb4a669930a9c806f4305f",
            "type": "INVOKE_FUNCTION",
            "display": "firstTimeVisitAccountTermsForm",
            "inputparams": [],
            "callbackType": null,
            "source": "module"
        }]
    }
}