{
    "AS_Button_gb754273070e4928b7c9e65fd4a22ea1": {
        "id": "AS_Button_gb754273070e4928b7c9e65fd4a22ea1",
        "type": "ACTION_SEQUENCE",
        "params": [{
            "datatype": "collection",
            "name": "eventobject"
        }],
        "language": "js",
        "actions": [{
            "id": "ADD_SNIPPET_ide_onClick_b3c86340d3c341d0acf1b872c18ac59a",
            "type": "ADD_SNIPPET",
            "codeSnippet": "//Omar Alnajjar 24/02/2021 R2P\nif(frmIPSRequestToPay.btnRequest.skin === \"R2PbtnSKN\"){\n    kony.sdk.mvvm.KonyApplicationContext.showLoadingScreen(\"\");\n    SetupRTPConfirmationScreen();\n  \tfrmIPSRequestToPay.flxR2PBody.setVisibility(false);\n  \tfrmIPSRequestToPay.flxConfirmRTP.setVisibility(true);\n    kony.sdk.mvvm.KonyApplicationContext.dismissLoadingScreen();\n}else{\n  customAlertPopup(geti18Value(\"i18n.maps.Info\"), geti18Value(\"i18n.jomopay.fillDetails\"), popupCommonAlertDimiss, \"\");\n}\n// sendRequestPayment();",
            "callbackType": null
        }]
    }
}