{
    "AS_Button_d75794e4e0bb42e9970fddf8dea9b084": {
        "id": "AS_Button_d75794e4e0bb42e9970fddf8dea9b084",
        "type": "ACTION_SEQUENCE",
        "params": [{
            "datatype": "collection",
            "name": "eventobject"
        }],
        "language": "js",
        "actions": [{
            "id": "ADD_SNIPPET_ide_onClick_d9e11e87fea642c0bfd7a52801bcbec6",
            "type": "ADD_SNIPPET",
            "codeSnippet": "showAccountInsights();\n  ",
            "callbackType": null
        }]
    }
}