{
    "AS_Button_b85c5096ea7f44bca1722f5d27356027": {
        "id": "AS_Button_b85c5096ea7f44bca1722f5d27356027",
        "type": "ACTION_SEQUENCE",
        "params": [{
            "datatype": "collection",
            "name": "eventobject"
        }],
        "contextObj": {
            "type": "forms",
            "platform": null,
            "KUID": "1364bef04c9c4d31bd7cb0630eab07c0"
        },
        "language": "js",
        "actions": [{
            "id": "ADD_SNIPPET_ide_onClick_0ae5b9733d65429d89c9e951d5802d99",
            "type": "ADD_SNIPPET",
            "codeSnippet": "getDeposits(\"frmDepositPayLandingKA\");",
            "callbackType": null
        }]
    }
}