{
    "AS_Button_ib451462b35f46a0a542034bf968c062": {
        "id": "AS_Button_ib451462b35f46a0a542034bf968c062",
        "type": "ACTION_SEQUENCE",
        "params": [{
            "datatype": "collection",
            "name": "eventobject"
        }],
        "language": "js",
        "actions": [{
            "id": "ADD_SNIPPET_ide_onClick_d7769b94dd464779bc10e9db7f4b823d",
            "type": "ADD_SNIPPET",
            "codeSnippet": "funSelectTener(\"1Month\");",
            "callbackType": null
        }]
    }
}