{
    "AS_Button_je8a9209c3824c91a99784e9a1a04035": {
        "id": "AS_Button_je8a9209c3824c91a99784e9a1a04035",
        "type": "ACTION_SEQUENCE",
        "params": [{
            "datatype": "collection",
            "name": "eventobject"
        }],
        "contextObj": {
            "type": "forms",
            "platform": "",
            "KUID": "a42b238ed6d24762ade2b6d865ef4897"
        },
        "language": "js",
        "actions": [{
            "id": "ADD_SNIPPET__a08eefe50f8d4d82a2f8d3f90d19ee99",
            "type": "ADD_SNIPPET",
            "codeSnippet": "var obj = new kony.retailbanking.AdvancedAtmFilter();\nobj.clearFilter();",
            "parentId": null,
            "callbackType": null
        }]
    }
}