{
    "AS_Button_5e5bd33dee1946a3a75ac92b003746fe": {
        "id": "AS_Button_5e5bd33dee1946a3a75ac92b003746fe",
        "type": "ACTION_SEQUENCE",
        "params": [{
            "datatype": "collection",
            "name": "eventobject"
        }],
        "language": "js",
        "actions": [{
            "id": "ADD_SNIPPET_ide_onClick_d1dada892aa64f71a729d8b1ac5c845f",
            "type": "ADD_SNIPPET",
            "codeSnippet": "locatorMapViewEnabled();",
            "callbackType": null
        }]
    }
}