{
    "AS_Button_af8aef4bc69047198ae4f20eafc362b2": {
        "id": "AS_Button_af8aef4bc69047198ae4f20eafc362b2",
        "type": "ACTION_SEQUENCE",
        "params": [{
            "datatype": "collection",
            "name": "eventobject"
        }],
        "contextObj": {
            "name": "frmJoMoPayRegistration",
            "type": "forms",
            "platform": "",
            "KUID": "h0b4f51069c74c7bbbbd6798301d77d6"
        },
        "language": "js",
        "actions": [{
            "id": "ADD_SNIPPET_ide_onClick_f73ac5fd2417421c83786fe6d2368711",
            "type": "ADD_SNIPPET",
            "codeSnippet": "kony.boj.showCountryorCity(\"Country\", \"lblCountry\",\"\");",
            "callbackType": null
        }]
    }
}