{
    "AS_Button_7d6095fc9ceb47729e05f47f6e4d9a38": {
        "id": "AS_Button_7d6095fc9ceb47729e05f47f6e4d9a38",
        "type": "ACTION_SEQUENCE",
        "params": [{
            "datatype": "collection",
            "name": "eventobject"
        }],
        "contextObj": {
            "type": "forms",
            "platform": null,
            "KUID": "f6857ccc7dc3462791659bccc5a32b4e"
        },
        "language": "js",
        "actions": [{
            "id": "NAVIGATE_TO_FORM__ide_onClick_92e3fca1dcdd44f3bbccce8535204961",
            "type": "NAVIGATE_TO_FORM",
            "formId": "frmEnterPersonalDetailsKA",
            "formKUID": "0cbef5cf059f4b04b869b2345da27f26",
            "mappings": {},
            "mappingsOrder": [],
            "parentId": "",
            "callbackType": null,
            "enableMappingEditor": true,
            "package": "",
            "navigationObj": "{\n    \"_meta_\": {\n        \"eventName\": \"\",\n        \"widgetId\": \"\"\n    }\n}",
            "isCustomInput": false
        }]
    }
}