{
    "AS_Button_28f8ae0a338e47caa35b1a102e72d2e8": {
        "id": "AS_Button_28f8ae0a338e47caa35b1a102e72d2e8",
        "type": "ACTION_SEQUENCE",
        "params": [{
            "datatype": "collection",
            "name": "eventobject"
        }],
        "contextObj": {
            "type": "forms",
            "platform": "",
            "KUID": "d8e810e6d431401cb87770abb531faf7"
        },
        "language": "js",
        "actions": [{
            "id": "ADD_SNIPPET__74edf848214f43ec972ac98a7b859d09",
            "type": "ADD_SNIPPET",
            "codeSnippet": "kony.print(\"Deleted\");",
            "parentId": null,
            "callbackType": null
        }]
    }
}