{
    "AS_Button_e168e7b6f9aa4408b88acbfcd0cdf3ec": {
        "id": "AS_Button_e168e7b6f9aa4408b88acbfcd0cdf3ec",
        "type": "ACTION_SEQUENCE",
        "params": [{
            "datatype": "collection",
            "name": "eventobject"
        }],
        "contextObj": {
            "name": "frmConfirmNPPRegistration",
            "type": "forms",
            "platform": "",
            "KUID": "e6a1d365d76b48e1bf53a6a1a73bbeb0"
        },
        "language": "js",
        "actions": [{
            "id": "ADD_SNIPPET__g55828bc346743f495a253b8a6348813",
            "type": "ADD_SNIPPET",
            "codeSnippet": "var vc=applicationManager.getfrmConfirmNPPRegistrationViewController();\nvc.onClickOfEdit();",
            "parentId": null,
            "callbackType": null
        }]
    }
}