{
    "AS_Button_edc4d40c33cd48638ab7b4db5b7fc79d": {
        "id": "AS_Button_edc4d40c33cd48638ab7b4db5b7fc79d",
        "type": "ACTION_SEQUENCE",
        "params": [{
            "datatype": "collection",
            "name": "eventobject"
        }],
        "language": "js",
        "actions": [{
            "id": "ADD_SNIPPET_ide_onClick_fcb9f1610e904aaba9579ec6001548ba",
            "type": "ADD_SNIPPET",
            "codeSnippet": "check(4);",
            "callbackType": null
        }]
    }
}