{
    "AS_Button_gc069ac275324a818cec5af106c77dea": {
        "id": "AS_Button_gc069ac275324a818cec5af106c77dea",
        "type": "ACTION_SEQUENCE",
        "params": [{
            "datatype": "collection",
            "name": "eventobject"
        }],
        "contextObj": {
            "name": "frmAccountDetailKA",
            "type": "forms",
            "platform": "",
            "KUID": "5ed703cad63c441882fc4a36f5ea0c28"
        },
        "language": "js",
        "actions": [{
            "id": "ADD_SNIPPET__ae7738dc129348308925c914998b3690",
            "type": "ADD_SNIPPET",
            "codeSnippet": "kony.print(\"This ois \");",
            "parentId": null,
            "callbackType": null
        }]
    }
}