{
    "AS_Button_df5cbcc73f1045a9885eba03369c3c99": {
        "id": "AS_Button_df5cbcc73f1045a9885eba03369c3c99",
        "type": "ACTION_SEQUENCE",
        "params": [{
            "datatype": "collection",
            "name": "eventobject"
        }],
        "contextObj": {
            "name": "iphoneFooterAr",
            "type": "templates",
            "platform": null,
            "KUID": "d18adb1bf93a460eb89a9f1da80f952f"
        },
        "language": "js",
        "actions": [{
            "id": "ADD_SNIPPET_ide_onClick_bbb2a1f1603147d5a682adb0f04fc02d",
            "type": "ADD_SNIPPET",
            "codeSnippet": "frmMore.show();",
            "callbackType": null
        }]
    }
}