{
    "AS_Button_b4526cf6d8584bf6862cc7e52d70e130": {
        "id": "AS_Button_b4526cf6d8584bf6862cc7e52d70e130",
        "type": "ACTION_SEQUENCE",
        "params": [{
            "datatype": "collection",
            "name": "eventobject"
        }],
        "contextObj": {
            "name": "frmCongratulations",
            "type": "forms",
            "platform": "",
            "KUID": "h0d76ad922194a6b81763ba19df1183c"
        },
        "language": "js",
        "actions": [{
            "id": "ADD_SNIPPET_ide_onClick_f0bcaeb9b7cb495793f2f7f8550a82c6",
            "type": "ADD_SNIPPET",
            "codeSnippet": "gotoPage(\"Login\");\nfrmNewUserOnboardVerificationKA.destroy();\nfrmRegisterUser.destroy();\nfrmCongratulations.destroy();\nfrmEnrolluserLandingKA.destroy();",
            "callbackType": null
        }]
    }
}