{
    "AS_Button_gd5882dfd2f0444b8c7b0f58610be8bc": {
        "id": "AS_Button_gd5882dfd2f0444b8c7b0f58610be8bc",
        "type": "ACTION_SEQUENCE",
        "params": [{
            "datatype": "collection",
            "name": "eventobject"
        }],
        "language": "js",
        "actions": [{
            "id": "ADD_SNIPPET_ide_onClick_cac82895721b448baf6d157132932a7e",
            "type": "ADD_SNIPPET",
            "codeSnippet": "frmAccountsLandingKA.flxDeals.setVisibility(false);\nif(frmAccountsLandingKA.segAccountsKALoans.data !== null && frmAccountsLandingKA.segAccountsKALoans.data.length === 1){\n         LoanOnetimeCall();        \n      }else{\nloansAnimation();\n      }"
        }]
    }
}