{
    "AS_Button_cc66c147868a4cc18abc2d950879f9cb": {
        "id": "AS_Button_cc66c147868a4cc18abc2d950879f9cb",
        "type": "ACTION_SEQUENCE",
        "params": [{
            "datatype": "collection",
            "name": "eventobject"
        }],
        "contextObj": {
            "name": "frmConfirmationCardKA",
            "type": "forms",
            "platform": "",
            "KUID": "86f27251d4444933a1f18edc8e0a9e65"
        },
        "language": "js",
        "actions": [{
            "id": "ADD_SNIPPET__a7b9fe1551744b5d8fb3e5bcf97a7e46",
            "type": "ADD_SNIPPET",
            "codeSnippet": "cancelNewAccountOpening();",
            "parentId": null,
            "callbackType": null
        }]
    }
}