{
    "AS_Button_f2e5c267e15e4a25849e8db1b25b248c": {
        "id": "AS_Button_f2e5c267e15e4a25849e8db1b25b248c",
        "type": "ACTION_SEQUENCE",
        "params": [{
            "datatype": "collection",
            "name": "eventobject"
        }],
        "contextObj": {
            "name": "frmOpenTermDeposit",
            "type": "forms",
            "platform": "",
            "KUID": "fec6fddbcf8543f2b30114c87e1a7e99"
        },
        "language": "js",
        "actions": [{
            "id": "ADD_SNIPPET_ide_onClick_i39a605958c440e68bee6d0cff4adfe5",
            "type": "ADD_SNIPPET",
            "codeSnippet": "gblTModule = \"OpenTermDepositInterestAccount\";\ngetAllAccounts();",
            "callbackType": null
        }]
    }
}