{
    "AS_CheckBoxGroup_9063d22094944adbbe74252960334511": {
        "id": "AS_CheckBoxGroup_9063d22094944adbbe74252960334511",
        "type": "ACTION_SEQUENCE",
        "params": [{
            "datatype": "collection",
            "name": "eventobject"
        }],
        "contextObj": {
            "type": "forms",
            "platform": null,
            "KUID": "400a0ee97eb04e5897318084b1271b8a"
        },
        "language": "js",
        "actions": [{
            "id": "ADD_SNIPPET_ide_onSelection_8be883ba7fcd4e089a690f0aa096beb3",
            "type": "ADD_SNIPPET",
            "codeSnippet": "selectCheckNumbers();",
            "callbackType": null
        }]
    }
}