{
    "AS_CheckBoxGroup_10dd2e12aeeb4770a66594fcb283e314": {
        "id": "AS_CheckBoxGroup_10dd2e12aeeb4770a66594fcb283e314",
        "type": "ACTION_SEQUENCE",
        "params": [{
            "datatype": "collection",
            "name": "eventobject"
        }],
        "language": "js",
        "actions": [{
            "id": "ADD_SNIPPET_ide_onSelection_ede996c251d54b0b8f78ef88397a6c45",
            "type": "ADD_SNIPPET",
            "codeSnippet": "selectAmountRange();",
            "callbackType": null
        }]
    }
}