{
    "AS_CheckBoxGroup_3d5c0933fbb94da89d71eac5ffe9160d": {
        "id": "AS_CheckBoxGroup_3d5c0933fbb94da89d71eac5ffe9160d",
        "type": "ACTION_SEQUENCE",
        "params": [{
            "datatype": "collection",
            "name": "eventobject"
        }],
        "language": "js",
        "actions": [{
            "id": "ADD_SNIPPET_ide_onSelection_0c4080561d3f4b0892b3ec0fd07dc0d2",
            "type": "ADD_SNIPPET",
            "codeSnippet": "selectCheckNumbers();",
            "callbackType": null
        }]
    }
}