{
    "AS_Form_abd95be79a104cce944426d3222898a3": {
        "id": "AS_Form_abd95be79a104cce944426d3222898a3",
        "type": "ACTION_SEQUENCE",
        "params": [{
            "datatype": "collection",
            "name": "eventobject"
        }],
        "contextObj": {
            "name": "frmEPS",
            "type": "forms",
            "platform": "",
            "KUID": "c49bbb3175be499d86d933cee301b3c4"
        },
        "language": "js",
        "actions": []
    }
}