{
    "AS_FlexContainer_i9d8fe807954482ba83d6e04af156cf8": {
        "id": "AS_FlexContainer_i9d8fe807954482ba83d6e04af156cf8",
        "type": "ACTION_SEQUENCE",
        "params": [{
            "datatype": "collection",
            "name": "eventobject"
        }],
        "language": "js",
        "actions": [{
            "id": "ADD_SNIPPET_ide_onClick_fbf18ed6b99949bba1b9cd6f7ff1edd1",
            "type": "ADD_SNIPPET",
            "codeSnippet": "frmNewUserOnboardVerificationKA.txtOTP.setFocus(true);",
            "callbackType": null
        }]
    }
}