{
    "AS_FlexContainer_cc6cbd895cd340d3aa85844e740fe407": {
        "id": "AS_FlexContainer_cc6cbd895cd340d3aa85844e740fe407",
        "type": "ACTION_SEQUENCE",
        "params": [{
            "datatype": "collection",
            "name": "eventobject"
        }],
        "contextObj": {
            "name": "frmNewSubAccountLandingNew",
            "type": "forms",
            "platform": null,
            "KUID": "i277bc3c8d71465085f48b35ef80c31b"
        },
        "language": "js",
        "actions": [{
            "id": "ADD_SNIPPET__e0097a3ff120482b905d984fca95c449",
            "type": "ADD_SNIPPET",
            "codeSnippet": null,
            "parentId": null,
            "callbackType": null
        }]
    }
}