{
    "AS_Form_c9f5827ce09a4dc9b167d123d166b681": {
        "id": "AS_Form_c9f5827ce09a4dc9b167d123d166b681",
        "type": "ACTION_SEQUENCE",
        "params": [{
            "datatype": "collection",
            "name": "eventobject"
        }],
        "contextObj": {
            "name": "frmLocatorATMDetailsKA",
            "type": "forms",
            "platform": "",
            "KUID": "a9e449d9a0254894a21fdc3d3c303ac6"
        },
        "language": "js",
        "actions": [{
            "id": "ADD_SNIPPET__e5adea8b84af414e97c7e03796d8b728",
            "type": "ADD_SNIPPET",
            "codeSnippet": "frmLocatorATMDetailsKA.destroy();",
            "parentId": null,
            "callbackType": null
        }]
    }
}