{
    "AS_FlexContainer_a4e56a9540df4033bbf4cd8cefc6195e": {
        "id": "AS_FlexContainer_a4e56a9540df4033bbf4cd8cefc6195e",
        "type": "ACTION_SEQUENCE",
        "params": [{
            "datatype": "collection",
            "name": "eventobject"
        }],
        "contextObj": {
            "name": "frmPinManagement",
            "type": "forms",
            "platform": "",
            "KUID": "c4c6817a079e45d79df26361f5289750"
        },
        "language": "js",
        "actions": []
    }
}