{
    "AS_Form_e1a8cada4d5a42daaadf90e394866d85": {
        "id": "AS_Form_e1a8cada4d5a42daaadf90e394866d85",
        "type": "ACTION_SEQUENCE",
        "params": [{
            "datatype": "collection",
            "name": "eventobject"
        }],
        "contextObj": {
            "type": "forms",
            "platform": null,
            "KUID": "he1d62b4711f4c5abdcb97f4fa0c8653"
        },
        "language": "js",
        "actions": [{
            "id": "ADD_SNIPPET_ide_onDeviceBack_e60515d162294eceaa90b345ccb8473b",
            "type": "ADD_SNIPPET",
            "codeSnippet": "kony.print(\"Device Back\");",
            "callbackType": null
        }]
    }
}