{
    "AS_FlexContainer_b1de4c69445940c5afac64caf6ac8f00": {
        "id": "AS_FlexContainer_b1de4c69445940c5afac64caf6ac8f00",
        "type": "ACTION_SEQUENCE",
        "params": [{
            "datatype": "collection",
            "name": "eventobject"
        }, {
            "datatype": "string",
            "name": "x"
        }, {
            "datatype": "string",
            "name": "y"
        }],
        "language": "js",
        "actions": [{
            "id": "ADD_SNIPPET_ide_onTouchEnd_c5654b1a14f948c5bd7e7107ef1b8fbd",
            "type": "ADD_SNIPPET",
            "codeSnippet": "exit();",
            "callbackType": null
        }]
    }
}