{
    "AS_FlexContainer_a1399271cc9b43759c53ed17abbab368": {
        "id": "AS_FlexContainer_a1399271cc9b43759c53ed17abbab368",
        "type": "ACTION_SEQUENCE",
        "params": [{
            "datatype": "collection",
            "name": "eventobject"
        }],
        "contextObj": {
            "name": "frmNewTransferKA",
            "type": "forms",
            "platform": "",
            "KUID": "2ac343500306428da0ceef91a3b44d18"
        },
        "language": "js",
        "actions": [{
            "id": "ADD_SNIPPET__e8738e9959334abf9bfa9f2c1aae5fd3",
            "type": "ADD_SNIPPET",
            "codeSnippet": "frequencyOnClick(4);",
            "parentId": null,
            "callbackType": null
        }]
    }
}