{
    "AS_FlexContainer_f0cbca532d314d1c92b4b22a0de45384": {
        "id": "AS_FlexContainer_f0cbca532d314d1c92b4b22a0de45384",
        "type": "ACTION_SEQUENCE",
        "params": [{
            "datatype": "collection",
            "name": "eventobject"
        }],
        "language": "js",
        "actions": [{
            "id": "ADD_SNIPPET_ide_onClick_f2d626b301ce4de59ad202140ecbe2de",
            "type": "ADD_SNIPPET",
            "codeSnippet": "kony.print(\"gblFromModule::\"+gblFromModule);\nif(gblFromModule == \"RegisterUser\"){\n  if(frmRegisterUser.flxNationalIDContainer.isVisible == true){\n  frmRegisterUser.flxNationalIDContainer.setVisibility(false);\n  frmRegisterUser.flxDebitCard.setVisibility(true); \n  }else{\n  frmLoginKA.show();\n  frmRegisterUser.destroy();\n  }\n}else if(gblFromModule == \"UpdateSMSNumber\" && (previous_FORM !== null && previous_FORM.id === \"frmManageCardsKA\")){\n  frmManageCardsKA.show();\n  gblToOTPFrom = \"\";\n  gblFromModule = \"\";\n  previous_FORM = null;\n}else if(gblFromModule == \"UpdateSMSNumber\"){\n\tcallMyProfileData();\n}else if(gblFromModule == \"UpdateMobileNumber\"){\n  frmManageCardsKA.show();\n  gblToOTPFrom = \"\";\n  gblFromModule = \"\";\n}\nelse{\n  gblFromModule = \"ForgotPassword\";\n  gblReqField=\"Username\";\n  initialiseAndCallEnroll();\n  frmRegisterUser.destroy();\n}\n\n",
            "callbackType": null
        }]
    }
}