{
    "AS_FlexContainer_g4029f96c7fc42b78a6af69ecc60b3d0": {
        "id": "AS_FlexContainer_g4029f96c7fc42b78a6af69ecc60b3d0",
        "type": "ACTION_SEQUENCE",
        "name": "AS_footerTransferOnClick",
        "params": [{
            "datatype": "collection",
            "name": "eventobject"
        }],
        "language": "js",
        "actions": [{
            "id": "ADD_SNIPPET_ide_onClick_dd3fff2b040b43be8f688f5cdbde3dde",
            "type": "ADD_SNIPPET",
            "codeSnippet": "kony.print(\"Removed\");",
            "callbackType": null
        }]
    }
}