{
    "AS_FlexContainer_h8bc2fbc686b407182cb4a418d00f04c": {
        "id": "AS_FlexContainer_h8bc2fbc686b407182cb4a418d00f04c",
        "type": "ACTION_SEQUENCE",
        "params": [{
            "datatype": "collection",
            "name": "eventobject"
        }],
        "contextObj": {
            "type": "forms",
            "platform": "",
            "KUID": "a7e7b33553484e9c83559a91d27212e3"
        },
        "language": "js",
        "actions": [{
            "id": "ADD_SNIPPET__b8749022cbee4991b6b142a2a41e8b60",
            "type": "ADD_SNIPPET",
            "codeSnippet": "kony.print(\"deleted\");",
            "parentId": null,
            "callbackType": null
        }]
    }
}