{
    "AS_FlexContainer_b7c19fd13b154bc2aa67fded7c55d1a1": {
        "id": "AS_FlexContainer_b7c19fd13b154bc2aa67fded7c55d1a1",
        "type": "ACTION_SEQUENCE",
        "params": [{
            "datatype": "collection",
            "name": "eventobject"
        }, {
            "datatype": "string",
            "name": "x"
        }, {
            "datatype": "string",
            "name": "y"
        }],
        "language": "js",
        "actions": [{
            "id": "ADD_SNIPPET_ide_onTouchStart_f3d832d22f7e41e3b1e01f67ef820034",
            "type": "ADD_SNIPPET",
            "codeSnippet": "kony.print(\"Do nothing\");",
            "callbackType": null
        }]
    }
}