{
    "AS_Form_e6ef8b25a42241fa8c325ad270cb622b": {
        "id": "AS_Form_e6ef8b25a42241fa8c325ad270cb622b",
        "type": "ACTION_SEQUENCE",
        "params": [{
            "datatype": "collection",
            "name": "eventobject"
        }],
        "contextObj": {
            "type": "forms",
            "platform": "",
            "KUID": "6eb320a5ff4c42d8bf0ce564370c64ff"
        },
        "language": "js",
        "actions": []
    }
}