{
    "AS_FlexContainer_8dbec3c01afa4d67b2ff3c31a8e164d0": {
        "id": "AS_FlexContainer_8dbec3c01afa4d67b2ff3c31a8e164d0",
        "type": "ACTION_SEQUENCE",
        "params": [{
            "datatype": "collection",
            "name": "eventobject"
        }, {
            "datatype": "string",
            "name": "x"
        }, {
            "datatype": "string",
            "name": "y"
        }],
        "contextObj": {
            "name": "frmNewTransferKA",
            "type": "forms",
            "platform": "",
            "KUID": "2ac343500306428da0ceef91a3b44d18"
        },
        "language": "js",
        "actions": [{
            "id": "ADD_SNIPPET__432a4596422844ab928732f94d334df7",
            "type": "ADD_SNIPPET",
            "codeSnippet": "frequencyOnClick(3);",
            "parentId": null,
            "callbackType": null
        }]
    }
}