{
    "AS_Form_eefb9833bdd84c2481146a653ab129b4": {
        "id": "AS_Form_eefb9833bdd84c2481146a653ab129b4",
        "type": "ACTION_SEQUENCE",
        "params": [{
            "datatype": "collection",
            "name": "eventobject"
        }],
        "contextObj": {
            "name": "frmLoginKA",
            "type": "forms",
            "platform": "",
            "KUID": "7b1aa8fceb6b4070833e9eab879b0e5e"
        },
        "language": "js",
        "actions": []
    }
}