{
    "AS_Button_feff81b910b84b41b01750cf88d641df": {
        "id": "AS_Button_feff81b910b84b41b01750cf88d641df",
        "type": "ACTION_SEQUENCE",
        "name": "AS_frmNewBillDetailsonClickRadioAccount",
        "params": [{
            "datatype": "collection",
            "name": "eventobject"
        }],
        "language": "js",
        "actions": [{
            "id": "ADD_SNIPPET_ide_onClick_bdbabc4700ed46bf94c62712f50900dc",
            "type": "ADD_SNIPPET",
            "codeSnippet": "onChangingradioBtn(frmNewBillDetails.btnBillsPayAccounts,frmNewBillDetails.lblBillsPayAccounts.text);\nnextFromNewDetailsScreen();",
            "callbackType": null
        }]
    }
}