{
    "AS_FlexContainer_e39fad3e845940b5988acddf6f1fc9ef": {
        "id": "AS_FlexContainer_e39fad3e845940b5988acddf6f1fc9ef",
        "type": "ACTION_SEQUENCE",
        "params": [{
            "datatype": "collection",
            "name": "eventobject"
        }],
        "language": "js",
        "actions": [{
            "id": "ADD_SNIPPET_ide_onClick_a7f18bb1d7d8477fbab287520ccf1107",
            "type": "ADD_SNIPPET",
            "codeSnippet": "if(eventobject.id === \"flxapplyCredit\"){\n\tkony.newCARD.maincardTYPE = \"Credit\";\n}else if(eventobject.id === \"flxapplyDebit\"){\n\tkony.newCARD.maincardTYPE = \"Debit\";\n}else if(eventobject.id === \"flxapplyPrepaid\"){\n\tkony.newCARD.maincardTYPE = \"Prepaid\";\n}\nreset_APPLYNEWCARDS();",
            "callbackType": null
        }]
    }
}