{
    "AS_FlexContainer_ba6e92ace9a64622970bcd80ad154f75": {
        "id": "AS_FlexContainer_ba6e92ace9a64622970bcd80ad154f75",
        "type": "ACTION_SEQUENCE",
        "params": [{
            "datatype": "collection",
            "name": "eventobject"
        }],
        "language": "js",
        "actions": [{
            "id": "ADD_SNIPPET_ide_onClick_74cb2d8e2250431e96a8046003e7e6bd",
            "type": "ADD_SNIPPET",
            "codeSnippet": "updateSecurityAletStatus(\"passwordExpired\");",
            "callbackType": null
        }]
    }
}