{
    "AS_Form_a3b4e109cc5348e1943928cef50c9e7a": {
        "id": "AS_Form_a3b4e109cc5348e1943928cef50c9e7a",
        "type": "ACTION_SEQUENCE",
        "name": "AS_Form_opstShowOpenDeposite",
        "params": [{
            "datatype": "collection",
            "name": "eventobject"
        }],
        "contextObj": {
            "name": "frmOpenTermDeposit",
            "type": "forms",
            "platform": "",
            "KUID": "fec6fddbcf8543f2b30114c87e1a7e99"
        },
        "language": "js",
        "actions": [{
            "id": "ADD_SNIPPET__b436a053dcea4507ac5a205c75317d0c",
            "type": "ADD_SNIPPET",
            "codeSnippet": "kony.sdk.mvvm.KonyApplicationContext.dismissLoadingScreen();\nif (frmOpenTermDeposit.lblFundDeductionAccountNumber.text === geti18Value(\"i18n.termDeposit.fundDeductionAccountNumberTitle\"))\n{\n  frmOpenTermDeposit.btnNextDeposite.setEnabled(false);\n  frmOpenTermDeposit.txtDepositAmount.setEnabled(false);\n  frmOpenTermDeposit.calOpenDeposite.setEnabled(false);\n  frmOpenTermDeposit.btnMaturityInstruction.setEnabled(false);\n  frmOpenTermDeposit.btnAccountToAddInterestTo.setEnabled(false);\n}",
            "parentId": null,
            "callbackType": null
        }]
    }
}