{
    "AS_FlexContainer_dbc66761cc274f4e90044dc3e88de0b6": {
        "id": "AS_FlexContainer_dbc66761cc274f4e90044dc3e88de0b6",
        "type": "ACTION_SEQUENCE",
        "params": [{
            "datatype": "collection",
            "name": "eventobject"
        }],
        "contextObj": {
            "name": "iphoneFooterAr",
            "type": "templates",
            "platform": null,
            "KUID": "d18adb1bf93a460eb89a9f1da80f952f"
        },
        "language": "js",
        "actions": [{
            "id": "ADD_SNIPPET_ide_onClick_f2d67fbcb7cf4cdf916a7eacd68ea09b",
            "type": "ADD_SNIPPET",
            "codeSnippet": "onClickCardsMenu();",
            "callbackType": null
        }]
    }
}