{
    "AS_FlexContainer_i6486c54c9bb41d0a39b155deee1b96d": {
        "id": "AS_FlexContainer_i6486c54c9bb41d0a39b155deee1b96d",
        "type": "ACTION_SEQUENCE",
        "params": [{
            "datatype": "collection",
            "name": "eventobject"
        }],
        "contextObj": {
            "name": "frmAccountsLandingKA",
            "type": "forms",
            "platform": "",
            "KUID": "d62a2a0906c64d2281addc95893a6544"
        },
        "language": "js",
        "actions": [{
            "id": "ADD_SNIPPET__hebb6c1626234eabb150a2e0a166a4ed",
            "type": "ADD_SNIPPET",
            "codeSnippet": "startChatbotAfterLogin(custid , true);\nfrmAccountsLandingKA.flxIconMove1.left = \"43%\";\nfrmAccountsLandingKA.flxIconMove1.top = \"77%\";",
            "parentId": null,
            "callbackType": null
        }]
    }
}