{
    "AS_Form_i702cc9893124605b7e3f53f4fb55058": {
        "id": "AS_Form_i702cc9893124605b7e3f53f4fb55058",
        "type": "ACTION_SEQUENCE",
        "params": [{
            "datatype": "collection",
            "name": "eventobject"
        }],
        "contextObj": {
            "name": "frmUserSettingsSIRILIMIT",
            "type": "forms",
            "platform": "",
            "KUID": "e8e992dba246412297f92c7dbab9e67e"
        },
        "language": "js",
        "actions": [{
            "id": "ADD_SNIPPET__ac3274cc3e38447ab621864218e2d4f9",
            "type": "ADD_SNIPPET",
            "codeSnippet": "if(siriTransactionLimit!= \"\" && siriTransactionLimit!== null && siriTransactionLimit!== undefined){\n  frmUserSettingsSIRILIMIT.txtEmail1.text  = siriTransactionLimit;\n  animateLabel(\"UP\",\"lblEmail1\",siriTransactionLimit);\n}",
            "parentId": null,
            "callbackType": null
        }]
    }
}