{
    "AS_FlexContainer_j6801224b8544ce9bb7a340ed45cdf53": {
        "id": "AS_FlexContainer_j6801224b8544ce9bb7a340ed45cdf53",
        "type": "ACTION_SEQUENCE",
        "params": [{
            "datatype": "collection",
            "name": "eventobject"
        }],
        "language": "js",
        "actions": [{
            "id": "INVOKE_FUNCTION__ide_onClick_e713eb598ec245299d5097cd3339a54e",
            "type": "INVOKE_FUNCTION",
            "display": "accountInfoSorting",
            "inputparams": [],
            "callbackType": null,
            "disabled": null,
            "source": "module"
        }]
    }
}