{
    "AS_FlexContainer_ab85f7dde07e4bd4bc0e885d805d1e41": {
        "id": "AS_FlexContainer_ab85f7dde07e4bd4bc0e885d805d1e41",
        "type": "ACTION_SEQUENCE",
        "name": "AS_FlexContainer_accountTransferSwitchOn",
        "params": [{
            "datatype": "collection",
            "name": "eventobject"
        }],
        "contextObj": {
            "name": "frmEditAccountSettings",
            "type": "forms",
            "platform": "",
            "KUID": "ace74a42ca5e45cabde3f7b9d6361bd8"
        },
        "language": "js",
        "actions": [{
            "id": "ADD_SNIPPET__ha5e73fe9b4446efb278f20672a14370",
            "type": "ADD_SNIPPET",
            "codeSnippet": "frmEditAccountSettings.flxAccountTransferSwitchOff.isVisible = true;\nfrmEditAccountSettings.flxAccountTransferSwitchOn.isVisible = false;",
            "parentId": null,
            "callbackType": null
        }]
    }
}