{
    "AS_Form_c9853a7691544471b6e60ba9aeb069e7": {
        "id": "AS_Form_c9853a7691544471b6e60ba9aeb069e7",
        "type": "ACTION_SEQUENCE",
        "params": [{
            "datatype": "collection",
            "name": "eventobject"
        }],
        "contextObj": {
            "type": "forms",
            "platform": null,
            "KUID": "fac0b15f864c4fd5a691cfc1a6b71c33"
        },
        "language": "js",
        "actions": [{
            "id": "ADD_SNIPPET_ide_onDeviceBack_d57bcdb9d6c2493a8da1c83f0fde6452",
            "type": "ADD_SNIPPET",
            "codeSnippet": "kony.print(\"Device Back\");",
            "callbackType": null
        }]
    }
}