{
    "AS_Form_ca304034e0a24dab9d1c3470ae721674": {
        "id": "AS_Form_ca304034e0a24dab9d1c3470ae721674",
        "type": "ACTION_SEQUENCE",
        "params": [{
            "datatype": "collection",
            "name": "eventobject"
        }],
        "contextObj": {
            "name": "frmSelectBankName",
            "type": "forms",
            "platform": null,
            "KUID": "c2d9b967cf1c4963b04c284e17237946"
        },
        "language": "js",
        "actions": [{
            "id": "ADD_SNIPPET__b53674bafdb54f3789542ef9a3fd05dc",
            "type": "ADD_SNIPPET",
            "codeSnippet": "if(kony.boj.detailsForBene.lblToUpdate === \"lblBranchName\")\n  frmSelectBankName.lblTitle.text = geti18Value(\"i18n.Map.Branchname\");\nelse if(kony.boj.detailsForBene.lblToUpdate === \"lblCountryNameKA\")\n  frmSelectBankName.lblTitle.text = geti18Value(\"i18n.NUO.Country\");\nelse if(kony.boj.detailsForBene.lblToUpdate === \"lblCityName\" || kony.boj.detailsForBene.lblToUpdate === \"lblCityBank\")\n  frmSelectBankName.lblTitle.text = geti18Value(\"i18n.manage_payee.cityPlh\");\nelse if(kony.boj.detailsForBene.lblToUpdate === \"lblBankBranch\")\n  frmSelectBankName.lblTitle.text = geti18Value(\"i18n.Bene.BankBranch\");\nelse if(kony.boj.detailsForBene.lblToUpdate === \"lblBankName\")\n  frmSelectBankName.lblTitle.text = geti18Value(\"i18n.Bene.Bankname\");\n\nfrmSelectBankName.tbxSearch.text = \"\";",
            "parentId": null,
            "callbackType": null
        }]
    }
}