{
    "AS_FlexContainer_f0926e15a576454999e01b168518623f": {
        "id": "AS_FlexContainer_f0926e15a576454999e01b168518623f",
        "type": "ACTION_SEQUENCE",
        "params": [{
            "datatype": "collection",
            "name": "eventobject"
        }],
        "language": "js",
        "actions": [{
            "id": "ADD_SNIPPET_ide_onClick_e19c5120ebec47c5a40c69b75c5601cf",
            "type": "ADD_SNIPPET",
            "codeSnippet": "//Omar Alnajjar Open deposits\nif (frmOpenTermDeposit.flxConfirmDeposite.isVisible ===true)\n  {\n    frmOpenTermDeposit.flxDepositSelection.setVisibility(true);\n    frmOpenTermDeposit.flxConfirmDeposite.setVisibility(false);\n    frmOpenTermDeposit.btnNextDeposite.setVisibility(true);\n  }else{\n    customAlertPopup(geti18Value(\"i18n.cards.Confirmation\"), \n                 geti18Value(\"i18n.transfers.eraseAllAlert\"),\n                 onCLickYesBackOpenDeposits, popupCommonAlertDimiss, \n                 geti18Value(\"i18n.common.YES\"),\n                 geti18Value(\"i18n.common.NO\"));\n  }\n\n",
            "callbackType": null
        }]
    }
}