{
    "AS_FlexContainer_hf2dc7a3db2a437abdeb59f2679b3629": {
        "id": "AS_FlexContainer_hf2dc7a3db2a437abdeb59f2679b3629",
        "type": "ACTION_SEQUENCE",
        "params": [{
            "datatype": "collection",
            "name": "eventobject"
        }],
        "contextObj": {
            "name": "tabBarMore",
            "type": "templates",
            "platform": "",
            "KUID": "e0d5ae1d0532432d997d5a7ffbec8f48"
        },
        "language": "js",
        "actions": [{
            "id": "ADD_SNIPPET__b92717e6e141401a82d422186020849b",
            "type": "ADD_SNIPPET",
            "codeSnippet": "var currentForm = kony.application.getCurrentForm();\nkony.chatbots.bot.showBotSplash(currentForm);",
            "parentId": null,
            "callbackType": null
        }]
    }
}