{
    "AS_Form_a4382862c43a4e98a50eaf98a61306c7": {
        "id": "AS_Form_a4382862c43a4e98a50eaf98a61306c7",
        "type": "ACTION_SEQUENCE",
        "name": "AS_Form_onDeviceBackFrmShowAllBeneficiary",
        "params": [{
            "datatype": "collection",
            "name": "eventobject"
        }],
        "contextObj": {
            "name": "frmShowAllBeneficiary",
            "type": "forms",
            "platform": "",
            "KUID": "da135140bfd946caa325afeee19e7e04"
        },
        "language": "js",
        "actions": [{
            "id": "ADD_SNIPPET__be2c9f67204c4191a1f4e4d8e52320ac",
            "type": "ADD_SNIPPET",
            "codeSnippet": "gblLaunchModeOBJ.lauchMode = false;\nfrmPaymentDashboard.show();",
            "parentId": null,
            "callbackType": null
        }]
    }
}