{
    "AS_FlexContainer_a75f8586152144609787d25b0b8af3bd": {
        "id": "AS_FlexContainer_a75f8586152144609787d25b0b8af3bd",
        "type": "ACTION_SEQUENCE",
        "params": [{
            "datatype": "collection",
            "name": "eventobject"
        }],
        "language": "js",
        "actions": [{
            "id": "ADD_SNIPPET_ide_onClick_ad5176448ea944edb3df76128026bfa8",
            "type": "ADD_SNIPPET",
            "codeSnippet": "////Omar ALnajjar 23/02/2021 R2P\ngblWorkflowType = \"IPSR2P\";\nkony.boj.showSelectedDetailsFromBene(\"ReasonRequest\", \"lblReason\");\nvalidateRequestBtn();",
            "callbackType": null
        }]
    }
}