{
    "AS_FlexContainer_j64953fe81cd486a94b81c03ebfd6aa8": {
        "id": "AS_FlexContainer_j64953fe81cd486a94b81c03ebfd6aa8",
        "type": "ACTION_SEQUENCE",
        "params": [{
            "datatype": "collection",
            "name": "eventobject"
        }],
        "language": "js",
        "actions": [{
            "id": "ADD_SNIPPET_ide_onClick_j45d051a199d427e845b248a739234ff",
            "type": "ADD_SNIPPET",
            "codeSnippet": "//Omar Alnajjar 23/02/2021 R2P\ngblWorkflowType = \"IPSR2PBanks\";\nkony.boj.showSelectedDetailsFromBene(\"BankDetail\", \"lblBankName\");\nvalidateRequestBtn();",
            "callbackType": null
        }]
    }
}