{
    "AS_FlexContainer_fdf977484fac4bae83f19cf0dbdea5c8": {
        "id": "AS_FlexContainer_fdf977484fac4bae83f19cf0dbdea5c8",
        "type": "ACTION_SEQUENCE",
        "params": [{
            "datatype": "collection",
            "name": "eventobject"
        }],
        "language": "js",
        "actions": [{
            "id": "INVOKE_FUNCTION__ide_onClick_e1c5e090112a4f3099500228376b3f5e",
            "type": "INVOKE_FUNCTION",
            "display": "accountInfoSorting",
            "inputparams": [],
            "callbackType": null,
            "disabled": null,
            "source": "module"
        }]
    }
}