{
    "AS_FlexScrollContainer_i618ecb98e1c4a56a964534cad4ae235": {
        "id": "AS_FlexScrollContainer_i618ecb98e1c4a56a964534cad4ae235",
        "type": "ACTION_SEQUENCE",
        "params": [{
            "datatype": "collection",
            "name": "eventobject"
        }],
        "language": "js",
        "actions": [{
            "id": "ADD_SNIPPET_ide_onScrollEnd_e6494ee41fe44daab59349b27d6eb4e8",
            "type": "ADD_SNIPPET",
            "codeSnippet": "innerDoneScrolling();",
            "callbackType": null
        }]
    }
}