{
    "AS_Form_g8eafbd494224811b1dd897d98fd2558": {
        "id": "AS_Form_g8eafbd494224811b1dd897d98fd2558",
        "type": "ACTION_SEQUENCE",
        "params": [{
            "datatype": "collection",
            "name": "eventobject"
        }],
        "contextObj": {
            "name": "frmUserSettingsSIRILIMIT",
            "type": "forms",
            "platform": null,
            "KUID": "e8e992dba246412297f92c7dbab9e67e"
        },
        "language": "js",
        "actions": [{
            "id": "ADD_SNIPPET__fbfd3f2a83a044e1ba0f5f1e904d5c0b",
            "type": "ADD_SNIPPET",
            "codeSnippet": "if(siriTransactionLimit!= \"\" && siriTransactionLimit!== null && siriTransactionLimit!== undefined){\n  frmUserSettingsSIRILIMIT.txtEmail1.text  = siriTransactionLimit;\n  animateLabel(\"UP\",\"lblEmail1\",siriTransactionLimit);\n}",
            "parentId": null,
            "callbackType": null
        }]
    }
}