{
    "AS_FlexContainer_d89955c9bd8b4438afbaf7c5a6a2cdf1": {
        "id": "AS_FlexContainer_d89955c9bd8b4438afbaf7c5a6a2cdf1",
        "type": "ACTION_SEQUENCE",
        "params": [{
            "datatype": "collection",
            "name": "eventobject"
        }],
        "contextObj": {
            "name": "frmRecentTransactionDetailsKA",
            "type": "forms",
            "platform": "",
            "KUID": "3e75bf63a2d4443486447188bb14c36b"
        },
        "language": "js",
        "actions": [{
            "id": "ADD_SNIPPET__h04b983b31aa45d583c8e233b315f065",
            "type": "ADD_SNIPPET",
            "codeSnippet": "alertBankCall(\"dispute\");",
            "parentId": null,
            "callbackType": null
        }]
    }
}