{
    "AS_FlexContainer_e8f88c465078434daef0c5f105dc4ea9": {
        "id": "AS_FlexContainer_e8f88c465078434daef0c5f105dc4ea9",
        "type": "ACTION_SEQUENCE",
        "params": [{
            "datatype": "collection",
            "name": "eventobject"
        }],
        "contextObj": {
            "name": "frmLoginKA",
            "type": "forms",
            "platform": "",
            "KUID": "7b1aa8fceb6b4070833e9eab879b0e5e"
        },
        "language": "js",
        "actions": [{
            "id": "ADD_SNIPPET__751b26adf94243d6827edccbe29ebc05",
            "type": "ADD_SNIPPET",
            "codeSnippet": "touchLoginShow();",
            "parentId": null,
            "callbackType": null
        }]
    }
}