{
    "AS_FlexContainer_jea830080b6b4c8193723e9b4bd13e08": {
        "id": "AS_FlexContainer_jea830080b6b4c8193723e9b4bd13e08",
        "type": "ACTION_SEQUENCE",
        "params": [{
            "datatype": "collection",
            "name": "eventobject"
        }],
        "contextObj": {
            "name": "frmNewSubAccountLandingNew",
            "type": "forms",
            "platform": null,
            "KUID": "i277bc3c8d71465085f48b35ef80c31b"
        },
        "language": "js",
        "actions": [{
            "id": "ADD_SNIPPET__a2c41ed4db194d0cbc288255503db30a",
            "type": "ADD_SNIPPET",
            "codeSnippet": "gblsubacclist=\"Curr\";\nfrmAccountType.show();",
            "parentId": null,
            "callbackType": null
        }]
    }
}