{
    "AS_FlexContainer_c1aec131492547bcb02fd6b2fddfc0be": {
        "id": "AS_FlexContainer_c1aec131492547bcb02fd6b2fddfc0be",
        "type": "ACTION_SEQUENCE",
        "params": [{
            "datatype": "collection",
            "name": "eventobject"
        }],
        "language": "js",
        "actions": [{
            "id": "ADD_SNIPPET_ide_onClick_dcbe69f02b5941b3bd0ff91e0924316e",
            "type": "ADD_SNIPPET",
            "codeSnippet": "if(frmAuthorizationAlternatives.flxSwitchOff.isVisible === true){\n  frmAuthorizationAlternatives.flxSwitchOn.isVisible = true;\n frmAuthorizationAlternatives.flxSwitchOff.isVisible  = false;\n    \n  //frmAuthorizationAlternatives.flxTransactionPreview.isVisible = true;\n\n}else{\n  frmAuthorizationAlternatives.flxSwitchOff.isVisible  = true;\n  frmAuthorizationAlternatives.flxSwitchOn.isVisible = false;\n   var segLength = frmAuthorizationAlternatives.segAccounts.data.length;\n     var segArray = [];\n  kony.print(\"da---:\"+JSON.stringify(frmAuthorizationAlternatives.segAccounts.data));\n     for(var i = 0; i<segLength;i++){\n       var segData = frmAuthorizationAlternatives.segAccounts.data[i];\n        segData.lblIncommingTick.isVisible = false;\n       segArray.push(segData);\n         }\n   frmAuthorizationAlternatives.segAccounts.setData(segArray);\n  frmAuthorizationAlternatives.flxSwitchTransactionOff.isVisible = true;\n  frmAuthorizationAlternatives.flxSwitchTransactionsOn.isVisible = false;\n}",
            "callbackType": null
        }]
    }
}