{
    "AS_Form_ce69880089804585826dada9ae7dd2a7": {
        "id": "AS_Form_ce69880089804585826dada9ae7dd2a7",
        "type": "ACTION_SEQUENCE",
        "params": [{
            "datatype": "collection",
            "name": "eventobject"
        }],
        "contextObj": {
            "name": "frmLocatorKA",
            "type": "forms",
            "platform": "",
            "KUID": "c471585baa904bb49278190a4437d425"
        },
        "language": "js",
        "actions": [{
            "id": "ADD_SNIPPET__g195198ff5794cd2a175152d0cdd6a5b",
            "type": "ADD_SNIPPET",
            "codeSnippet": "gotoCurrentLocation();",
            "parentId": null,
            "callbackType": null
        }]
    }
}