{
    "AS_Form_gb407d323a6e4489a3af18241ae6dd16": {
        "id": "AS_Form_gb407d323a6e4489a3af18241ae6dd16",
        "type": "ACTION_SEQUENCE",
        "name": "AS_Form_AccountLandingPostShow",
        "params": [{
            "datatype": "collection",
            "name": "eventobject"
        }],
        "contextObj": {
            "name": "frmAccountsLandingKA",
            "type": "forms",
            "platform": "",
            "KUID": "d62a2a0906c64d2281addc95893a6544"
        },
        "language": "js",
        "actions": [{
            "id": "ADD_SNIPPET__e4da92df3c0c47ff984f6bb42a326163",
            "type": "ADD_SNIPPET",
            "codeSnippet": "var INSTANCE =kony.sdk.mvvm.KonyApplicationContext.getAppInstance();\nkony.sdk.mvvm.initApplicationForms(INSTANCE);",
            "parentId": null,
            "callbackType": null
        }]
    }
}