{
    "AS_FlexContainer_ifc8d24bbf9347bd8cc8ccd3408498e0": {
        "id": "AS_FlexContainer_ifc8d24bbf9347bd8cc8ccd3408498e0",
        "type": "ACTION_SEQUENCE",
        "params": [{
            "datatype": "collection",
            "name": "eventobject"
        }],
        "language": "js",
        "actions": [{
            "id": "ADD_SNIPPET_ide_onClick_a7c7c135d90046e28e96a233aed56789",
            "type": "ADD_SNIPPET",
            "codeSnippet": "//Omar Alnajjar \nfrmNewSubAccountLandingNew.lblFre.text = geti18Value(\"i18n.common.accountType\");\nfrmNewSubAccountLandingNew.lblCurr.text = geti18Value(\"i18n.common.currencyType\");\nfrmNewSubAccountLandingNew.lblAccDesc.text =\"\";     \nfrmNewSubAccountLandingNew.flxAccDesc.setVisibility(false);\nfrmNewSubAccountLandingNew.flxISaverSub.setVisibility(false);\nfrmSettingsKA.show();\n\n\n",
            "callbackType": null
        }]
    }
}