{
    "AS_Image_e86e58383d2240458812eff8f022dc53": {
        "id": "AS_Image_e86e58383d2240458812eff8f022dc53",
        "type": "ACTION_SEQUENCE",
        "params": [{
            "datatype": "collection",
            "name": "eventobject"
        }, {
            "datatype": "string",
            "name": "x"
        }, {
            "datatype": "string",
            "name": "y"
        }],
        "contextObj": {
            "type": "forms",
            "platform": "",
            "KUID": "b4870a6da63f4ff881da0234729a0f4e"
        },
        "language": "js",
        "actions": [{
            "id": "ADD_SNIPPET__bac66cedc4964fba9a8de75138dcbeaa",
            "type": "ADD_SNIPPET",
            "codeSnippet": "kony.print(\"Deleted\");",
            "parentId": null,
            "callbackType": null
        }]
    }
}