{
    "AS_Label_b7ac4285daf9433bb3ca53053684dd84": {
        "id": "AS_Label_b7ac4285daf9433bb3ca53053684dd84",
        "type": "ACTION_SEQUENCE",
        "params": [{
            "datatype": "collection",
            "name": "eventobject"
        }, {
            "datatype": "string",
            "name": "x"
        }, {
            "datatype": "string",
            "name": "y"
        }],
        "contextObj": {
            "name": "frmAccountDetailKA",
            "type": "forms",
            "platform": "",
            "KUID": "5ed703cad63c441882fc4a36f5ea0c28"
        },
        "language": "js",
        "actions": [{
            "id": "ADD_SNIPPET__d6dc9864d4764718ad05c93e494ed375",
            "type": "ADD_SNIPPET",
            "codeSnippet": "frmAccountDetailKA.flxDealsScreen.setVisibility(false);\nfrmAccountDetailKA.flxLoansScreen.setVisibility(false);\nfrmAccountDetailKA.accountDetailsScrollContainer.setVisibility(true);\nfrmAccountDetailKA.accountDetailsScrollContainer.left=\"0%\";",
            "parentId": null,
            "callbackType": null
        }]
    }
}