{
    "AS_Label_ca15ab7ee5ec46e4933ff822910be070": {
        "id": "AS_Label_ca15ab7ee5ec46e4933ff822910be070",
        "type": "ACTION_SEQUENCE",
        "params": [{
            "datatype": "collection",
            "name": "eventobject"
        }, {
            "datatype": "string",
            "name": "x"
        }, {
            "datatype": "string",
            "name": "y"
        }],
        "language": "js",
        "actions": [{
            "id": "ADD_SNIPPET_ide_onTouchEnd_a780772686244b28966e9818fad00635",
            "type": "ADD_SNIPPET",
            "codeSnippet": "customAlertPopup(geti18Value(\"i18n.cards.Confirmation\"), \n                   geti18Value(\"i18n.Transfer.cancelTra\"),\n                   onClickYesClose, onClickNoClose, \n                   geti18Value(\"i18n.login.continue\"),\n                   geti18Value(\"i18n.common.cancel\"));\n\nfunction onClickYesClose(){\n  popupCommonAlertDimiss();\n  removeDatafrmTransfersform();\n  makeInlineErrorsTransfersInvisible();\n  frmPaymentDashboard.show();;\n}\n\nfunction onClickNoClose(){\n  popupCommonAlertDimiss();\n}",
            "callbackType": null
        }]
    }
}