{
    "AS_Label_i9f003872a30478889ba36d275dd336f": {
        "id": "AS_Label_i9f003872a30478889ba36d275dd336f",
        "type": "ACTION_SEQUENCE",
        "params": [{
            "datatype": "collection",
            "name": "eventobject"
        }, {
            "datatype": "string",
            "name": "x"
        }, {
            "datatype": "string",
            "name": "y"
        }],
        "language": "js",
        "actions": [{
            "id": "ADD_SNIPPET_ide_onTouchEnd_c033bb506daf45e09f2437281c35ad22",
            "type": "ADD_SNIPPET",
            "codeSnippet": "open_SOCIALMEDIA(YOUTUBE);"
        }]
    }
}