{
    "AS_Label_i239b1551a444d51bb873749a0442bc7": {
        "id": "AS_Label_i239b1551a444d51bb873749a0442bc7",
        "type": "ACTION_SEQUENCE",
        "params": [{
            "datatype": "collection",
            "name": "eventobject"
        }, {
            "datatype": "string",
            "name": "x"
        }, {
            "datatype": "string",
            "name": "y"
        }],
        "language": "js",
        "actions": [{
            "id": "ADD_SNIPPET_ide_onTouchEnd_ja0bc70851614549a19aac27339d1eaf",
            "type": "ADD_SNIPPET",
            "codeSnippet": "customAlertPopup(geti18Value(\"i18n.cards.Confirmation\"), \n                   geti18Value(\"i18n.common.sureExit\"),\n                   onClickYesCloseChange, onClickNoCloseChange, \n                   geti18Value(\"i18n.login.continue\"),\n                   geti18Value(\"i18n.common.cancel\"));\n\nfunction onClickYesCloseChange(){\n  popupCommonAlertDimiss();\n  frmSettingsKA.show();\n}\n\nfunction onClickNoCloseChange(){\n  popupCommonAlertDimiss();\n}",
            "callbackType": null
        }]
    }
}