{
    "AS_ListBox_5c1571c2482e4986ba3165fc7fd9d035": {
        "id": "AS_ListBox_5c1571c2482e4986ba3165fc7fd9d035",
        "type": "ACTION_SEQUENCE",
        "params": [{
            "datatype": "collection",
            "name": "eventobject"
        }],
        "contextObj": {
            "type": "forms",
            "platform": "",
            "KUID": "400a0ee97eb04e5897318084b1271b8a"
        },
        "language": "js",
        "actions": [{
            "id": "ADD_SNIPPET__ac9c509987a9448086e272c6f269f975",
            "type": "ADD_SNIPPET",
            "codeSnippet": "onlbxDateRangeSelected();",
            "parentId": null,
            "callbackType": null
        }]
    }
}