{
    "AS_Label_jcfe37bfebc04436b763afc4280752d9": {
        "id": "AS_Label_jcfe37bfebc04436b763afc4280752d9",
        "type": "ACTION_SEQUENCE",
        "params": [{
            "datatype": "collection",
            "name": "eventobject"
        }, {
            "datatype": "string",
            "name": "x"
        }, {
            "datatype": "string",
            "name": "y"
        }],
        "language": "js",
        "actions": [{
            "id": "ADD_SNIPPET_ide_onTouchEnd_a5c10179e7b141b599f310d2820db1dc",
            "type": "ADD_SNIPPET",
            "codeSnippet": "//Omar Alnajjar Open deposits\n  if (frmOpenTermDeposit.lblRememCheckBox.text === \"q\") {\n      frmOpenTermDeposit.lblRememCheckBox.text = \"p\";\n    } else {\n      frmOpenTermDeposit.lblRememCheckBox.text = \"q\";\n    }\ncheckNextOpenDeposite();",
            "callbackType": null
        }]
    }
}