{
    "AS_Label_ced6cebfacef4e58bf3f80ad9d3a5920": {
        "id": "AS_Label_ced6cebfacef4e58bf3f80ad9d3a5920",
        "type": "ACTION_SEQUENCE",
        "params": [{
            "datatype": "collection",
            "name": "eventobject"
        }, {
            "datatype": "string",
            "name": "x"
        }, {
            "datatype": "string",
            "name": "y"
        }],
        "language": "js",
        "actions": [{
            "id": "ADD_SNIPPET_ide_onTouchEnd_i8c12977cf41431885e9d401bfc2bc76",
            "type": "ADD_SNIPPET",
            "codeSnippet": "backspace(\"txtCardNum\");\nisNextEnabled();",
            "callbackType": null
        }]
    }
}