{
    "AS_Label_hda45388a1bd47908056b2af5da55c2d": {
        "id": "AS_Label_hda45388a1bd47908056b2af5da55c2d",
        "type": "ACTION_SEQUENCE",
        "name": "AS_Label_OnEndTouchChekcBoxAddFavAddBeneIPS",
        "params": [{
            "datatype": "collection",
            "name": "eventobject"
        }, {
            "datatype": "string",
            "name": "x"
        }, {
            "datatype": "string",
            "name": "y"
        }],
        "contextObj": {
            "name": "frmAddBeneIPS",
            "type": "forms",
            "platform": "",
            "KUID": "a35178106a8e4b51b5fbcf004feff063"
        },
        "language": "js",
        "actions": [{
            "id": "ADD_SNIPPET__af962218f4ea426ebc30b848bdfeba0b",
            "type": "ADD_SNIPPET",
            "codeSnippet": "if (frmAddBeneIPS.lblCkbFav.text===\"q\")\n    frmAddBeneIPS.lblCkbFav.text=\"p\";\nelse if (frmAddBeneIPS.lblCkbFav.text===\"p\")\n    frmAddBeneIPS.lblCkbFav.text=\"q\";",
            "parentId": null,
            "callbackType": null
        }]
    }
}