{
    "AS_FlexContainer_e3c758ac24614fa5b96be4da8cd50438": {
        "id": "AS_FlexContainer_e3c758ac24614fa5b96be4da8cd50438",
        "type": "ACTION_SEQUENCE",
        "name": "AS_OnclickBackOfCardsSettingsPref",
        "params": [{
            "datatype": "collection",
            "name": "eventobject"
        }],
        "contextObj": {
            "name": "frmCardsListPreferences",
            "type": "forms",
            "platform": null,
            "KUID": "gbc93386725a4f228cae50ca2122b7bb"
        },
        "language": "js",
        "actions": [{
            "id": "ADD_SNIPPET_ide_onClick_g7750b9be9ae4aa79770810a25903402",
            "type": "ADD_SNIPPET",
            "codeSnippet": "gblCardReorder = false;\ngblCardAddNickname = false;\nfrmSettingsKA.show();",
            "callbackType": null
        }]
    }
}