{
    "AS_Button_df94a69747984767a235f83f6cad5cef": {
        "id": "AS_Button_df94a69747984767a235f83f6cad5cef",
        "type": "ACTION_SEQUENCE",
        "name": "AS_onDeviceRegisterYesClick",
        "params": [{
            "datatype": "collection",
            "name": "eventobject"
        }],
        "contextObj": {
            "name": "frmDeviceRegistrationOptionsKA",
            "type": "forms",
            "platform": "",
            "KUID": "24f3bbc2ed074c75a9b6604d9e48a90c"
        },
        "language": "js",
        "actions": [{
            "id": "ADD_SNIPPET__iddc3efd4ade4e43b82c227637144fb0",
            "type": "ADD_SNIPPET",
            "codeSnippet": "ShowLoadingScreen();\nkony.store.setItem(\"isDeviceRegisteredMandatory\", true);\nregisterPush();",
            "parentId": null,
            "callbackType": null
        }]
    }
}