{
    "AS_FlexContainer_cf7372c1662a4101aa72788b7dc046d5": {
        "id": "AS_FlexContainer_cf7372c1662a4101aa72788b7dc046d5",
        "type": "ACTION_SEQUENCE",
        "name": "AS_onBackManagePayee",
        "params": [{
            "datatype": "collection",
            "name": "eventobject"
        }],
        "language": "js",
        "actions": [{
            "id": "ADD_SNIPPET_ide_onClick_f8881c0867974686b1fef3e391ecd67f",
            "type": "ADD_SNIPPET",
            "codeSnippet": "frmAccountsLandingKA.show();",
            "callbackType": null
        }]
    }
}