{
    "AS_FlexContainer_g26c512b8d3a441cbc0b00a95a9ea25b": {
        "id": "AS_FlexContainer_g26c512b8d3a441cbc0b00a95a9ea25b",
        "type": "ACTION_SEQUENCE",
        "name": "AS_onClickServiceTypeAddBiller",
        "params": [{
            "datatype": "collection",
            "name": "eventobject"
        }],
        "contextObj": {
            "name": "frmAddNewPayeeKA",
            "type": "forms",
            "platform": "",
            "KUID": "22b994296d374ff48427012b2b05feb7"
        },
        "language": "js",
        "actions": [{
            "id": "ADD_SNIPPET__abfc590049af43358011a1df764e2377",
            "type": "ADD_SNIPPET",
            "codeSnippet": "if(JSON.stringify(kony.boj.Biller[kony.boj.selectedBillerType].selectedBiller) == '{}'){\n  frmAddNewPayeeKA.flxUnderlineServiceType.skin = \"sknFlxOrangeLine\";\n  frmAddNewPayeeKA.flxUnderlineBillerName.skin = \"sknFlxOrangeLine\";\n  if(JSON.stringify(kony.boj.Biller[kony.boj.selectedBillerType].selectedBillerCategory) == '{}')\n    frmAddNewPayeeKA.flxUnderlineBillerCategory.skin = \"sknFlxOrangeLine\";\n}\nelse{\n  if(kony.boj.selectedBillerType === \"PostPaid\")\n    kony.boj.callService(\"GetEfwServiceType\");\n  else\n    kony.boj.callService(\"GetPPServiceType\");\n}",
            "parentId": null,
            "callbackType": null
        }]
    }
}