{
    "AS_FlexContainer_d2461ce347684a128aae6c81311a8dba": {
        "id": "AS_FlexContainer_d2461ce347684a128aae6c81311a8dba",
        "type": "ACTION_SEQUENCE",
        "name": "AS_onclickNextRequestStatementtoConfirm",
        "params": [{
            "datatype": "collection",
            "name": "eventobject"
        }],
        "language": "js",
        "actions": [{
            "id": "ADD_SNIPPET_ide_onClick_caca94ffe46749a5b6d39409debd4b96",
            "type": "ADD_SNIPPET",
            "codeSnippet": "nextToConfirmofRequestStaement();",
            "callbackType": null
        }]
    }
}