{
    "AS_FlexContainer_jaa81199f6ab4fc894ee06ea90e3416d": {
        "id": "AS_FlexContainer_jaa81199f6ab4fc894ee06ea90e3416d",
        "type": "ACTION_SEQUENCE",
        "name": "AS_OnclickNumberofCheckLeaves",
        "params": [{
            "datatype": "collection",
            "name": "eventobject"
        }],
        "language": "js",
        "actions": [{
            "id": "ADD_SNIPPET_ide_onClick_bba95efe157c40eb9d6531d94486a69d",
            "type": "ADD_SNIPPET",
            "codeSnippet": "gblsubacclist=\"Leaves\";\nfrmAccountType.show();",
            "callbackType": null
        }]
    }
}