{
    "AS_FlexContainer_ec02ef75e4d6471ba1c9abd51592900d": {
        "id": "AS_FlexContainer_ec02ef75e4d6471ba1c9abd51592900d",
        "type": "ACTION_SEQUENCE",
        "name": "AS_onclickbackfrmrequestStatus",
        "params": [{
            "datatype": "collection",
            "name": "eventobject"
        }],
        "language": "js",
        "actions": [{
            "id": "ADD_SNIPPET_ide_onClick_e7060ab8f54b4f29b496962de34b508d",
            "type": "ADD_SNIPPET",
            "codeSnippet": "frmMore.show();",
            "callbackType": null
        }]
    }
}