{
    "AS_Button_g4b4c584593b4dd19631a1fa2a8ed272": {
        "id": "AS_Button_g4b4c584593b4dd19631a1fa2a8ed272",
        "type": "ACTION_SEQUENCE",
        "name": "AS_onClickFavSegment",
        "params": [{
            "datatype": "collection",
            "name": "eventobject"
        }, {
            "datatype": "collection",
            "name": "context"
        }],
        "contextObj": {
            "name": "segShowAcc",
            "type": "templates",
            "platform": "",
            "KUID": "c795aaa82a6f432cbc2e70d251355a55"
        },
        "language": "js",
        "actions": [{
            "id": "ADD_SNIPPET__bc5c46ada222443bb8853ffdee3dafb7",
            "type": "ADD_SNIPPET",
            "codeSnippet": "kony.boj.changeFavTag(frmShowAllBeneficiary.segAllBeneficiary.selectedRowItems[0]);",
            "parentId": null,
            "callbackType": null
        }]
    }
}