{
    "AS_Label_ef9b03e39df748ff8610232ad085c6e1": {
        "id": "AS_Label_ef9b03e39df748ff8610232ad085c6e1",
        "type": "ACTION_SEQUENCE",
        "name": "AS_onNextAddNewPayee",
        "params": [{
            "datatype": "collection",
            "name": "eventobject"
        }, {
            "datatype": "string",
            "name": "x"
        }, {
            "datatype": "string",
            "name": "y"
        }],
        "contextObj": {
            "name": "frmAddNewPayeeKA",
            "type": "forms",
            "platform": "",
            "KUID": "22b994296d374ff48427012b2b05feb7"
        },
        "language": "js",
        "actions": [{
            "id": "ADD_SNIPPET__a620fc3ee6fa470a809865710f1cc3c8",
            "type": "ADD_SNIPPET",
            "codeSnippet": "if(frmAddNewPayeeKA.lblNext.skin === \"sknLblNextEnabled\"){\n  if(kony.boj.isNextEnabledBiller()){\n    if(kony.boj.isBillerRegistered())\n      customAlertPopup(geti18Value(\"i18n.common.AlreadyRegistered\"), geti18Value(\"i18n.bills.BillerAlreadyRegistered\"),popupCommonAlertDimiss,\"\");\n    else\n      kony.boj.onClickNextAddBiller();\n  }\n}",
            "parentId": null,
            "callbackType": null
        }]
    }
}