{
    "AS_TextField_e0640ce8d53a4635ae41178a91d95fb7": {
        "id": "AS_TextField_e0640ce8d53a4635ae41178a91d95fb7",
        "type": "ACTION_SEQUENCE",
        "name": "AS_onEndEditingDescI",
        "params": [{
            "datatype": "collection",
            "name": "eventobject"
        }, {
            "datatype": "string",
            "name": "changedtext"
        }],
        "contextObj": {
            "name": "frmNewTransferKA",
            "type": "forms",
            "platform": "",
            "KUID": "2ac343500306428da0ceef91a3b44d18"
        },
        "language": "js",
        "actions": [{
            "id": "ADD_SNIPPET__d89bce7e3a164fc1a6e0af1462112005",
            "type": "ADD_SNIPPET",
            "codeSnippet": "animateLabel(\"DOWN\",\"lblDescription\",frmNewTransferKA.txtDesc.text);",
            "parentId": null,
            "callbackType": null
        }]
    }
}