{
    "AS_Button_c086d93cdede428a96b66c6dcd18fba4": {
        "id": "AS_Button_c086d93cdede428a96b66c6dcd18fba4",
        "type": "ACTION_SEQUENCE",
        "name": "AS_onClickPayNowPayeeDetail",
        "params": [{
            "datatype": "collection",
            "name": "eventobject"
        }],
        "contextObj": {
            "name": "frmPayeeDetailsKA",
            "type": "forms",
            "platform": "",
            "KUID": "eee6ed64af6148fd817b4b732ba55ecc"
        },
        "language": "js",
        "actions": [{
            "id": "ADD_SNIPPET__bfb86ea6bf234de99aced07971c49ca7",
            "type": "ADD_SNIPPET",
            "codeSnippet": "kony.boj.selectedBillerType = \"PostPaid\";\nif(kony.boj.selectedBillerType === \"PostPaid\")\n  gblQuickFlow = \"post\";\nelse\n  gblQuickFlow = \"pre\";\ngetBillDetailsPostpaidBills();\nfrmBills.flxConversionAmt.setVisibility(false);\nfrmBills.lblPaymentMode.skin = \"sknLblNextDisabled\";\nclearfrmBills();",
            "parentId": null,
            "callbackType": null
        }]
    }
}