{
    "AS_TextField_b1c4c6e280d64e92a169c41c1668ce00": {
        "id": "AS_TextField_b1c4c6e280d64e92a169c41c1668ce00",
        "type": "ACTION_SEQUENCE",
        "name": "AS_onEndEditingNickNameAddBilleriOS",
        "params": [{
            "datatype": "collection",
            "name": "eventobject"
        }, {
            "datatype": "string",
            "name": "changedtext"
        }],
        "contextObj": {
            "name": "frmAddNewPayeeKA",
            "type": "forms",
            "platform": "",
            "KUID": "22b994296d374ff48427012b2b05feb7"
        },
        "language": "js",
        "actions": [{
            "id": "ADD_SNIPPET__d0c62a9317304704a424beaa8d62d20c",
            "type": "ADD_SNIPPET",
            "codeSnippet": "animateLabel(\"DOWN\", \"lblNickName\",frmAddNewPayeeKA.tbxNickName.text);",
            "parentId": null,
            "callbackType": null
        }]
    }
}