{
    "AS_Button_df69320aef2d4221b035b01aa5725562": {
        "id": "AS_Button_df69320aef2d4221b035b01aa5725562",
        "type": "ACTION_SEQUENCE",
        "name": "AS_onSearchClickShowBene",
        "params": [{
            "datatype": "collection",
            "name": "eventobject"
        }],
        "contextObj": {
            "name": "frmShowAllBeneficiary",
            "type": "forms",
            "platform": "",
            "KUID": "da135140bfd946caa325afeee19e7e04"
        },
        "language": "js",
        "actions": [{
            "id": "ADD_SNIPPET__jf19b9737f74472988f9438333c6c1f2",
            "type": "ADD_SNIPPET",
            "codeSnippet": "frmShowAllBeneficiary.flxSearch.isVisible = true;\nfrmShowAllBeneficiary.tbxSearch.setFocus = true;",
            "parentId": null,
            "callbackType": null
        }]
    }
}