{
    "AS_TextField_hd08637a92704382bc172bfa93b94880": {
        "id": "AS_TextField_hd08637a92704382bc172bfa93b94880",
        "type": "ACTION_SEQUENCE",
        "name": "AS_onEndEditingDescI2",
        "params": [{
            "datatype": "collection",
            "name": "eventobject"
        }, {
            "datatype": "string",
            "name": "changedtext"
        }],
        "contextObj": {
            "name": "frmNewTransferKA",
            "type": "forms",
            "platform": "",
            "KUID": "2ac343500306428da0ceef91a3b44d18"
        },
        "language": "js",
        "actions": [{
            "id": "ADD_SNIPPET__i098391e03594a8aa2f136f1e5a15449",
            "type": "ADD_SNIPPET",
            "codeSnippet": "animateLabel(\"DOWN\",\"lblDescription\",frmNewTransferKA.txtDesc.text);",
            "parentId": null,
            "callbackType": null
        }]
    }
}