{
    "AS_Switch_85f7d997c96e40dd8d663c3b0cb5b889": {
        "id": "AS_Switch_85f7d997c96e40dd8d663c3b0cb5b889",
        "type": "ACTION_SEQUENCE",
        "params": [{
            "datatype": "collection",
            "name": "eventobject"
        }],
        "language": "js",
        "actions": [{
            "id": "ADD_SNIPPET_ide_onSlide_01f6bcb85af746349dea8a487ea57c1c",
            "type": "ADD_SNIPPET",
            "codeSnippet": "updateDealsAlertStatus(\"dealExpiring\");",
            "callbackType": null
        }]
    }
}