{
    "AS_Segment_627c6523c8d74d34acdef09badc22022": {
        "id": "AS_Segment_627c6523c8d74d34acdef09badc22022",
        "type": "ACTION_SEQUENCE",
        "params": [{
            "datatype": "collection",
            "name": "eventobject"
        }, {
            "datatype": "number",
            "name": "sectionNumber"
        }, {
            "datatype": "number",
            "name": "rowNumber"
        }],
        "language": "js",
        "actions": [{
            "id": "ADD_SNIPPET_ide_onRowClick_164c03cc347944ca946ba1f667f92188",
            "type": "ADD_SNIPPET",
            "codeSnippet": "var index = getSegInternalAccountsKARecordClick(\"segInternalTOAccountsKA\",\"frmNewTransferKA\",frmNewTransferKA, \"to\");\nsetContainerState(frmNewTransferKA,\"to\",\"ANIMATION_COLLAPSE\", defaultCardHeight);\nunSelectSameAccount();",
            "callbackType": null
        }]
    }
}