{
    "AS_Segment_2f9345b1df6d430fbbc588597751482d": {
        "id": "AS_Segment_2f9345b1df6d430fbbc588597751482d",
        "type": "ACTION_SEQUENCE",
        "params": [{
            "datatype": "collection",
            "name": "eventobject"
        }, {
            "datatype": "number",
            "name": "sectionNumber"
        }, {
            "datatype": "number",
            "name": "rowNumber"
        }],
        "contextObj": {
            "type": "forms",
            "platform": "",
            "KUID": "ac09c32a534449b3b0961f8e48e26015"
        },
        "language": "js",
        "actions": [{
            "id": "ADD_SNIPPET__590dbaa134c34dccabcc52166e7ead58",
            "type": "ADD_SNIPPET",
            "codeSnippet": "from = \"search\";",
            "parentId": null,
            "callbackType": null
        }, {
            "id": "NAVIGATE_TO_FORM___6ac65dedc3104646b607b466e1825533",
            "type": "NAVIGATE_TO_FORM",
            "formId": "frmRecentTransactionDetailsKA",
            "formKUID": "3e75bf63a2d4443486447188bb14c36b",
            "mappings": {},
            "mappingsOrder": [],
            "parentId": "",
            "callbackType": null,
            "enableMappingEditor": true,
            "package": "",
            "navigationObj": "{\n    \"_meta_\": {\n        \"eventName\": \"\",\n        \"widgetId\": \"\"\n    }\n}",
            "isCustomInput": false
        }]
    }
}