{
    "AS_Segment_a21c67d617754b63a0ea0dc27bd88bdd": {
        "id": "AS_Segment_a21c67d617754b63a0ea0dc27bd88bdd",
        "type": "ACTION_SEQUENCE",
        "params": [{
            "datatype": "collection",
            "name": "eventobject"
        }, {
            "datatype": "number",
            "name": "sectionNumber"
        }, {
            "datatype": "number",
            "name": "rowNumber"
        }],
        "language": "js",
        "actions": [{
            "id": "ADD_SNIPPET_ide_onRowClick_1a53f3dfb06b4f948b3774f4b1872df7",
            "type": "ADD_SNIPPET",
            "codeSnippet": "onclicksegmentPay(\"to\");\npopulatePayeeTo();",
            "callbackType": null
        }]
    }
}