{
    "AS_Segment_69c361501bd44c2ea617a3d4a3cdf3b3": {
        "id": "AS_Segment_69c361501bd44c2ea617a3d4a3cdf3b3",
        "type": "ACTION_SEQUENCE",
        "params": [{
            "datatype": "collection",
            "name": "eventobject"
        }, {
            "datatype": "number",
            "name": "sectionNumber"
        }, {
            "datatype": "number",
            "name": "rowNumber"
        }],
        "language": "js",
        "actions": [{
            "id": "ADD_SNIPPET_ide_onRowClick_f721c549ae474f869b5d4c62fc4070d3",
            "type": "ADD_SNIPPET",
            "codeSnippet": "kony.print(\"Deleted\");",
            "callbackType": null
        }]
    }
}