{
    "AS_Segment_c6d599ed963a456cb8415a2275a35bb8": {
        "id": "AS_Segment_c6d599ed963a456cb8415a2275a35bb8",
        "type": "ACTION_SEQUENCE",
        "params": [{
            "datatype": "collection",
            "name": "eventobject"
        }, {
            "datatype": "string",
            "name": "x"
        }, {
            "datatype": "string",
            "name": "y"
        }],
        "contextObj": {
            "name": "frmChatBots",
            "type": "forms",
            "platform": "",
            "KUID": "a5c82996d9864c6482f65cfffe81fda4"
        },
        "language": "js",
        "actions": [{
            "id": "ADD_SNIPPET__a447d9fff39940deaa0ad0b52766d7ff",
            "type": "ADD_SNIPPET",
            "codeSnippet": "if (Object.keys(swipedIndices).length > 0) {\n        animationObj = getTransAnimDefinition(\"0%\");\n        coords = [];\n        frmChatBots.segBotUser.animateRows({\n            rows: [{\n                sectionIndex: swipedIndices[\"secIndex\"],\n                rowIndex: swipedIndices[\"rowIndex\"]\n            }],\n            widgets: [\"flxBotUserSwipe\"],\n            animation: animationObj\n        });\n        swipedIndices = {};\n    }",
            "parentId": null,
            "callbackType": null
        }]
    }
}