{
    "AS_Segment_552bf130769c4cf5954c857c6c782b6d": {
        "id": "AS_Segment_552bf130769c4cf5954c857c6c782b6d",
        "type": "ACTION_SEQUENCE",
        "params": [{
            "datatype": "collection",
            "name": "eventobject"
        }, {
            "datatype": "number",
            "name": "sectionNumber"
        }, {
            "datatype": "number",
            "name": "rowNumber"
        }],
        "contextObj": {
            "name": "frmSearchResultsKA",
            "type": "forms",
            "platform": "",
            "KUID": "c0c324792a474a0fb5c1fbb09304b98a"
        },
        "language": "js",
        "actions": [{
            "id": "ADD_SNIPPET__93f11b704b36435abc2b6e6aa1560296",
            "type": "ADD_SNIPPET",
            "codeSnippet": "navigateToSearchTransactionDetails();",
            "parentId": null,
            "callbackType": null
        }]
    }
}