{
    "AS_Segment_fa23aae0c06f495e96438d055103c7c5": {
        "id": "AS_Segment_fa23aae0c06f495e96438d055103c7c5",
        "type": "ACTION_SEQUENCE",
        "name": "AS_Segment_DealsRowClick",
        "params": [{
            "datatype": "collection",
            "name": "eventobject"
        }, {
            "datatype": "number",
            "name": "sectionNumber"
        }, {
            "datatype": "number",
            "name": "rowNumber"
        }],
        "language": "js",
        "actions": [{
            "id": "ADD_SNIPPET_ide_onRowClick_a64ff7d385bd4307aac6f345863206c5",
            "type": "ADD_SNIPPET",
            "codeSnippet": "kony.print(\"Perf Log: Deposits Details page form - start\");\n    var INSTANCE = kony.sdk.mvvm.KonyApplicationContext.getAppInstance();\n    var listController = INSTANCE.getFormController(\"frmAccountsLandingKA\");\n    listController.performAction(\"navigateToAccountsDetails\");",
            "callbackType": null,
            "disabled": true
        }, {
            "id": "INVOKE_FUNCTION___af48ecb36aaf45718cc1cf9be6ffe943",
            "type": "INVOKE_FUNCTION",
            "sequenceKUID": "onrowclickDashboard",
            "display": "onrowclickDashboard",
            "inputparams": [{
                "name": "data"
            }, {
                "name": "section"
            }, {
                "name": "row"
            }],
            "parentId": null,
            "disabled": true,
            "source": "module"
        }]
    }
}