{
    "AS_Segment_c17e11cd2302476da458afa4236f361e": {
        "id": "AS_Segment_c17e11cd2302476da458afa4236f361e",
        "type": "ACTION_SEQUENCE",
        "params": [{
            "datatype": "collection",
            "name": "eventobject"
        }, {
            "datatype": "number",
            "name": "sectionNumber"
        }, {
            "datatype": "number",
            "name": "rowNumber"
        }],
        "language": "js",
        "actions": [{
            "id": "ADD_SNIPPET_ide_onRowClick_d36e7872c9274f7aa53bff1d23acfedc",
            "type": "ADD_SNIPPET",
            "codeSnippet": "accountInfoEditPopup();",
            "callbackType": null
        }]
    }
}