{
    "AS_Switch_c5dec90428ce4b03b1b89813599e4dfa": {
        "id": "AS_Switch_c5dec90428ce4b03b1b89813599e4dfa",
        "type": "ACTION_SEQUENCE",
        "params": [{
            "datatype": "collection",
            "name": "eventobject"
        }],
        "language": "js",
        "actions": [{
            "id": "ADD_SNIPPET_ide_onSlide_4a81519f3a1b451faf4d567486239fa6",
            "type": "ADD_SNIPPET",
            "codeSnippet": "selectCheckNumbers();",
            "callbackType": null
        }]
    }
}