{
    "AS_TextField_bbda995544a54b028734549a89352363": {
        "id": "AS_TextField_bbda995544a54b028734549a89352363",
        "type": "ACTION_SEQUENCE",
        "name": "AS_TextField_OnDoneTextAliasNameEPSScreen",
        "params": [{
            "datatype": "collection",
            "name": "eventobject"
        }, {
            "datatype": "string",
            "name": "changedtext"
        }],
        "language": "js",
        "actions": [{
            "id": "ADD_SNIPPET_ide_onDone_acffb66b15f64c3a8382c018a3ec4ffd",
            "type": "ADD_SNIPPET",
            "codeSnippet": "var gblAliasType = null;\nkony.sdk.mvvm.KonyApplicationContext.showLoadingScreen(\"\");\ngblAliasType = frmEPS.txtAliasName.text;\nGetAliasInfo(gblAliasType);\n\n// var gblAliasType = null;\n// kony.sdk.mvvm.KonyApplicationContext.showLoadingScreen(\"\");\n// gblAliasType = frmEPS.txtAliasName.text;\n// GetAliasInfo(gblAliasType);\n\n// animateLabel(\"UP\", \"lblAmountAlias\",frmEPS.lblAmountAlias.text);\n// animateLabel(\"UP\", \"lblIBANAlias\",frmEPS.lblIBANAlias.text);\n// animateLabel(\"UP\", \"lblAliasAdress\",frmEPS.lblAliasAdress.text);\n// animateLabel(\"UP\", \"lblAliasBank\",frmEPS.lblAliasBank.text);",
            "callbackType": null
        }]
    }
}