{
    "AS_TextField_ce344326a9c648d6af36ea44d5b4e070": {
        "id": "AS_TextField_ce344326a9c648d6af36ea44d5b4e070",
        "type": "ACTION_SEQUENCE",
        "params": [{
            "datatype": "collection",
            "name": "eventobject"
        }, {
            "datatype": "string",
            "name": "changedtext"
        }],
        "language": "js",
        "actions": [{
            "id": "ADD_SNIPPET_ide_onTextChange_he47f6cc3d1548ed97a6d67b0dffa05a",
            "type": "ADD_SNIPPET",
            "codeSnippet": "if(new RegExp(/[^A-Za-z0-9\\s]/g).test(frmJOMOPayAddBiller.txtBeneficiaryAlias.text)){\n\tfrmJOMOPayAddBiller.flxBorderAlias.skin = \"skntextFieldDividerOrange\";\n}else{\n\tfrmJOMOPayAddBiller.flxBorderAlias.skin = \"skntextFieldDividerGreen\";\n}"
        }]
    }
}