{
    "AS_TextField_g8eca4cb6b774d1ea7fc5614e89db38a": {
        "id": "AS_TextField_g8eca4cb6b774d1ea7fc5614e89db38a",
        "type": "ACTION_SEQUENCE",
        "params": [{
            "datatype": "collection",
            "name": "eventobject"
        }, {
            "datatype": "string",
            "name": "changedtext"
        }],
        "contextObj": {
            "name": "frmConfirmCashWithDraw",
            "type": "forms",
            "platform": "",
            "KUID": "b2e7c11eabab44839d19ed317b9260fc"
        },
        "language": "js",
        "actions": [{
            "id": "ADD_SNIPPET__e0010995f89341f6bf947c0ce6623721",
            "type": "ADD_SNIPPET",
            "codeSnippet": "var vc=new kony.rb.frmConfirmCashWithdrawViewController();\nvc.resetSkins();",
            "parentId": null,
            "callbackType": null
        }]
    }
}