{
    "AS_TextField_c4c6dd93d86b415a9e3da61aa04279fe": {
        "id": "AS_TextField_c4c6dd93d86b415a9e3da61aa04279fe",
        "type": "ACTION_SEQUENCE",
        "name": "AS_TextField_OnBeginEditingIBANAddBeneIPS",
        "params": [{
            "datatype": "collection",
            "name": "eventobject"
        }, {
            "datatype": "string",
            "name": "changedtext"
        }],
        "contextObj": {
            "name": "frmAddBeneIPS",
            "type": "forms",
            "platform": "",
            "KUID": "a35178106a8e4b51b5fbcf004feff063"
        },
        "language": "js",
        "actions": [{
            "id": "ADD_SNIPPET__fc21c38d7bb34aeea262ebce23903a05",
            "type": "ADD_SNIPPET",
            "codeSnippet": "animateLabel(\"UP\", \"lblIBANTitle\",frmAddBeneIPS.txtIBAN.text);",
            "parentId": null,
            "callbackType": null
        }]
    }
}