{
    "AS_TextField_ee5516b2217d488282c3f21b9d61c9cc": {
        "id": "AS_TextField_ee5516b2217d488282c3f21b9d61c9cc",
        "type": "ACTION_SEQUENCE",
        "params": [{
            "datatype": "collection",
            "name": "eventobject"
        }, {
            "datatype": "string",
            "name": "changedtext"
        }],
        "contextObj": {
            "name": "frmDepositCalculator",
            "type": "forms",
            "platform": null,
            "KUID": "aa2708d3508242c288bdd127be610cde"
        },
        "language": "js",
        "actions": [{
            "id": "ADD_SNIPPET_ide_onEndEditing_e3804aaaf5364df996af0c4ccfdcca40",
            "type": "ADD_SNIPPET",
            "codeSnippet": "//amountFieldCheck();\ncallRateService(false);\ncheckNextOpenDeposite();",
            "callbackType": null
        }]
    }
}