{
    "AS_TextField_f409d0756343460da3b6da35b7840df6": {
        "id": "AS_TextField_f409d0756343460da3b6da35b7840df6",
        "type": "ACTION_SEQUENCE",
        "params": [{
            "datatype": "collection",
            "name": "eventobject"
        }, {
            "datatype": "string",
            "name": "changedtext"
        }],
        "language": "js",
        "actions": [{
            "id": "ADD_SNIPPET_ide_onDone_i95b98430db84ad082dd705f16ab3511",
            "type": "ADD_SNIPPET",
            "codeSnippet": "var gblAliasType = null;\nkony.sdk.mvvm.KonyApplicationContext.showLoadingScreen(\"\");\ngblAliasType = frmEPS.txtAliasName.text;\nGetAliasInfo(gblAliasType);\n\n// var gblAliasType = null;\n// kony.sdk.mvvm.KonyApplicationContext.showLoadingScreen(\"\");\n// gblAliasType = frmEPS.txtAliasName.text;\n// GetAliasInfo(gblAliasType);\n\n// animateLabel(\"UP\", \"lblAmountAlias\",frmEPS.lblAmountAlias.text);\n// animateLabel(\"UP\", \"lblIBANAlias\",frmEPS.lblIBANAlias.text);\n// animateLabel(\"UP\", \"lblAliasAdress\",frmEPS.lblAliasAdress.text);\n// animateLabel(\"UP\", \"lblAliasBank\",frmEPS.lblAliasBank.text);",
            "callbackType": null
        }]
    }
}