{
    "AS_TextField_j7ca6ca9def74e00b5fb5dddccc0c1c0": {
        "id": "AS_TextField_j7ca6ca9def74e00b5fb5dddccc0c1c0",
        "type": "ACTION_SEQUENCE",
        "params": [{
            "datatype": "collection",
            "name": "eventobject"
        }, {
            "datatype": "string",
            "name": "changedtext"
        }],
        "language": "js",
        "actions": [{
            "id": "ADD_SNIPPET_ide_onBeginEditing_i2f1bb9fbb6441d48d07cee14bb89806",
            "type": "ADD_SNIPPET",
            "codeSnippet": "try{\n  frmEstatementLandingKA.borderBottom1.skin=\"skntextFieldDividerBlue\";\n}catch(err){\n  kony.print( \"err in pwd::\"+err);\n}",
            "callbackType": null
        }]
    }
}