{
    "AS_TextField_c2324ef48b4e4258b2547b41e15dcb56": {
        "id": "AS_TextField_c2324ef48b4e4258b2547b41e15dcb56",
        "type": "ACTION_SEQUENCE",
        "name": "AS_TextField_OnEndEditingTxtAddressAddBene",
        "params": [{
            "datatype": "collection",
            "name": "eventobject"
        }, {
            "datatype": "string",
            "name": "changedtext"
        }],
        "language": "js",
        "actions": [{
            "id": "ADD_SNIPPET_ide_onEndEditing_c737dca84b554d2082a6dbee74aa3458",
            "type": "ADD_SNIPPET",
            "codeSnippet": "animateLabel(\"DOWN\", \"lblAddressTitle\",frmAddBeneIPS.txtAddress.text);",
            "callbackType": null
        }]
    }
}