{
    "AS_TextField_45fdfb34cd674c2b8fa32ae94abe1ae8": {
        "id": "AS_TextField_45fdfb34cd674c2b8fa32ae94abe1ae8",
        "type": "ACTION_SEQUENCE",
        "params": [{
            "datatype": "collection",
            "name": "eventobject"
        }, {
            "datatype": "string",
            "name": "changedtext"
        }],
        "contextObj": {
            "type": "forms",
            "platform": "",
            "KUID": "3ef26f9acd5b475cb1fdad0f87db5781"
        },
        "language": "js",
        "actions": [{
            "id": "ADD_SNIPPET__dbe31c71c4364e72a49d627f4f14ea2e",
            "type": "ADD_SNIPPET",
            "codeSnippet": "onDoneAmountEntered();"
        }]
    }
}