{
    "AS_TextField_270cf7c0fb57415eb2e29688ddcc9155": {
        "id": "AS_TextField_270cf7c0fb57415eb2e29688ddcc9155",
        "type": "ACTION_SEQUENCE",
        "params": [{
            "datatype": "collection",
            "name": "eventobject"
        }, {
            "datatype": "string",
            "name": "changedtext"
        }],
        "contextObj": {
            "name": "frmNewTransferKA",
            "type": "forms",
            "platform": "",
            "KUID": "2ac343500306428da0ceef91a3b44d18"
        },
        "language": "js",
        "actions": [{
            "id": "ADD_SNIPPET__dc9fad6ed2c84b0e802b171cfc22c0ce",
            "type": "ADD_SNIPPET",
            "codeSnippet": "RecurringChanges(\"6\");",
            "parentId": null,
            "callbackType": null
        }]
    }
}