{
    "AS_TextField_d27216603cb44c74b629742b9ecee144": {
        "id": "AS_TextField_d27216603cb44c74b629742b9ecee144",
        "type": "ACTION_SEQUENCE",
        "params": [{
            "datatype": "collection",
            "name": "eventobject"
        }, {
            "datatype": "string",
            "name": "changedtext"
        }],
        "language": "js",
        "actions": [{
            "id": "ADD_SNIPPET_ide_onEndEditing_bf2973f4b2f34650b1ded890c069076a",
            "type": "ADD_SNIPPET",
            "codeSnippet": "kony.print(\"onEndEditing\");\n// amountFieldCheck();\ncallRateService(false);\ncheckNextOpenDeposite();"
        }]
    }
}