{
    "AS_TextField_ac714b94f11d449084c84019bf0e886b": {
        "id": "AS_TextField_ac714b94f11d449084c84019bf0e886b",
        "type": "ACTION_SEQUENCE",
        "name": "AS_TextField_OnEditingEndIphoneAliasNameEPS",
        "params": [{
            "datatype": "collection",
            "name": "eventobject"
        }, {
            "datatype": "string",
            "name": "changedtext"
        }],
        "contextObj": {
            "name": "frmEPS",
            "type": "forms",
            "platform": "",
            "KUID": "c49bbb3175be499d86d933cee301b3c4"
        },
        "language": "js",
        "actions": [{
            "id": "ADD_SNIPPET__ea507d1546954833a7db9f42ecb0d7cf",
            "type": "ADD_SNIPPET",
            "codeSnippet": "animateLabel(\"DOWN\",\"lblAliasName\",frmEPS.txtAliasName.text);\n",
            "parentId": null,
            "callbackType": null
        }]
    }
}