{
    "AS_TextField_g1830748e2024325b54c53287d6dc4a5": {
        "id": "AS_TextField_g1830748e2024325b54c53287d6dc4a5",
        "type": "ACTION_SEQUENCE",
        "params": [{
            "datatype": "collection",
            "name": "eventobject"
        }, {
            "datatype": "string",
            "name": "changedtext"
        }],
        "contextObj": {
            "name": "frmDepositCalculator",
            "type": "forms",
            "platform": null,
            "KUID": "aa2708d3508242c288bdd127be610cde"
        },
        "language": "js",
        "actions": [{
            "id": "ADD_SNIPPET_ide_onBeginEditing_b578c425e43343a09d15c5a1acaa4630",
            "type": "ADD_SNIPPET",
            "codeSnippet": "animate_NEWCARDSOPTIOS(\"UP\",\"lblDepositAmountTitle\",frmOpenTermDeposit.txtDepositAmount.text);\namountFieldCheck();",
            "callbackType": null
        }]
    }
}