{
    "AS_TextField_dcb1725a46c442709d805915942fa487": {
        "id": "AS_TextField_dcb1725a46c442709d805915942fa487",
        "type": "ACTION_SEQUENCE",
        "params": [{
            "datatype": "collection",
            "name": "eventobject"
        }, {
            "datatype": "string",
            "name": "changedtext"
        }],
        "language": "js",
        "actions": [{
            "id": "INVOKE_FUNCTION__ide_onDone_f4c6098516a04bf48ba31cd55ea2816d",
            "type": "INVOKE_FUNCTION",
            "display": "check_AmountDecimal",
            "inputparams": [],
            "callbackType": null,
            "disabled": null,
            "source": "module"
        }]
    }
}