{
    "AS_TextField_c613f21d254c4b598643f6bd704a3cd0": {
        "id": "AS_TextField_c613f21d254c4b598643f6bd704a3cd0",
        "type": "ACTION_SEQUENCE",
        "name": "AS_TextField_OnBeginEditingBankNameAddBeneIPSAndroid",
        "params": [{
            "datatype": "collection",
            "name": "eventobject"
        }, {
            "datatype": "string",
            "name": "changedtext"
        }],
        "contextObj": {
            "name": "frmAddBeneIPS",
            "type": "forms",
            "platform": "",
            "KUID": "a35178106a8e4b51b5fbcf004feff063"
        },
        "language": "js",
        "actions": [{
            "id": "ADD_SNIPPET__c49e7568bc8e457f9b3b46bd20006e2d",
            "type": "ADD_SNIPPET",
            "codeSnippet": "animateLabel(\"UP\", \"lblBankNameTitle\",frmAddBeneIPS.txtBankName.text);",
            "parentId": null,
            "callbackType": null
        }]
    }
}