{
    "AS_TextField_b06356003d614bb8a28e7166e48104ed": {
        "id": "AS_TextField_b06356003d614bb8a28e7166e48104ed",
        "type": "ACTION_SEQUENCE",
        "params": [{
            "datatype": "collection",
            "name": "eventobject"
        }, {
            "datatype": "string",
            "name": "changedtext"
        }],
        "language": "js",
        "actions": [{
            "id": "ADD_SNIPPET_ide_onTextChange_aac0d50bbd2240c6a94ffe1f020f961b",
            "type": "ADD_SNIPPET",
            "codeSnippet": "//Omar ALnajjar Open deposits\n// amountFieldCheck();\n//callRateService(false);\nif (frmOpenTermDeposit.txtDepositAmount.text < 10000 && frmOpenTermDeposit.lblDepositCurrency.text === \"JOD\")\n  {\n    frmOpenTermDeposit.lblMinUSD.setVisibility(false);\n    frmOpenTermDeposit.lblMinJOD.setVisibility(true);\n    frmOpenTermDeposit.flxBorderDepositAmount.skin=\"skntextFieldDividerOrange\";\n    frmOpenTermDeposit.lblInterestRate.text = \"0.000\";\n  }\nelse if(frmOpenTermDeposit.txtDepositAmount.text < 15000 && frmOpenTermDeposit.lblDepositCurrency.text !== \"JOD\")    \n  {\n    frmOpenTermDeposit.lblMinJOD.setVisibility(false);\n    frmOpenTermDeposit.lblMinUSD.setVisibility(true);\n    frmOpenTermDeposit.flxBorderDepositAmount.skin=\"skntextFieldDividerOrange\";\n    frmOpenTermDeposit.lblInterestRate.text = \"0.000\";\n  }\nelse\n  {\n    if (frmOpenTermDeposit.lblDepositCurrency.text === \"JOD\"){\n      frmOpenTermDeposit.lblMinJOD.setVisibility(true);\n      frmOpenTermDeposit.lblMinUSD.setVisibility(false);\n    }\n    else{\n      frmOpenTermDeposit.lblMinJOD.setVisibility(false);\n      frmOpenTermDeposit.lblMinUSD.setVisibility(true);\n    }\n//     frmOpenTermDeposit.lblMinJOD.setVisibility(false);\n//     frmOpenTermDeposit.lblMinUSD.setVisibility(false);\n    frmOpenTermDeposit.flxBorderDepositAmount.skin=\"skntextFieldDividerGreen\";\n    callRateService(false);\n  }\ncheckNextOpenDeposite();",
            "callbackType": null
        }]
    }
}