{
    "AS_TextField_e286e2c0112f48a8bfdb8a664fe2f20a": {
        "id": "AS_TextField_e286e2c0112f48a8bfdb8a664fe2f20a",
        "type": "ACTION_SEQUENCE",
        "params": [{
            "datatype": "collection",
            "name": "eventobject"
        }, {
            "datatype": "string",
            "name": "changedtext"
        }],
        "language": "js",
        "actions": [{
            "id": "ADD_SNIPPET_ide_onTextChange_bb18b318881d4261abba1dbe92ce1261",
            "type": "ADD_SNIPPET",
            "codeSnippet": "onTextChangeScanCard();",
            "callbackType": null
        }]
    }
}