{
    "AS_TextField_e5e766781e794cb59276fe5ccc3538f9": {
        "id": "AS_TextField_e5e766781e794cb59276fe5ccc3538f9",
        "type": "ACTION_SEQUENCE",
        "name": "AS_TextField_OnEndEditingIBANAdeeBeneIPSAndroid",
        "params": [{
            "datatype": "collection",
            "name": "eventobject"
        }, {
            "datatype": "string",
            "name": "changedtext"
        }],
        "contextObj": {
            "name": "frmAddBeneIPS",
            "type": "forms",
            "platform": "",
            "KUID": "a35178106a8e4b51b5fbcf004feff063"
        },
        "language": "js",
        "actions": [{
            "id": "ADD_SNIPPET__dd35e3404e214e2c9b9f938518408d6b",
            "type": "ADD_SNIPPET",
            "codeSnippet": "animateLabel(\"DOWN\", \"lblIBANTitle\",frmAddBeneIPS.txtIBAN.text);",
            "parentId": null,
            "callbackType": null
        }]
    }
}