{
    "AS_TextField_i6d08563f4b2428982004c91e2b35547": {
        "id": "AS_TextField_i6d08563f4b2428982004c91e2b35547",
        "type": "ACTION_SEQUENCE",
        "name": "AS_TextField_OnBeginEditingAliasMobileAddBeneIPSIphone",
        "params": [{
            "datatype": "collection",
            "name": "eventobject"
        }, {
            "datatype": "string",
            "name": "changedtext"
        }],
        "contextObj": {
            "name": "frmAddBeneIPS",
            "type": "forms",
            "platform": "",
            "KUID": "a35178106a8e4b51b5fbcf004feff063"
        },
        "language": "js",
        "actions": [{
            "id": "ADD_SNIPPET__fc55f3dd81d4441b8a65515f1b878752",
            "type": "ADD_SNIPPET",
            "codeSnippet": "animateLabel(\"UP\", \"lblAliasMobTitle\",frmAddBeneIPS.txtAliasMob.text);",
            "parentId": null,
            "callbackType": null
        }]
    }
}