{
    "AS_TextField_d2216a865ff4434d879a39095b6080c3": {
        "id": "AS_TextField_d2216a865ff4434d879a39095b6080c3",
        "type": "ACTION_SEQUENCE",
        "params": [{
            "datatype": "collection",
            "name": "eventobject"
        }, {
            "datatype": "string",
            "name": "changedtext"
        }],
        "contextObj": {
            "name": "frmLanguageChange",
            "type": "forms",
            "platform": "",
            "KUID": "gf87c4f80b864112b53423e6a7ad3af8"
        },
        "language": "js",
        "actions": [{
            "id": "ADD_SNIPPET_ide_onBeginEditing_e88da6fa08a1462690cab8985416be16",
            "type": "ADD_SNIPPET",
            "codeSnippet": "frmLanguageChange.borderBottom.skin=\"skntextFieldDividerBlue\";\n//animateLabel(\"UP\",\"lblUserName\",frmLoginKA.tbxusernameTextField.text);",
            "callbackType": null
        }]
    }
}