{
    "AS_TextField_bfefbf93cee7403484d4067035bdadb2": {
        "id": "AS_TextField_bfefbf93cee7403484d4067035bdadb2",
        "type": "ACTION_SEQUENCE",
        "name": "AS_TextField_bOnEndEditingAndroidBankNameAddBene",
        "params": [{
            "datatype": "collection",
            "name": "eventobject"
        }, {
            "datatype": "string",
            "name": "changedtext"
        }],
        "language": "js",
        "actions": [{
            "id": "ADD_SNIPPET_ide_onEndEditing_a15c26defca74d7183e548d2677986a9",
            "type": "ADD_SNIPPET",
            "codeSnippet": "animateLabel(\"DOWN\", \"lblBankNameTitle\",frmAddBeneIPS.txtBankName.text);",
            "callbackType": null
        }]
    }
}