{
    "AS_TextField_e750f47621e948919436cfe7c00a5d9a": {
        "id": "AS_TextField_e750f47621e948919436cfe7c00a5d9a",
        "type": "ACTION_SEQUENCE",
        "params": [{
            "datatype": "collection",
            "name": "eventobject"
        }, {
            "datatype": "string",
            "name": "changedtext"
        }],
        "language": "js",
        "actions": [{
            "id": "ADD_SNIPPET_ide_onEndEditing_g429b25e524048179a8a69ddb589a8b4",
            "type": "ADD_SNIPPET",
            "codeSnippet": "//amountFieldCheck();\ncallRateService(false);\ncheckNextOpenDeposite();",
            "callbackType": null
        }]
    }
}