{
    "AS_Button_b1b05dfe71934e42be864052fa1ba1ad": {
        "id": "AS_Button_b1b05dfe71934e42be864052fa1ba1ad",
        "type": "ACTION_SEQUENCE",
        "name": "backCreditCardNumber",
        "params": [{
            "datatype": "collection",
            "name": "eventobject"
        }],
        "language": "js",
        "actions": [{
            "id": "ADD_SNIPPET_ide_onClick_bca461c27dfb41559209c2f707fe2f03",
            "type": "ADD_SNIPPET",
            "codeSnippet": "frmCreditCardPayment.show();",
            "callbackType": null
        }]
    }
}