{
    "AS_Label_c71cd08657254db5ab3ca89bb1e72c54": {
        "id": "AS_Label_c71cd08657254db5ab3ca89bb1e72c54",
        "type": "ACTION_SEQUENCE",
        "name": "backToaccountDashboardfromAccountDetail",
        "params": [{
            "datatype": "collection",
            "name": "eventobject"
        }, {
            "datatype": "string",
            "name": "x"
        }, {
            "datatype": "string",
            "name": "y"
        }],
        "contextObj": {
            "name": "frmAccountDetailKA",
            "type": "forms",
            "platform": "",
            "KUID": "5ed703cad63c441882fc4a36f5ea0c28"
        },
        "language": "js",
        "actions": [{
            "id": "ADD_SNIPPET__a029e8a98cdd46bda7adab3baaa053ff",
            "type": "ADD_SNIPPET",
            "codeSnippet": "//       frmAccountsLandingKA.flxAccountsMain.setVisibility(true);\n//       frmAccountsLandingKA.flxDeals.setVisibility(false);\n//       frmAccountsLandingKA.flxLoans.setVisibility(false);\n// \t  frmAccountDetailKA.flxSSCInformation.setVisibility(false);\n//       frmAccountsLandingKA.forceLayout();\n//       kony.retailBanking.globalData.globals.accountDashboardFlowFlag = false;\n//       if(frmAccountDetailKA.flxAccountdetailsSortContainer.top != \"100%\"){\n//         animatePopup_Sort();\n//       }\n//       frmAccountDetailKA.imgSortDateAsc.src = \"map_arrow_straight_nonselected.png\";\n//       frmAccountDetailKA.imgSortDateDesc.src = \"map_arrow_down_nonselected.png\";\n//       frmAccountDetailKA.imgSortAmountAsc.src = \"map_arrow_straight_nonselected.png\";\n//       frmAccountDetailKA.imgSortAmountDesc.src = \"map_arrow_down_nonselected.png\";\n//       accountDashboardDataCall();\n//       kony.print(\"Nav transaction to Dadhboard:::\");\n     \n  //Nart Rawashdeh 09/12/2020 <<\n    if (frmAccountDetailKA.flxSSCInformation.isVisible === true) {\n        frmAccountDetailKA.tabsWrapper.setVisibility(true);\n        frmAccountDetailKA.imgDivSett.setVisibility(true);\n        frmAccountDetailKA.flxAccountOptions.setVisibility(true);\n        frmAccountDetailKA.lblBoj.text = geti18Value(\"i18n.accounts.accounts\");\n        frmAccountDetailKA.flxSSCInformation.setVisibility(false);\n        //>>\n    } else {\n        frmAccountsLandingKA.flxAccountsMain.setVisibility(true);\n        frmAccountsLandingKA.flxDeals.setVisibility(false);\n        frmAccountsLandingKA.flxLoans.setVisibility(false);\n        frmAccountsLandingKA.forceLayout();\n        kony.retailBanking.globalData.globals.accountDashboardFlowFlag = false;\n        if (frmAccountDetailKA.flxAccountdetailsSortContainer.top != \"100%\") {\n            animatePopup_Sort();\n        }\n        frmAccountDetailKA.imgSortDateAsc.src = \"map_arrow_straight_nonselected.png\";\n        frmAccountDetailKA.imgSortDateDesc.src = \"map_arrow_down_nonselected.png\";\n        frmAccountDetailKA.imgSortAmountAsc.src = \"map_arrow_straight_nonselected.png\";\n        frmAccountDetailKA.imgSortAmountDesc.src = \"map_arrow_down_nonselected.png\";\n        accountDashboardDataCall();\n        kony.print(\"Nav transaction to Dadhboard:::\");\n    }",
            "parentId": null,
            "callbackType": null
        }]
    }
}