{
    "AS_Label_cd213d43257c4ec98f881f67bd25ad9f": {
        "id": "AS_Label_cd213d43257c4ec98f881f67bd25ad9f",
        "type": "ACTION_SEQUENCE",
        "name": "backToaccountDashboardfromAccountDetailLoans",
        "params": [{
            "datatype": "collection",
            "name": "eventobject"
        }, {
            "datatype": "string",
            "name": "x"
        }, {
            "datatype": "string",
            "name": "y"
        }],
        "contextObj": {
            "name": "frmAccountDetailKA",
            "type": "forms",
            "platform": "",
            "KUID": "5ed703cad63c441882fc4a36f5ea0c28"
        },
        "language": "js",
        "actions": [{
            "id": "ADD_SNIPPET__c217d93aa25d467ba883f55ebb2d937a",
            "type": "ADD_SNIPPET",
            "codeSnippet": "loansAnimation();\nfrmAccountsLandingKA.show();",
            "parentId": null,
            "callbackType": null
        }]
    }
}