{
    "AS_TextField_c72b0b2787d848caae92f8d97a31c0ae": {
        "id": "AS_TextField_c72b0b2787d848caae92f8d97a31c0ae",
        "type": "ACTION_SEQUENCE",
        "name": "beginEdtingIosofPwd",
        "params": [{
            "datatype": "collection",
            "name": "eventobject"
        }, {
            "datatype": "string",
            "name": "changedtext"
        }],
        "contextObj": {
            "name": "frmLoginKA",
            "type": "forms",
            "platform": "",
            "KUID": "7b1aa8fceb6b4070833e9eab879b0e5e"
        },
        "language": "js",
        "actions": [{
            "id": "ADD_SNIPPET__c273ad2458e347cf8ee01d6becb46ab6",
            "type": "ADD_SNIPPET",
            "codeSnippet": "try{\n  frmLoginKA.flxbdrpwd.skin=\"skntextFieldDividerBlue\";\n}catch(err){\n  kony.print( \"err in pwd::\"+err);\n}",
            "parentId": null
        }]
    }
}