{
    "AS_Button_6b9fcdd57f9145a9b4e38255741be7fb": {
        "id": "AS_Button_6b9fcdd57f9145a9b4e38255741be7fb",
        "type": "ACTION_SEQUENCE",
        "name": "btnConfirmOnclickfrmConfirmTransfer",
        "params": [{
            "datatype": "collection",
            "name": "eventobject"
        }],
        "contextObj": {
            "name": "frmConfirmTransferKA",
            "type": "forms",
            "platform": "",
            "KUID": "79e9f0ae27394db6b3b371dc6ca4520b"
        },
        "language": "js",
        "actions": [{
            "id": "ADD_SNIPPET__98d1a7913bd743f5b0ebb2c195637dc6",
            "type": "ADD_SNIPPET",
            "codeSnippet": "kony.print(\"TYPE: \" + gblSelectedBene.benType);\nvar fullNameFlagConfirm = false;\nif (kony.boj.addBeneVar.selectedType === \"BOJ\" || gblTModule === \"own\" || gblTModule === \"web\") {\n  kony.print(\"Do nothing:\");\n  popupCommonAlertDimiss();\n  gblToOTPFrom = \"OwnAccounts\";\n  ShowLoadingScreen();\n  if (gblTModule == \"send\") {\n//Nart Rawashdeh 01/06/2021<<\n    if (gblSelectedBene.benType === \"DTB\" || gblSelectedBene.benType === \"ITB\") {\n      checkFullName();\n      if (fullNameFlagConfirm === true) {\n        if (gblSelectedBene.isFav === \"Y\") {\n          performOwnTransfer();\n        } else {\n          callRequestOTP();\n        }\n      } else {\n        customAlertPopup(geti18Value(\"i18n.Bene.Failed\"), geti18Value(\"i18n.sendMoney.fullNameLengthHintConfirm\"), popupCommonAlertDimiss, \"\");\n      }\n    } else {\n//>>\n      callRequestOTP();\n    }\n  } else performOwnTransfer();\n} else {\n  kony.print(\"Show\");\n  popupCommonAlertDimiss();\n  gblToOTPFrom = \"OwnAccounts\";\n  ShowLoadingScreen();\n  if (gblTModule == \"send\") {\n//Nart Rawashdeh 01/06/2021<<\n    if (gblSelectedBene.benType === \"DTB\" || gblSelectedBene.benType === \"ITB\") {\n      checkFullName();\n      if (fullNameFlagConfirm === true) {\n        if (gblSelectedBene.isFav === \"Y\") {\n          performOwnTransfer();\n        } else {\n          callRequestOTP();\n        }\n      } else {\n        customAlertPopup(geti18Value(\"i18n.Bene.Failed\"), geti18Value(\"i18n.sendMoney.fullNameLengthHintConfirm\"), popupCommonAlertDimiss, \"\");\n      }\n    } else {\n//>>\n      callRequestOTP();\n    }\n  } else performOwnTransfer();\n}\n\nfunction onClickYesConfirm() {\n  popupCommonAlertDimiss();\n  gblToOTPFrom = \"OwnAccounts\";\n  ShowLoadingScreen();\n  if (gblTModule == \"send\") {\n    if (gblSelectedBene.isFav === \"Y\") performOwnTransfer();\n    else callRequestOTP();\n  } else performOwnTransfer();\n}\n\nfunction onClickNoConfirm() {\n  popupCommonAlertDimiss();\n  frmNewTransferKA.show();\n}\n//Nart Rawashdeh 01/06/2021 <<\nfunction checkFullName() {\n  fullNameFlagConfirm = false;\n  var nameSyllablesValidationConfirm = 0;\n  var remainingTextConfirm = frmConfirmTransferKA.lblBenName.text;\n  kony.print(\"remainingTextConfirm :\" + remainingTextConfirm);\n  var spaceCharConfirm = remainingTextConfirm.trim();\n  for (var x = 0; x <= remainingTextConfirm.length + 1; x++) {\n    spaceCharConfirm = remainingTextConfirm.trim();\n    spaceCharConfirm = spaceCharConfirm.search(\" \");\n    if (nameSyllablesValidationConfirm === 2) {\n      fullNameFlagConfirm = true;\n      break;\n    } else if (spaceCharConfirm === -1 && nameSyllablesValidationConfirm !== 2) {\n      fullNameFlagConfirm = false;\n      break;\n    } else {\n      remainingTextConfirm = remainingTextConfirm.substring((spaceCharConfirm + 1), remainingTextConfirm.length);\n      nameSyllablesValidationConfirm++;\n    }\n    kony.print(\"remainingTextConfirm LOOP :\" + remainingTextConfirm);\n    kony.print(\"spaceCharConfirm LOOP :\" + spaceCharConfirm);\n    kony.print(\"nameSyllablesValidationConfirm LOOP : \" + nameSyllablesValidationConfirm);\n    kony.print(\"fullNameFlagConfirm LOOP :\" + fullNameFlagConfirm);\n  }\n  kony.print(\"remainingTextConfirm :\" + remainingTextConfirm);\n  kony.print(\"spaceCharConfirm :\" + spaceCharConfirm);\n  kony.print(\"nameSyllablesValidationConfirm : \" + nameSyllablesValidationConfirm);\n  kony.print(\"fullNameFlagConfirm :\" + fullNameFlagConfirm);\n}\n//>>",
            "parentId": null,
            "callbackType": null
        }]
    }
}