{
    "AS_Form_f84c83bd42114fd79e1977eef0196902": {
        "id": "AS_Form_f84c83bd42114fd79e1977eef0196902",
        "type": "ACTION_SEQUENCE",
        "name": "devBackBillersListForm",
        "params": [{
            "datatype": "collection",
            "name": "eventobject"
        }],
        "contextObj": {
            "name": "frmBillerListForm",
            "type": "forms",
            "platform": "",
            "KUID": "ea8e3b3429354ea892f6614a6a6c11cd"
        },
        "language": "js",
        "actions": [{
            "id": "ADD_SNIPPET__be9c1568e91a48cb81cc87da7730f51a",
            "type": "ADD_SNIPPET",
            "codeSnippet": "var previousForm = kony.application.getPreviousForm();\npreviousForm.show();",
            "parentId": null,
            "callbackType": null
        }]
    }
}