{
    "AS_Form_cff8bea3225f4c3b809878f43085a317": {
        "id": "AS_Form_cff8bea3225f4c3b809878f43085a317",
        "type": "ACTION_SEQUENCE",
        "name": "devicebackdisablingcredit",
        "params": [{
            "datatype": "collection",
            "name": "eventobject"
        }],
        "contextObj": {
            "name": "frmCreditCardPayment",
            "type": "forms",
            "platform": "",
            "KUID": "ifc6e17e00ef473bb51f2718c349cfba"
        },
        "language": "js",
        "actions": [{
            "id": "ADD_SNIPPET__b711aa2d835d40d687c569b3f2945baf",
            "type": "ADD_SNIPPET",
            "codeSnippet": "customAlertPopup(geti18Value(\"i18n.cards.Confirmation\"), geti18nkey(\"i18n.common.sureExit\"), function(){frmPaymentDashboard.show();popupCommonAlertDimiss();}, popupCommonAlertDimiss,geti18nkey(\"i18n.common.YES\"),geti18nkey(\"i18n.common.NO\"));",
            "parentId": null,
            "callbackType": null
        }]
    }
}