{
    "AS_Form_f747875fc5d6411397cfe1d2a0de7775": {
        "id": "AS_Form_f747875fc5d6411397cfe1d2a0de7775",
        "type": "ACTION_SEQUENCE",
        "name": "devicebackdisabledandjomopay",
        "params": [{
            "datatype": "collection",
            "name": "eventobject"
        }],
        "contextObj": {
            "name": "frmJoMoPay",
            "type": "forms",
            "platform": "",
            "KUID": "d41a38dfc97d4e0a8f3b1db96d6a1ca0"
        },
        "language": "js",
        "actions": [{
            "id": "ADD_SNIPPET__g37ce154b7534546948e7bd95ee2dd6d",
            "type": "ADD_SNIPPET",
            "codeSnippet": "frmJoMoPayLanding.txtSearch.text=\"\";\nfrmJoMoPayLanding.show();\nfrmJoMoPay.destroy();",
            "parentId": null,
            "callbackType": null
        }]
    }
}