{
    "AS_Button_hd41c28319c148e8a4810e0fc4dd1439": {
        "id": "AS_Button_hd41c28319c148e8a4810e0fc4dd1439",
        "type": "ACTION_SEQUENCE",
        "name": "didTapR2PByIBAN",
        "params": [{
            "datatype": "collection",
            "name": "eventobject"
        }],
        "contextObj": {
            "type": "forms",
            "platform": "",
            "KUID": "e9e90e2f947842c68f513b51a8dba3c6",
            "name": "frmIPSRequestToPay"
        },
        "language": "js",
        "actions": [{
            "id": "ADD_SNIPPET__i3085a98cdf94408886427d400fe0d19",
            "type": "ADD_SNIPPET",
            "codeSnippet": "//Omar ALnajjar R2P 23/02/2021\nIPSR2POptionButtonsHandler(frmIPSRequestToPay.btnR2PIBAN);",
            "parentId": null,
            "callbackType": null
        }]
    }
}