{
    "AS_Button_h92d5932d1c440f38730b37cde0d4995": {
        "id": "AS_Button_h92d5932d1c440f38730b37cde0d4995",
        "type": "ACTION_SEQUENCE",
        "name": "didTapRTPAccept",
        "params": [{
            "datatype": "collection",
            "name": "eventobject"
        }],
        "contextObj": {
            "name": "frmIPSPendingRTP",
            "type": "forms",
            "platform": "",
            "KUID": "fc1cd3ea7a2a401589dd3ef48e2dc84b"
        },
        "language": "js",
        "actions": [{
            "id": "ADD_SNIPPET__ecf945b936464356809433b638caad16",
            "type": "ADD_SNIPPET",
            "codeSnippet": "//OMar ALnajjar 19/03/2021 RTP\nfrmIPSPendingRTP.flxUnderlineReasonRP.skin = \"sknFlxGreyLine\";\ngblToOTPFrom = \"IPSRtpOTP\";\ncallRequestOTP();",
            "parentId": null,
            "callbackType": null
        }]
    }
}