{
    "AS_Label_c7b957b0c31843eb84b1a1d56f7b282a": {
        "id": "AS_Label_c7b957b0c31843eb84b1a1d56f7b282a",
        "type": "ACTION_SEQUENCE",
        "name": "emptyUserName",
        "params": [{
            "datatype": "collection",
            "name": "eventobject"
        }, {
            "datatype": "string",
            "name": "x"
        }, {
            "datatype": "string",
            "name": "y"
        }],
        "contextObj": {
            "name": "frmInformationKA",
            "type": "forms",
            "platform": "",
            "KUID": "f18169832ba24ba09c8780278abfc207"
        },
        "language": "js",
        "actions": [{
            "id": "ADD_SNIPPET__cd4dfb2ae2b04c7eb10d02dcb66955dc",
            "type": "ADD_SNIPPET",
            "codeSnippet": "switchToFAQDetailsTab();\nfrmInformationKA.flxFAQ.setVisibility(true);\nfrmInformationKA.flxFAQSearch.setVisibility(false);\nfrmInformationKA.searchField.text=\"\";\n",
            "parentId": null,
            "callbackType": null
        }]
    }
}