{
    "AS_Form_c32dc7a986c940f69bc278f83ef6232e": {
        "id": "AS_Form_c32dc7a986c940f69bc278f83ef6232e",
        "type": "ACTION_SEQUENCE",
        "name": "EPS_ReqUestToPay_PreShow",
        "params": [{
            "datatype": "collection",
            "name": "eventobject"
        }],
        "contextObj": {
            "name": "frmEPS",
            "type": "forms",
            "platform": "",
            "KUID": "c49bbb3175be499d86d933cee301b3c4"
        },
        "language": "js",
        "actions": [{
            "id": "ADD_SNIPPET__a5b8b0e406d64d16b358bd34160d4954",
            "type": "ADD_SNIPPET",
            "codeSnippet": "// frmEPS.txtAmountIBAN.keyboardActionLabel=constants.TEXTBOX_KEYBOARD_LABEL_DONE; // Edit by ahmad 12-17-2020\n// frmEPS.txtIBANAlias.keyboardActionLabel=constants.TEXTBOX_KEYBOARD_LABEL_DONE; // Edit by ahmad 12-17-2020\n// frmEPS.txtAddressAlias.keyboardActionLabel=constants.TEXTBOX_KEYBOARD_LABEL_DONE; // Edit by ahmad 12-17-2020\n// frmEPS.txtAmountMob.keyboardActionLabel=constants.TEXTBOX_KEYBOARD_LABEL_DONE; // Edit by ahmad 12-17-2020\n// frmEPS.txtAliasName.keyboardActionLabel=constants.TEXTBOX_KEYBOARD_LABEL_DONE; // Edit by ahmad 12-17-2020\n// frmEPS.txtAliasNameMob.keyboardActionLabel=constants.TEXTBOX_KEYBOARD_LABEL_DONE; // Edit by ahmad 12-17-2020\n//Mai 5/1/2021\n/*frmEPS.flxAccounFrom.setVisibility(true);\nfrmEPS.lblSplit1.setVisibility(true);\nfrmEPS.flxRPRequestReason.setVisibility(false);\n*/\nif(gblTModule===\"CLIQRequest\" || gblTModule===\"CLIQPay\")\n{\n  frmEPS.flxAccounFrom.setVisibility(false);\n  frmEPS.lblSplit1.setVisibility(false);\n  frmEPS.flxRPRequestReason.setVisibility(true);\n}\n",
            "parentId": null,
            "callbackType": null
        }]
    }
}