{
    "AS_Button_bcbee2b6fce0413481515a49daf386e6": {
        "id": "AS_Button_bcbee2b6fce0413481515a49daf386e6",
        "type": "ACTION_SEQUENCE",
        "name": "expandNewsInfo",
        "params": [{
            "datatype": "collection",
            "name": "eventobject"
        }],
        "contextObj": {
            "name": "frmInformationKA",
            "type": "forms",
            "platform": "",
            "KUID": "f18169832ba24ba09c8780278abfc207"
        },
        "language": "js",
        "actions": [{
            "id": "ADD_SNIPPET__ce173bba82fe4579bcb88df4fac8e276",
            "type": "ADD_SNIPPET",
            "codeSnippet": "viewAllOffersInfo();",
            "parentId": null,
            "callbackType": null
        }]
    }
}