{
    "AS_Segment_8b9374c4e0ba4a2e97550f8dba7609e6": {
        "id": "AS_Segment_8b9374c4e0ba4a2e97550f8dba7609e6",
        "type": "ACTION_SEQUENCE",
        "name": "externalAccountRowClick",
        "params": [{
            "datatype": "collection",
            "name": "eventobject"
        }, {
            "datatype": "number",
            "name": "sectionNumber"
        }, {
            "datatype": "number",
            "name": "rowNumber"
        }],
        "contextObj": {
            "name": "frmAddExternalAccountKA",
            "type": "forms",
            "platform": "",
            "KUID": "4943cca5d62d4f0ca6f2e9ab47274db5"
        },
        "language": "js",
        "actions": [{
            "id": "INVOKE_FUNCTION___cf47147f6a0f4562a477be04178f8d02",
            "type": "INVOKE_FUNCTION",
            "display": "addExternalAccountSegmentClick",
            "inputparams": [],
            "parentId": null,
            "callbackType": null,
            "source": "module"
        }]
    }
}