{
    "AS_Segment_ca3488b05fc8405d806d33dce4a3524e": {
        "id": "AS_Segment_ca3488b05fc8405d806d33dce4a3524e",
        "type": "ACTION_SEQUENCE",
        "name": "FrequencyListSegmentOn_Click",
        "params": [{
            "datatype": "collection",
            "name": "eventobject"
        }, {
            "datatype": "number",
            "name": "sectionNumber"
        }, {
            "datatype": "number",
            "name": "rowNumber"
        }],
        "contextObj": {
            "name": "frmFrequencyList",
            "type": "forms",
            "platform": null,
            "KUID": "g0d1e2711c2c41b3b485f9bbdce5d771"
        },
        "language": "js",
        "actions": [{
            "id": "ADD_SNIPPET__d4b753ceecff41faaaccd7f3f753592b",
            "type": "ADD_SNIPPET",
            "codeSnippet": "selectFrequency();\n",
            "parentId": null,
            "callbackType": null
        }]
    }
}