{
    "AS_Button_g3265139f70b46b5b9ebb5e42e05d9cb": {
        "id": "AS_Button_g3265139f70b46b5b9ebb5e42e05d9cb",
        "type": "ACTION_SEQUENCE",
        "name": "frmAccountDetailKA_btnShareSSC_onClick",
        "params": [{
            "datatype": "collection",
            "name": "eventobject"
        }],
        "contextObj": {
            "name": "frmAccountDetailKA",
            "type": "forms",
            "platform": "",
            "KUID": "5ed703cad63c441882fc4a36f5ea0c28"
        },
        "language": "js",
        "actions": [{
            "id": "ADD_SNIPPET__g7076793691048a39981c3f7040ddfc9",
            "type": "ADD_SNIPPET",
            "codeSnippet": "sendInformaionSharingtoSSC();\nfrmAccountDetailKA.flxSSCInformation.setVisibility(false);\nfrmAccountDetailKA.lblBoj.text = geti18Value(\"i18n.accounts.accounts\");",
            "parentId": null,
            "callbackType": null
        }]
    }
}