{
    "AS_Button_77f55c2b3fb248b8837fd5ac7162dbb2": {
        "id": "AS_Button_77f55c2b3fb248b8837fd5ac7162dbb2",
        "type": "ACTION_SEQUENCE",
        "name": "frmLoginKA_btnChange",
        "params": [{
            "datatype": "collection",
            "name": "eventobject"
        }],
        "contextObj": {
            "name": "frmLoginKA",
            "type": "forms",
            "platform": "",
            "KUID": "7b1aa8fceb6b4070833e9eab879b0e5e"
        },
        "language": "js",
        "actions": [{
            "id": "ADD_SNIPPET__265b09040b4f4dfda6c85ab8d7d5a1f7",
            "type": "ADD_SNIPPET",
            "codeSnippet": "alertChangeUsername();",
            "parentId": null,
            "callbackType": null
        }]
    }
}