{
    "AS_Form_i89531d81b2a4cf2a0cfc148c6a9a18a": {
        "id": "AS_Form_i89531d81b2a4cf2a0cfc148c6a9a18a",
        "type": "ACTION_SEQUENCE",
        "name": "frmPinManagement_postShow",
        "params": [{
            "datatype": "collection",
            "name": "eventobject"
        }],
        "contextObj": {
            "name": "frmPinManagement",
            "type": "forms",
            "platform": "",
            "KUID": "c4c6817a079e45d79df26361f5289750"
        },
        "language": "js",
        "actions": [{
            "id": "ADD_SNIPPET__e9635d69e34a4a2f9892b712829985f9",
            "type": "ADD_SNIPPET",
            "codeSnippet": "if (gblTModule === \"PinReminder\"){\n  frmPinManagement.lblTimer.text = \"0:0\" + JSON.stringify(5);\n}",
            "parentId": null,
            "callbackType": null
        }]
    }
}