{
    "AS_Form_e546c6755b954d789c67f25fdc2ba7e9": {
        "id": "AS_Form_e546c6755b954d789c67f25fdc2ba7e9",
        "type": "ACTION_SEQUENCE",
        "name": "frmSplashOnDeviceBack",
        "params": [{
            "datatype": "collection",
            "name": "eventobject"
        }],
        "contextObj": {
            "name": "frmSplash",
            "type": "forms",
            "platform": "",
            "KUID": "db67a9fe92674e5e9f19aa5b50fa0e6f"
        },
        "language": "js",
        "actions": [{
            "id": "ADD_SNIPPET__i9d5d2e22e5148d5b2b466126d003d56",
            "type": "ADD_SNIPPET",
            "codeSnippet": "kony.print(\"Device Back disabled\");",
            "parentId": null,
            "callbackType": null
        }]
    }
}