{
    "AS_TextField_dd44bf3b7aae4534bfe2db5b47ba04e7": {
        "id": "AS_TextField_dd44bf3b7aae4534bfe2db5b47ba04e7",
        "type": "ACTION_SEQUENCE",
        "name": "IBANBeneBeginEditingAndroid",
        "params": [{
            "datatype": "collection",
            "name": "eventobject"
        }, {
            "datatype": "string",
            "name": "changedtext"
        }],
        "language": "js",
        "actions": [{
            "id": "ADD_SNIPPET_ide_onBeginEditing_c07a5f90636a4f9d92e634c870f340be",
            "type": "ADD_SNIPPET",
            "codeSnippet": "//Omar Alnajjar 24/02/2021  R2P\nanimateLabel(\"UP\",\"lblIBANBeneName\",frmIPSRequestToPay.txtIBANBeneName.text);",
            "callbackType": null
        }]
    }
}