{
    "AS_TextField_j1897e9b36274da5a36d3884ea251973": {
        "id": "AS_TextField_j1897e9b36274da5a36d3884ea251973",
        "type": "ACTION_SEQUENCE",
        "name": "IBANAddressEndEdit",
        "params": [{
            "datatype": "collection",
            "name": "eventobject"
        }, {
            "datatype": "string",
            "name": "changedtext"
        }],
        "language": "js",
        "actions": [{
            "id": "ADD_SNIPPET_ide_onEndEditing_a59bf45bb13d4f10b7f0308ead4e198a",
            "type": "ADD_SNIPPET",
            "codeSnippet": "//Omar Alnajjar 24/02/2021  R2P\nanimateLabel(\"DOWN\",\"lblAddress\",frmIPSRequestToPay.txtAddressAlias.text);",
            "callbackType": null
        }]
    }
}