{
    "AS_Button_c6f957b50025464382aaec59fadae38f": {
        "id": "AS_Button_c6f957b50025464382aaec59fadae38f",
        "type": "ACTION_SEQUENCE",
        "name": "iphoneBackpreferredAccounts",
        "params": [{
            "datatype": "collection",
            "name": "eventobject"
        }],
        "contextObj": {
            "name": "frmPreferredAccountsKA",
            "type": "forms",
            "platform": "",
            "KUID": "7a9e568cea85447086c10e8f96c76840"
        },
        "language": "js",
        "actions": [{
            "id": "ADD_SNIPPET__b434928b17b4458b85a9691c49703ee8",
            "type": "ADD_SNIPPET",
            "codeSnippet": "preferredAccountsSave();",
            "parentId": null,
            "callbackType": null
        }]
    }
}