{
    "AS_Button_fadfabddb5ed4cd594865aca819d02c6": {
        "id": "AS_Button_fadfabddb5ed4cd594865aca819d02c6",
        "type": "ACTION_SEQUENCE",
        "name": "IPSRequestToPayAccountsListOnCLick",
        "params": [{
            "datatype": "collection",
            "name": "eventobject"
        }],
        "language": "js",
        "actions": [{
            "id": "ADD_SNIPPET_ide_onClick_e8c533d355fb4732a8667228a0a1cc6f",
            "type": "ADD_SNIPPET",
            "codeSnippet": "\nSetupAccountsFrom(\"CLIQPay\");\n//Mai\nvalidateLblNext();\n\n\n",
            "callbackType": null
        }]
    }
}