{
    "AS_TextField_a83ed96d37ac47abb8863f4e885f546f": {
        "id": "AS_TextField_a83ed96d37ac47abb8863f4e885f546f",
        "type": "ACTION_SEQUENCE",
        "name": "jomopayparsefloatiphone",
        "params": [{
            "datatype": "collection",
            "name": "eventobject"
        }, {
            "datatype": "string",
            "name": "changedtext"
        }],
        "contextObj": {
            "name": "frmJoMoPay",
            "type": "forms",
            "platform": "",
            "KUID": "d41a38dfc97d4e0a8f3b1db96d6a1ca0"
        },
        "language": "js",
        "actions": [{
            "id": "ADD_SNIPPET__c3678914e7634e57993ca31c6ae5eed0",
            "type": "ADD_SNIPPET",
            "codeSnippet": "if(frmJoMoPay.txtFieldAmount.text!==\"\"&&frmJoMoPay.txtFieldAmount.text!==\"0\"&&frmJoMoPay.txtFieldAmount.text!==0)\n  {\nvar amount = Number.parseFloat(frmJoMoPay.txtFieldAmount.text).toFixed(3);\nfrmJoMoPay.txtFieldAmount.text=amount;\n  }",
            "parentId": null,
            "callbackType": null
        }]
    }
}