{
    "AS_TextField_a90f618961744e82a9c8bcad1f1a05c6": {
        "id": "AS_TextField_a90f618961744e82a9c8bcad1f1a05c6",
        "type": "ACTION_SEQUENCE",
        "name": "mobileDoneEditting",
        "params": [{
            "datatype": "collection",
            "name": "eventobject"
        }, {
            "datatype": "string",
            "name": "changedtext"
        }],
        "language": "js",
        "actions": [{
            "id": "ADD_SNIPPET_ide_onDone_c244700f34214ca58d9b7a420d583c67",
            "type": "ADD_SNIPPET",
            "codeSnippet": "//Omar ALnajjar 23/02/2021 R2P\nvar gblAliasType = null;\nkony.sdk.mvvm.KonyApplicationContext.showLoadingScreen(\"\");\nfrmIPSRequestToPay.txtAliasNameMob.text = formatAsInternationalNumber(frmIPSRequestToPay.txtAliasNameMob.text);\ngblAliasType = frmIPSRequestToPay.txtAliasNameMob.text;\ngetAliasR2PInfo(gblAliasType);",
            "callbackType": null
        }]
    }
}