{
    "AS_Button_c7b350cf5948423895fbcfb35e9f2d2a": {
        "id": "AS_Button_c7b350cf5948423895fbcfb35e9f2d2a",
        "type": "ACTION_SEQUENCE",
        "name": "NavigatetoJomoPayfromAccounts",
        "params": [{
            "datatype": "collection",
            "name": "eventobject"
        }],
        "language": "js",
        "actions": [{
            "id": "ADD_SNIPPET_ide_onClick_fae3e99cb0ea4889b072a2ef8623df86",
            "type": "ADD_SNIPPET",
            "codeSnippet": " var previousForm = kony.application.getPreviousForm();\npreviousForm.show();",
            "callbackType": null
        }]
    }
}