{
    "AS_Button_g0679e698a654b2785250dfb4bc8447e": {
        "id": "AS_Button_g0679e698a654b2785250dfb4bc8447e",
        "type": "ACTION_SEQUENCE",
        "name": "navigatetomymoney",
        "params": [{
            "datatype": "collection",
            "name": "eventobject"
        }],
        "contextObj": {
            "name": "frmMore",
            "type": "forms",
            "platform": "",
            "KUID": "d84431c3625d480e87968404e4325341"
        },
        "language": "js",
        "actions": [{
            "id": "ADD_SNIPPET__fc1b01f96810463e844302badac3ffde",
            "type": "ADD_SNIPPET",
            "codeSnippet": "//getstatistics();\ncustomerAccountDetails.currentIndex = 0;\n// serv_getStatistics();\nserv_getStatisticsSuccess();",
            "parentId": null,
            "callbackType": null
        }]
    }
}