{
    "AS_Button_cec06ca4a5414687a01e9ae34bd152a9": {
        "id": "AS_Button_cec06ca4a5414687a01e9ae34bd152a9",
        "type": "ACTION_SEQUENCE",
        "name": "navtoPaymentDashboardfromMore",
        "params": [{
            "datatype": "collection",
            "name": "eventobject"
        }],
        "contextObj": {
            "name": "frmMore",
            "type": "forms",
            "platform": "",
            "KUID": "d84431c3625d480e87968404e4325341"
        },
        "language": "js",
        "actions": [{
            "id": "ADD_SNIPPET__f22391f8051c4c68b1e0727ffb9fd0bc",
            "type": "ADD_SNIPPET",
            "codeSnippet": "frmPaymentDashboard.show();",
            "parentId": null,
            "callbackType": null
        }]
    }
}