{
    "AS_FlexContainer_iac662718cce4814ab90c37a01c81ae3": {
        "id": "AS_FlexContainer_iac662718cce4814ab90c37a01c81ae3",
        "type": "ACTION_SEQUENCE",
        "name": "onBackFromAccDeatails",
        "params": [{
            "datatype": "collection",
            "name": "eventobject"
        }],
        "contextObj": {
            "name": "frmAccountDetailsScreen",
            "type": "forms",
            "platform": "",
            "KUID": "fed0ec30912249989a34e309123440c9"
        },
        "language": "js",
        "actions": [{
            "id": "ADD_SNIPPET__eeeaf45f3b0c42e9805066e9259d504d",
            "type": "ADD_SNIPPET",
            "codeSnippet": "kony.print(\"gblTModule ::\"+gblTModule);\nif(kony.newCARD.applyCardsOption === true){\n  frmApplyNewCardsKA.show();\n  kony.newCARD.applyCardsOption = false;\n}else if(kony.application.getPreviousForm().id === \"frmCardLinkedAccounts\"){\n  frmCardLinkedAccounts.show();\n}else if(gblTModule == \"AccNumberStatement\"){\n  onClickAccBackToReqStmntScreen();\n}else if(gblTModule == \"AccountOrder\"){\n  onClickAccBackToOrderCheckBookScreen();\n}else if(gblTModule === \"BillPrePayNewBillKA\"){\n\tfrmPrePaidPayeeDetailsKA.show();\n}else if(gblTModule === \"BulkPrePayPayment\"){\n\tfrmBulkPaymentKA.show();\n}else if (gblTModule === \"AccountsForPayments\" || gblTModule === \"AccountsForTransfer\") {\n\tkony.print(\"in accountdetails on back \" + gblTModule);\n    frmUserSettingsSiri.show();\n}else if (gblTModule === \"CardLessTransaction\") {\n    frmCardlessTransaction.show();\n}else if(gblTModule === \"CLIQ\"){\n\tfrmEPS.show();\n}else if(gblTModule === \"IPSRTPFromAccount\"){//Omar ALnajjar 18/03/2021 RTP\n\tfrmIPSRequestToPay.show();\n}else if(gblTModule === \"IPSCreateALiasAccounts\"){//Omar ALnajjar 18/03/2021 Create Alias\n\tfrmIPSCreateAlias.show();\n}else if(gblTModule === \"IPSRegistration\"){\n\tfrmIPSRegistration.show();\n}else if(gblTModule === \"OpenTermDeposite\"){\n    frmOpenTermDeposit.show();\n}else if(gblTModule === \"OpenTermDepositInterestAccount\"){\n    frmOpenTermDeposit.show();\n}else{\n\tbackFromAccDetails();\n}",
            "parentId": null,
            "callbackType": null
        }]
    }
}