{
    "AS_FlexContainer_c24609342f0b469ba80b500434210773": {
        "id": "AS_FlexContainer_c24609342f0b469ba80b500434210773",
        "type": "ACTION_SEQUENCE",
        "name": "onBackccpay",
        "params": [{
            "datatype": "collection",
            "name": "eventobject"
        }],
        "contextObj": {
            "name": "frmCreditCardPayment",
            "type": "forms",
            "platform": "",
            "KUID": "ifc6e17e00ef473bb51f2718c349cfba"
        },
        "language": "js",
        "actions": [{
            "id": "ADD_SNIPPET__bbbfea60d0a142d1a021c02bb35b5d3e",
            "type": "ADD_SNIPPET",
            "codeSnippet": "customAlertPopup(geti18Value(\"i18n.cards.Confirmation\"), geti18nkey(\"i18n.common.sureExit\"), \n                 function(){\n  //1984 fix\n  if(kony.boj.creditcardOption === \"fromPayNow\")\n    {\n      kony.print(\"from paynow\"+kony.boj.creditcardOption);\n      frmCardsLandingKA.show();\n      frmCreditCardPayment.destroy();\n    }\n  else\n    {\n      kony.print(\"from creditcardpayment\"+kony.boj.creditcardOption);\n      frmPaymentDashboard.show();\n      frmCreditCardPayment.destroy();\n    }\n//   kony.print(\"Previous form id is: \"+kony.application.getPreviousForm().id);\n//   if(kony.application.getPreviousForm().id === \"frmPaymentDashboard\")\n//   {\n//     kony.print(\"In if\");\n//     frmPaymentDashboard.show();\n//     frmCreditCardPayment.destroy();\n//   }\n//   else{\n//     kony.print(\"In else\");\n//     frmCardsLandingKA.show();\n//     //frmManageCardsKA.show();\n//     frmCreditCardPayment.destroy();\n//   }\n  popupCommonAlertDimiss();\n}\n                 ,popupCommonAlertDimiss, geti18nkey(\"i18n.common.YES\"),\n                 geti18nkey(\"i18n.common.NO\"));",
            "parentId": null,
            "callbackType": null
        }]
    }
}