{
    "AS_TextField_a37c84ca7f324d4f801daff4ddb7deff": {
        "id": "AS_TextField_a37c84ca7f324d4f801daff4ddb7deff",
        "type": "ACTION_SEQUENCE",
        "name": "onBeginEditingRequestedLimitAndroid",
        "params": [{
            "datatype": "collection",
            "name": "eventobject"
        }, {
            "datatype": "string",
            "name": "changedtext"
        }],
        "contextObj": {
            "name": "frmApplyNewCardsKA",
            "type": "forms",
            "platform": "",
            "KUID": "a05ce8d2e4404e40bfbc8dad585d28dc"
        },
        "language": "js",
        "actions": [{
            "id": "ADD_SNIPPET__ff7b5dd1ef0a4b068bd741cfc8606ae4",
            "type": "ADD_SNIPPET",
            "codeSnippet": "animate_NEWCARDSOPTIOS(\"UP\", \"lblRequestLimitTitle\", frmApplyNewCardsKA.txtRequestLimit.text);",
            "parentId": null
        }]
    }
}