{
    "AS_TextField_ac67e2a721f749e2ac6137e423776e74": {
        "id": "AS_TextField_ac67e2a721f749e2ac6137e423776e74",
        "type": "ACTION_SEQUENCE",
        "name": "onBeginEditingSupplementryLimit",
        "params": [{
            "datatype": "collection",
            "name": "eventobject"
        }, {
            "datatype": "string",
            "name": "changedtext"
        }],
        "contextObj": {
            "name": "frmApplyNewCardsKA",
            "type": "forms",
            "platform": "",
            "KUID": "a05ce8d2e4404e40bfbc8dad585d28dc"
        },
        "language": "js",
        "actions": [{
            "id": "ADD_SNIPPET__jac8eb7e7ad2470fb47e98d3e82f5fc3",
            "type": "ADD_SNIPPET",
            "codeSnippet": "animateLabel(\"UP\",kony.newCARD.fields.SuplementryCardLimit[0],frmApplyNewCardsKA[kony.newCARD.fields.SuplementryCardLimit[1]].text);",
            "parentId": null
        }]
    }
}