{
    "AS_Button_3f79fe5f9b354b35a72e79011b895ff7": {
        "id": "AS_Button_3f79fe5f9b354b35a72e79011b895ff7",
        "type": "ACTION_SEQUENCE",
        "name": "onclickbtnnextuserdetails",
        "params": [{
            "datatype": "collection",
            "name": "eventobject"
        }],
        "language": "js",
        "actions": [{
            "id": "ADD_SNIPPET_ide_onClick_b098ea9e63ad48168269d4108fc92228",
            "type": "ADD_SNIPPET",
            "codeSnippet": "onclicknextuserdetails();",
            "callbackType": null
        }]
    }
}