{
    "AS_RichText_acf298b1cb214dd287d13087ab61560c": {
        "id": "AS_RichText_acf298b1cb214dd287d13087ab61560c",
        "type": "ACTION_SEQUENCE",
        "name": "onClickTermsandConditionsLoanPostpone",
        "params": [{
            "datatype": "collection",
            "name": "eventobject"
        }, {
            "datatype": "string",
            "name": "linktext"
        }, {
            "datatype": "string",
            "name": "attributes"
        }],
        "contextObj": {
            "name": "frmLoanPostpone",
            "type": "forms",
            "platform": "",
            "KUID": "c4f50ee093794ef7af792ffce1e5562c"
        },
        "language": "js",
        "actions": [{
            "id": "ADD_SNIPPET__e25a69380aea4a93b860d99135b30e18",
            "type": "ADD_SNIPPET",
            "codeSnippet": "navigate_TERMSANDCONDITIONS_INTERNAL(kony.application.getCurrentForm(),geti18Value(\"i18n.loanpostpone.termsandcondition\"));",
            "parentId": null,
            "callbackType": null
        }]
    }
}