{
    "AS_Label_d74c35112a884105972df79356f09d1e": {
        "id": "AS_Label_d74c35112a884105972df79356f09d1e",
        "type": "ACTION_SEQUENCE",
        "name": "onClickRenewalWithInterestRadio",
        "params": [{
            "datatype": "collection",
            "name": "eventobject"
        }, {
            "datatype": "string",
            "name": "x"
        }, {
            "datatype": "string",
            "name": "y"
        }],
        "contextObj": {
            "name": "frmOpenTermDeposit",
            "type": "forms",
            "platform": "",
            "KUID": "fec6fddbcf8543f2b30114c87e1a7e99"
        },
        "language": "js",
        "actions": [{
            "id": "ADD_SNIPPET__ff0ae7bbb07b4123bffe65a7e912b152",
            "type": "ADD_SNIPPET",
            "codeSnippet": "funMatInstructions(\"withInt\");",
            "parentId": null,
            "callbackType": null
        }]
    }
}