{
    "AS_Button_gc92e32951044dac996be50be4c3c0ef": {
        "id": "AS_Button_gc92e32951044dac996be50be4c3c0ef",
        "type": "ACTION_SEQUENCE",
        "name": "onClickApplyReplacePrepaidCards",
        "params": [{
            "datatype": "collection",
            "name": "eventobject"
        }],
        "contextObj": {
            "name": "frmApplyNewCardsKA",
            "type": "forms",
            "platform": "",
            "KUID": "a05ce8d2e4404e40bfbc8dad585d28dc"
        },
        "language": "js",
        "actions": [{
            "id": "ADD_SNIPPET__c3e12b6d0c4e4ceca9124def0aadb6f8",
            "type": "ADD_SNIPPET",
            "codeSnippet": "onClick_RADIOBUTTON_APPLYNEWCARDSTYPE(frmApplyNewCardsKA.btnReplacePrepaidCards,frmApplyNewCardsKA.lblReplacePrepaidCardsTitle,\"ReplacePrepaidCards\");",
            "parentId": null,
            "callbackType": null
        }]
    }
}