{
    "AS_FlexContainer_ab19b8f42d6148b8a18bc4ef791f6ecb": {
        "id": "AS_FlexContainer_ab19b8f42d6148b8a18bc4ef791f6ecb",
        "type": "ACTION_SEQUENCE",
        "name": "onClickArabicSwitchOnSettings",
        "params": [{
            "datatype": "collection",
            "name": "eventobject"
        }],
        "contextObj": {
            "name": "frmSettingsKA",
            "type": "forms",
            "platform": "",
            "KUID": "hb0fb66c0c224ed284a1334d78669bfa"
        },
        "language": "js",
        "actions": [{
            "id": "ADD_SNIPPET__d2290f2c175b4350a227eec38019e0a0",
            "type": "ADD_SNIPPET",
            "codeSnippet": "onclickArabicSwitchOn();",
            "parentId": null,
            "callbackType": null
        }]
    }
}