{
    "AS_Button_ia015c223df547d1939f015d873a25a7": {
        "id": "AS_Button_ia015c223df547d1939f015d873a25a7",
        "type": "ACTION_SEQUENCE",
        "name": "onClickOpenNEwSubAccount",
        "params": [{
            "datatype": "collection",
            "name": "eventobject"
        }],
        "contextObj": {
            "name": "frmAccountsLandingKA",
            "type": "forms",
            "platform": "",
            "KUID": "d62a2a0906c64d2281addc95893a6544"
        },
        "language": "js",
        "actions": [{
            "id": "ADD_SNIPPET__i7b0f2ed6f4d46f49258ad18ae70483d",
            "type": "ADD_SNIPPET",
            "codeSnippet": "  frmNewSubAccountLandingNew.lblNext.skin = \"sknLblNextDisabled\";\n  frmNewSubAccountLandingNew.lblFre.text = geti18Value(\"i18n.common.accountType\");\n  frmNewSubAccountLandingNew.lblCurr.text = geti18Value(\"i18n.common.currencyType\");\n  frmNewSubAccountConfirm.lblCheck1.text = \"q\";\n  frmNewSubAccountLandingNew.lblFrequency.setVisibility(false);\n  frmNewSubAccountLandingNew.lblCurrHead.setVisibility(false);\n  frmNewSubAccountLandingNew.lblLine4.skin = \"sknFlxGreyLine\"\n  frmNewSubAccountLandingNew.CopylblLine0ib1721fa6b7140.skin = \"sknFlxGreyLine\";\n  frmNewSubAccountLandingNew.show();  ",
            "parentId": null,
            "callbackType": null
        }]
    }
}