{
    "AS_Button_acec4d7f9c894f25929f584d5d373058": {
        "id": "AS_Button_acec4d7f9c894f25929f584d5d373058",
        "type": "ACTION_SEQUENCE",
        "name": "onclickspendpermonth",
        "params": [{
            "datatype": "collection",
            "name": "eventobject"
        }],
        "contextObj": {
            "name": "frmMyMoneyListKA",
            "type": "forms",
            "platform": "",
            "KUID": "4c6f3d4dd57b4bc3a51ee85d32b7cd14"
        },
        "language": "js",
        "actions": [{
            "id": "ADD_SNIPPET__b8b03b27f37341d18e33966df2f35aeb",
            "type": "ADD_SNIPPET",
            "codeSnippet": "frmMyMoneyListKA.btnSpendPerMonth.skin=\"slButtonWhiteTab\";\nfrmMyMoneyListKA.btnSpendPerMonth.focusSkin=\"slButtonWhiteTabFocus\";\nfrmMyMoneyListKA.btnAllAccount.skin=\"slButtonWhiteTabDisabled\";\nvar pie =\"\";\nfrmMyMoneyListKA.lblNoChart.setVisibility(false);\nfrmMyMoneyListKA.flxLineChart.removeAll();\nfrmMyMoneyListKA.flxPieChart.remove(pie);\nfrmMyMoneyListKA.flxPieChart.setVisibility(true);\nfrmMyMoneyListKA.flxLineChart.setVisibility(false);\nserv_getStatistics();",
            "parentId": null,
            "callbackType": null
        }]
    }
}