{
    "AS_Label_g5937425bc344ce491416d6209ec83b5": {
        "id": "AS_Label_g5937425bc344ce491416d6209ec83b5",
        "type": "ACTION_SEQUENCE",
        "name": "onCLickCheckNote",
        "params": [{
            "datatype": "collection",
            "name": "eventobject"
        }, {
            "datatype": "string",
            "name": "x"
        }, {
            "datatype": "string",
            "name": "y"
        }],
        "contextObj": {
            "name": "frmAddExternalAccountKA",
            "type": "forms",
            "platform": "",
            "KUID": "4943cca5d62d4f0ca6f2e9ab47274db5"
        },
        "language": "js",
        "actions": [{
            "id": "ADD_SNIPPET__g9d7b3c325b143bb88ce5d41b393b857",
            "type": "ADD_SNIPPET",
            "codeSnippet": "// Omar ALnajjar add as favorite\n\nif (frmAddExternalAccountKA.lblRememCheckBox.text === \"q\"){\n  frmAddExternalAccountKA.lblRememCheckBox.text = \"p\";\n  // Omar ALnajjar add as favorite\n  frmAddExternalAccountKA.btnFav.text = \"{\";\n  frmAddExternalAccountKA.lblFavourite.text = \"Y\";\n}else{\n  frmAddExternalAccountKA.lblRememCheckBox.text = \"q\";\n  frmAddExternalAccountKA.btnFav.text = \"}\";\n  frmAddExternalAccountKA.lblFavourite.text = \"N\";\n}\n\nkony.boj.addBeneNextStatus();",
            "parentId": null,
            "callbackType": null
        }]
    }
}