{
    "AS_Button_b6e697c56e6a4285ba2f70e37311924a": {
        "id": "AS_Button_b6e697c56e6a4285ba2f70e37311924a",
        "type": "ACTION_SEQUENCE",
        "name": "onClickManageCardsTransaction",
        "params": [{
            "datatype": "collection",
            "name": "eventobject"
        }],
        "contextObj": {
            "name": "frmManageCardsKA",
            "type": "forms",
            "platform": "",
            "KUID": "75db60b6b4944b7faf9c556f4dbcaf8d"
        },
        "language": "js",
        "actions": [{
            "id": "ADD_SNIPPET__i30d1ef3f2cb489db1b8c49aee1304d3",
            "type": "ADD_SNIPPET",
            "codeSnippet": "frmManageCardsKA.btnTransactions.skin = \"btnCardFoc\";\nfrmManageCardsKA.btnSettings.skin = \"btnCardsScreen\";\nfrmManageCardsKA.btnInfo.skin = \"btnCardsScreen\";\nfrmManageCardsKA.flxSettings.isVisible = false;\nfrmManageCardsKA.flxInfo.isVisible = false;\nfrmManageCardsKA.flxTransactions.isVisible = true;\nfrmManageCardsKA.txtSearch.text=\"\";\n// frmManageCardsKA.transactionSegment.setData(kony.retailBanking.globalData.accountsTransactionList.transaction[0]);",
            "parentId": null
        }]
    }
}