{
    "AS_FlexContainer_af5e298049d44b4eae188faf524bde68": {
        "id": "AS_FlexContainer_af5e298049d44b4eae188faf524bde68",
        "type": "ACTION_SEQUENCE",
        "name": "onClickCardStatementSortAmountDescending",
        "params": [{
            "datatype": "collection",
            "name": "eventobject"
        }],
        "language": "js",
        "actions": [{
            "id": "ADD_SNIPPET__j64442d26ba94f7db3c728353f30d57b",
            "type": "ADD_SNIPPET",
            "codeSnippet": "accountInfoSorting(frmCardStatementKA.imgSortAmountDesc,\"Amount\",\"descending\");",
            "parentId": null,
            "callbackType": null
        }]
    }
}