{
    "AS_FlexContainer_a7e3bbd491b54ecd9a263f6149b40080": {
        "id": "AS_FlexContainer_a7e3bbd491b54ecd9a263f6149b40080",
        "type": "ACTION_SEQUENCE",
        "name": "onClickBackInternalTermsandConditions",
        "params": [{
            "datatype": "collection",
            "name": "eventobject"
        }],
        "contextObj": {
            "name": "frmTermsAndCondtions",
            "type": "forms",
            "platform": null,
            "KUID": "b9e31ff3ad5a4990bff54eeead257dfb"
        },
        "language": "js",
        "actions": [{
            "id": "ADD_SNIPPET__ad49cfef78bd4b67abf267fd4dd91279",
            "type": "ADD_SNIPPET",
            "codeSnippet": "previous_FORM.show();\nfrmTermsAndCondtions.destroy();\nprevious_FORM = null;",
            "parentId": null,
            "callbackType": null
        }]
    }
}