{
    "AS_FlexContainer_b771b0c67bd94e5ea10e7834f5ef47d0": {
        "id": "AS_FlexContainer_b771b0c67bd94e5ea10e7834f5ef47d0",
        "type": "ACTION_SEQUENCE",
        "name": "onClickEnglishSwitchOnSettings",
        "params": [{
            "datatype": "collection",
            "name": "eventobject"
        }],
        "contextObj": {
            "name": "frmSettingsKA",
            "type": "forms",
            "platform": "",
            "KUID": "hb0fb66c0c224ed284a1334d78669bfa"
        },
        "language": "js",
        "actions": [{
            "id": "ADD_SNIPPET__e682421250fe4277ad68e9c3c59b006a",
            "type": "ADD_SNIPPET",
            "codeSnippet": "onclickEnglishSwitchOn();",
            "parentId": null,
            "callbackType": null
        }]
    }
}