{
    "AS_Button_c3a96a0edb564724aea0aff11a47f9b3": {
        "id": "AS_Button_c3a96a0edb564724aea0aff11a47f9b3",
        "type": "ACTION_SEQUENCE",
        "name": "onCLick6MonthCalculator",
        "params": [{
            "datatype": "collection",
            "name": "eventobject"
        }],
        "contextObj": {
            "name": "frmDepositCalculator",
            "type": "forms",
            "platform": null,
            "KUID": "aa2708d3508242c288bdd127be610cde"
        },
        "language": "js",
        "actions": [{
            "id": "ADD_SNIPPET__i09128ad95ff4976833aceae633159ab",
            "type": "ADD_SNIPPET",
            "codeSnippet": "funSelectTenerCalculator(\"6Months\");",
            "parentId": null,
            "callbackType": null
        }]
    }
}