{
    "AS_Button_592e33b0f7aa494490fc283d4c4de820": {
        "id": "AS_Button_592e33b0f7aa494490fc283d4c4de820",
        "type": "ACTION_SEQUENCE",
        "name": "onclickbtncanceladd",
        "params": [{
            "datatype": "collection",
            "name": "eventobject"
        }],
        "contextObj": {
            "type": "forms",
            "platform": "",
            "KUID": "6dd3432a9fd14a5f9f8e953aa892b534"
        },
        "language": "js",
        "actions": [{
            "id": "ADD_SNIPPET__e8a491ed56694be9a4bd4bec44fe999a",
            "type": "ADD_SNIPPET",
            "codeSnippet": "kony.print(\"Deleted\");",
            "parentId": null,
            "callbackType": null
        }]
    }
}