{
    "AS_FlexContainer_hfa77a6085aa4aedbe77048b08778d47": {
        "id": "AS_FlexContainer_hfa77a6085aa4aedbe77048b08778d47",
        "type": "ACTION_SEQUENCE",
        "name": "onClickCardStatementSortAmountAscending",
        "params": [{
            "datatype": "collection",
            "name": "eventobject"
        }],
        "language": "js",
        "actions": [{
            "id": "ADD_SNIPPET__add3310819924f4784b485ddcafb1e58",
            "type": "ADD_SNIPPET",
            "codeSnippet": "accountInfoSorting(frmCardStatementKA.imgSortAmountAsc,\"Amount\",\"ascending\");",
            "parentId": null,
            "callbackType": null
        }]
    }
}