{
    "AS_Button_ae3e65b833c744a88b0a6cbcfd3acabb": {
        "id": "AS_Button_ae3e65b833c744a88b0a6cbcfd3acabb",
        "type": "ACTION_SEQUENCE",
        "name": "onClickofNextButtonJomoPayPage",
        "params": [{
            "datatype": "collection",
            "name": "eventobject"
        }],
        "contextObj": {
            "name": "frmJoMoPay",
            "type": "forms",
            "platform": "",
            "KUID": "d41a38dfc97d4e0a8f3b1db96d6a1ca0"
        },
        "language": "js",
        "actions": [{
            "id": "ADD_SNIPPET__hc5f94e2f62948a0aa349785a7b7abcd",
            "type": "ADD_SNIPPET",
            "codeSnippet": "nextjomopay();",
            "parentId": null,
            "callbackType": null
        }]
    }
}