{
    "AS_Button_e163474581914dbc886eed085fdc34e4": {
        "id": "AS_Button_e163474581914dbc886eed085fdc34e4",
        "type": "ACTION_SEQUENCE",
        "name": "onClickMoreManageCards",
        "params": [{
            "datatype": "collection",
            "name": "eventobject"
        }],
        "contextObj": {
            "name": "frmManageCardsKA",
            "type": "forms",
            "platform": "",
            "KUID": "75db60b6b4944b7faf9c556f4dbcaf8d"
        },
        "language": "js",
        "actions": [{
            "id": "ADD_SNIPPET__gc5900948c8e4edb8e3e8954ffb22e80",
            "type": "ADD_SNIPPET",
            "codeSnippet": "frmMore.show();",
            "parentId": null,
            "callbackType": null
        }]
    }
}