{
    "AS_FlexContainer_f585b16e711d41c192208eac41647afd": {
        "id": "AS_FlexContainer_f585b16e711d41c192208eac41647afd",
        "type": "ACTION_SEQUENCE",
        "name": "onClickEditBillerBack",
        "params": [{
            "datatype": "collection",
            "name": "eventobject"
        }],
        "language": "js",
        "actions": [{
            "id": "ADD_SNIPPET_ide_onClick_b899ccaf39d04d3caf3e98305c3e637d",
            "type": "ADD_SNIPPET",
            "codeSnippet": "//frmManagePayeeKA.show();\nif (kony.sdk.isNetworkAvailable()) {\n    var INSTANCE = kony.sdk.mvvm.KonyApplicationContext.getAppInstance();\n    var controller = INSTANCE.getFormController(\"frmManagePayeeKA\");\n    var navObject = new kony.sdk.mvvm.NavigationObject();\n    navObject.setRequestOptions(\"managepayeesegment\", {\n      \"headers\": {},\n      \"queryParams\": {\"custId\": custid,\n                      \"P_BENE_TYPE\": \"PRE\"\n                     }\n    });\n    controller.loadDataAndShowForm(navObject);\n  } else {\n    customAlertPopup(\"\", kony.i18n.getLocalizedString(\"i18n.errorMsg.deviceConnectionError\"), popupCommonAlertDimiss, \"\");\n  }",
            "callbackType": null
        }]
    }
}