{
    "AS_FlexContainer_cfc19f88905544d7b9147bb65864fe51": {
        "id": "AS_FlexContainer_cfc19f88905544d7b9147bb65864fe51",
        "type": "ACTION_SEQUENCE",
        "name": "onClickBillerName",
        "params": [{
            "datatype": "collection",
            "name": "eventobject"
        }],
        "contextObj": {
            "name": "frmNewBillKA",
            "type": "forms",
            "platform": "",
            "KUID": "94b57de480514c9f98e1f6979b71a37b"
        },
        "language": "js",
        "actions": [{
            "id": "ADD_SNIPPET__f5d41012a2f247f581a4d559c4a2fb37",
            "type": "ADD_SNIPPET",
            "codeSnippet": "if(JSON.stringify(kony.boj.Biller[kony.boj.selectedBillerType].selectedBillerCategory) == '{}'){\n  frmNewBillKA.flxUnderlineBillerCategory.skin = \"sknFlxOrangeLine\";\n  frmNewBillKA.flxUnderlineBillerName.skin = \"sknFlxOrangeLine\";\n}\nelse\nkony.boj.callService(\"GetEfwBillerList\");",
            "parentId": null,
            "callbackType": null
        }]
    }
}