{
    "AS_FlexContainer_h43440dace2c40319d66bbd24399b1d8": {
        "id": "AS_FlexContainer_h43440dace2c40319d66bbd24399b1d8",
        "type": "ACTION_SEQUENCE",
        "name": "onClickCountryBankDetailsAddExternalAccount",
        "params": [{
            "datatype": "collection",
            "name": "eventobject"
        }],
        "language": "js",
        "actions": [{
            "id": "ADD_SNIPPET_ide_onClick_g3779cc9f1874dd4a80e70e4df145f72",
            "type": "ADD_SNIPPET",
            "codeSnippet": "kony.boj.showSelectedDetailsFromBene(\"Country\", \"lblCountryBankDetails\");",
            "callbackType": null
        }]
    }
}