{
    "AS_FlexContainer_g872d41c807c4baab298bfb72c903762": {
        "id": "AS_FlexContainer_g872d41c807c4baab298bfb72c903762",
        "type": "ACTION_SEQUENCE",
        "name": "onClickSettingsSMS",
        "params": [{
            "datatype": "collection",
            "name": "eventobject"
        }],
        "contextObj": {
            "name": "frmSettingsKA",
            "type": "forms",
            "platform": "",
            "KUID": "hb0fb66c0c224ed284a1334d78669bfa"
        },
        "language": "js",
        "actions": [{
            "id": "ADD_SNIPPET__b1d7324a5cca4b2e9cb58811c45084e6",
            "type": "ADD_SNIPPET",
            "codeSnippet": "// frmSMSNotification.show();\nkony.print(\"SMS:::\");\nonselection_ALERTANDNOTIFICATIONTOGGLE(\"SMS\");",
            "parentId": null,
            "callbackType": null
        }]
    }
}