{
    "AS_Button_1cd3eab7fefa40b187a4a4e4f2aec096": {
        "id": "AS_Button_1cd3eab7fefa40b187a4a4e4f2aec096",
        "type": "ACTION_SEQUENCE",
        "name": "onclickbacktransctnchequeadrd",
        "params": [{
            "datatype": "collection",
            "name": "eventobject"
        }],
        "contextObj": {
            "name": "frmtransactionChequeKA",
            "type": "forms",
            "platform": null,
            "KUID": "f73d1ca331e047ce8bbd9d4a6d8a2105"
        },
        "language": "js",
        "actions": [{
            "id": "NAVIGATE_TO_FORM___8da0c89976b547afb32281abc84f6ed0",
            "type": "NAVIGATE_TO_FORM",
            "formId": "frmAccountDetailKA",
            "formKUID": "5ed703cad63c441882fc4a36f5ea0c28",
            "mappings": {},
            "mappingsOrder": [],
            "parentId": "",
            "callbackType": null,
            "enableMappingEditor": true,
            "package": "",
            "navigationObj": "{\n    \"_meta_\": {\n        \"eventName\": \"onClick\",\n        \"widgetId\": \"backButton\"\n    }\n}",
            "isCustomInput": false
        }]
    }
}