{
    "AS_Button_b5539ce362fe4e19a40ffb0e8320fcd8": {
        "id": "AS_Button_b5539ce362fe4e19a40ffb0e8320fcd8",
        "type": "ACTION_SEQUENCE",
        "name": "onClickAccountNumberIPSRegistration",
        "params": [{
            "datatype": "collection",
            "name": "eventobject"
        }],
        "contextObj": {
            "name": "frmIPSRegistration",
            "type": "forms",
            "platform": "",
            "KUID": "d9019aaca9814c4fb7b2e6f1a98cc411"
        },
        "language": "js",
        "actions": [{
            "id": "ADD_SNIPPET__da3ae9736bd1436598321c3b4aa32ca5",
            "type": "ADD_SNIPPET",
            "codeSnippet": "SetupAccountsFrom(\"IPSRegistration\");\n//show_ACCOUNT_LIST();",
            "parentId": null,
            "callbackType": null
        }]
    }
}