{
    "AS_Button_de313677a6fa45c68363cfc03776cd7f": {
        "id": "AS_Button_de313677a6fa45c68363cfc03776cd7f",
        "type": "ACTION_SEQUENCE",
        "name": "onCLickAddFav",
        "params": [{
            "datatype": "collection",
            "name": "eventobject"
        }],
        "contextObj": {
            "name": "frmAddExternalAccountKA",
            "type": "forms",
            "platform": "",
            "KUID": "4943cca5d62d4f0ca6f2e9ab47274db5"
        },
        "language": "js",
        "actions": [{
            "id": "ADD_SNIPPET__a684a9fd9485415484c232d86fe150db",
            "type": "ADD_SNIPPET",
            "codeSnippet": "// Omar ALnajjar add as favorite\nif (frmAddExternalAccountKA.btnFav.text === \"}\"){\n  frmAddExternalAccountKA.btnFav.text = \"{\";\n  frmAddExternalAccountKA.lblFavourite.text = \"Y\";\n}else{\n  frmAddExternalAccountKA.btnFav.text = \"}\";\n  frmAddExternalAccountKA.lblFavourite.text = \"N\";\n}\nkony.boj.addBeneNextStatus();",
            "parentId": null,
            "callbackType": null
        }]
    }
}