{
    "AS_Label_a8be182828c74f038b2252644845ff89": {
        "id": "AS_Label_a8be182828c74f038b2252644845ff89",
        "type": "ACTION_SEQUENCE",
        "name": "onclickAccountBack",
        "params": [{
            "datatype": "collection",
            "name": "eventobject"
        }, {
            "datatype": "string",
            "name": "x"
        }, {
            "datatype": "string",
            "name": "y"
        }],
        "contextObj": {
            "name": "frmAccountDetailKA",
            "type": "forms",
            "platform": "",
            "KUID": "5ed703cad63c441882fc4a36f5ea0c28"
        },
        "language": "js",
        "actions": [{
            "id": "ADD_SNIPPET__d420d700584049bfbe4b8eeeba5aa89d",
            "type": "ADD_SNIPPET",
            "codeSnippet": "accountsAnimattion();\nfrmAccountsLandingKA.show();",
            "parentId": null,
            "callbackType": null
        }]
    }
}