{
    "AS_FlexContainer_f50aa84f81fe426ea8c83971c3cf1152": {
        "id": "AS_FlexContainer_f50aa84f81fe426ea8c83971c3cf1152",
        "type": "ACTION_SEQUENCE",
        "name": "onClickDisableMorningBalanceAlert",
        "params": [{
            "datatype": "collection",
            "name": "eventobject"
        }],
        "contextObj": {
            "name": "frmAlertsKA",
            "type": "forms",
            "platform": "",
            "KUID": "8f4fb6ef80f34f5f861f12908e1a5309"
        },
        "language": "js",
        "actions": [{
            "id": "ADD_SNIPPET__d6848898c8b94f9ca95f449d9b54240f",
            "type": "ADD_SNIPPET",
            "codeSnippet": "show_optalert(\"morningbalance\",frmAlertsKA.lblMorningBalanceFlag);",
            "parentId": null
        }]
    }
}