{
    "AS_Button_h3062cb38b6249c7b74ec9d5ae8a71c1": {
        "id": "AS_Button_h3062cb38b6249c7b74ec9d5ae8a71c1",
        "type": "ACTION_SEQUENCE",
        "name": "onClickRenewalWithInterest",
        "params": [{
            "datatype": "collection",
            "name": "eventobject"
        }],
        "contextObj": {
            "name": "frmOpenTermDeposit",
            "type": "forms",
            "platform": "",
            "KUID": "fec6fddbcf8543f2b30114c87e1a7e99"
        },
        "language": "js",
        "actions": [{
            "id": "ADD_SNIPPET__d5145386962e48038ce7fdb69f2e94e1",
            "type": "ADD_SNIPPET",
            "codeSnippet": "funMatInstructions(\"withInt\");",
            "parentId": null,
            "callbackType": null
        }]
    }
}