{
    "AS_Button_ab9ab0fe7884491589d7b06781b0118b": {
        "id": "AS_Button_ab9ab0fe7884491589d7b06781b0118b",
        "type": "ACTION_SEQUENCE",
        "name": "onClickApplyReplaceDebitCards",
        "params": [{
            "datatype": "collection",
            "name": "eventobject"
        }],
        "language": "js",
        "actions": [{
            "id": "ADD_SNIPPET_ide_onClick_dd643228a8484ff4a22621a596dcafbb",
            "type": "ADD_SNIPPET",
            "codeSnippet": "onClick_RADIOBUTTON_APPLYNEWCARDSTYPE(frmApplyNewCardsKA.btnReplaceDebitCards,frmApplyNewCardsKA.lblReplaceDebitCardsTitle,\"ReplaceDebitCards\");"
        }]
    }
}