{
    "AS_Segment_fe32acaba15741509c67abb3e766d4f8": {
        "id": "AS_Segment_fe32acaba15741509c67abb3e766d4f8",
        "type": "ACTION_SEQUENCE",
        "name": "onCurrencyRowClick",
        "params": [{
            "datatype": "collection",
            "name": "eventobject"
        }, {
            "datatype": "number",
            "name": "sectionNumber"
        }, {
            "datatype": "number",
            "name": "rowNumber"
        }],
        "contextObj": {
            "name": "frmCurrency",
            "type": "forms",
            "platform": "",
            "KUID": "ad97ea383c7f4e06ae53164a57723f84"
        },
        "language": "js",
        "actions": [{
            "id": "ADD_SNIPPET__f7871e9bc3d5460aae85a11401aec679",
            "type": "ADD_SNIPPET",
            "codeSnippet": "onClickSegment();",
            "parentId": null,
            "callbackType": null
        }]
    }
}