{
    "AS_Form_hbf7af4adf9245d78c6a749cee7ab8ee": {
        "id": "AS_Form_hbf7af4adf9245d78c6a749cee7ab8ee",
        "type": "ACTION_SEQUENCE",
        "name": "onDeviceBackNewBillDetaills",
        "params": [{
            "datatype": "collection",
            "name": "eventobject"
        }],
        "contextObj": {
            "name": "frmNewBillDetails",
            "type": "forms",
            "platform": "",
            "KUID": "c2132c3b91ec4677ab952b729de9fc0e"
        },
        "language": "js",
        "actions": [{
            "id": "ADD_SNIPPET__a3c56ca303f74ec39e73039c913d497a",
            "type": "ADD_SNIPPET",
            "codeSnippet": "back_NEWBILLS();",
            "parentId": null,
            "callbackType": null
        }]
    }
}