{
    "AS_Form_f6974997979240b69fa9e074ea5427b5": {
        "id": "AS_Form_f6974997979240b69fa9e074ea5427b5",
        "type": "ACTION_SEQUENCE",
        "name": "onDeviceBackSMSNotification",
        "params": [{
            "datatype": "collection",
            "name": "eventobject"
        }],
        "contextObj": {
            "name": "frmSMSNotification",
            "type": "forms",
            "platform": "",
            "KUID": "h53d27b5aa3844a594848b59224c4f16"
        },
        "language": "js",
        "actions": [{
            "id": "ADD_SNIPPET__g7b5ce738f2a4928a810d0b92fbd281a",
            "type": "ADD_SNIPPET",
            "codeSnippet": "kony.print(\"nothing\");",
            "parentId": null,
            "callbackType": null
        }]
    }
}