{
    "AS_Form_edb97a33718c44b2a6022550e2ad621f": {
        "id": "AS_Form_edb97a33718c44b2a6022550e2ad621f",
        "type": "ACTION_SEQUENCE",
        "name": "onDeviceBackJOMOPayAddBeneficiary",
        "params": [{
            "datatype": "collection",
            "name": "eventobject"
        }],
        "contextObj": {
            "name": "frmJOMOPayAddBiller",
            "type": "forms",
            "platform": "",
            "KUID": "df7e7935cb6a4e5c8a9dad110f300c3c"
        },
        "language": "js",
        "actions": [{
            "id": "ADD_SNIPPET__g47defd145db403d85f60f1490ec5ff0",
            "type": "ADD_SNIPPET",
            "codeSnippet": "frmJoMoPayLanding.show();\nfrmJOMOPayAddBiller.destroy();",
            "parentId": null,
            "callbackType": null
        }]
    }
}