{
    "AS_TextField_h1734a6ca5e245b3b3275a10b135f4f2": {
        "id": "AS_TextField_h1734a6ca5e245b3b3275a10b135f4f2",
        "type": "ACTION_SEQUENCE",
        "name": "onEndEditingPasswordLangAndroid",
        "params": [{
            "datatype": "collection",
            "name": "eventobject"
        }, {
            "datatype": "string",
            "name": "changedtext"
        }],
        "language": "js",
        "actions": [{
            "id": "ADD_SNIPPET_ide_onEndEditing_c4d9c85698304184b91f7bae0afa76d4",
            "type": "ADD_SNIPPET",
            "codeSnippet": "if(frmLanguageChange.passwordTextField.text!==null&&frmLanguageChange.passwordTextField.text!==\"\")\n{\n  frmLanguageChange.flxbdrpwd.skin=\"skntextFieldDividerGreen\";\n}\nelse\n  {\n   frmLanguageChange.flxbdrpwd.skin=\"skntextFieldDivider\";\n  }\nanimateLabel(\"DOWN\",\"lblPassword\",frmLanguageChange.passwordTextField.text);"
        }]
    }
}