{
    "AS_TextField_jd161ebeebbf4aee894d033116710aa5": {
        "id": "AS_TextField_jd161ebeebbf4aee894d033116710aa5",
        "type": "ACTION_SEQUENCE",
        "name": "onEndEditingPasswordLang",
        "params": [{
            "datatype": "collection",
            "name": "eventobject"
        }, {
            "datatype": "string",
            "name": "changedtext"
        }],
        "language": "js",
        "actions": [{
            "id": "ADD_SNIPPET_ide_onEndEditing_f8052a18b79c448a9f3cb01c4d8d8356",
            "type": "ADD_SNIPPET",
            "codeSnippet": "try{\n  if(frmLanguageChange.passwordTextField.text!==null&&frmLanguageChange.passwordTextField.text!==\"\")\n{\n  frmLanguageChange.flxbdrpwd.skin=\"skntextFieldDividerGreen\";\n}\nelse\n  {\n   frmLanguageChange.flxbdrpwd.skin=\"skntextFieldDivider\";\n  }\nanimateLabel(\"DOWN\",\"lblPassword\",frmLanguageChange.passwordTextField.text);\n}catch(e){\n\tkony.print(\"Exception_Password ::\"+e);\n}"
        }]
    }
}