{
    "AS_TextField_af84f13fb0cc47cfbed3b88c7fded79b": {
        "id": "AS_TextField_af84f13fb0cc47cfbed3b88c7fded79b",
        "type": "ACTION_SEQUENCE",
        "name": "onendeditingweniphoneweb",
        "params": [{
            "datatype": "collection",
            "name": "eventobject"
        }, {
            "datatype": "string",
            "name": "changedtext"
        }],
        "language": "js",
        "actions": [{
            "id": "ADD_SNIPPET_ide_onEndEditing_c50e062f981f4557a4096c9facd63fa9",
            "type": "ADD_SNIPPET",
            "codeSnippet": "onendeditingweb();\nfrmWebCharge.txtFieldAmount.maxTextLength = 20;\nfrmWebCharge.txtFieldAmount.text=formatAmountwithcomma(frmWebCharge.lblHiddenAmount.text,getDecimalNumForCurr(frmWebCharge.lblCurrencyCode.text));",
            "callbackType": null
        }]
    }
}