{
    "AS_Button_f0e04a12851f470bae777e17e9d3889c": {
        "id": "AS_Button_f0e04a12851f470bae777e17e9d3889c",
        "type": "ACTION_SEQUENCE",
        "name": "onIOSBackfrmDefaultLoginMethodKA",
        "params": [{
            "datatype": "collection",
            "name": "eventobject"
        }],
        "contextObj": {
            "name": "frmDefaultLoginMethodKA",
            "type": "forms",
            "platform": "",
            "KUID": "e739ce9a81be420593090d683fadc9e7"
        },
        "language": "js",
        "actions": [{
            "id": "ADD_SNIPPET__ifb0c16b8d2b43f7ba21f1c7abd8caac",
            "type": "ADD_SNIPPET",
            "codeSnippet": "//setDefaultLoginMethod(frmDefaultLoginMethodKA);\nkony.print(\"Removed\");",
            "parentId": null,
            "callbackType": null
        }]
    }
}