{
    "AS_RadioButtonGroup_b84f38c24d3f43e78f57ff3a37729c2f": {
        "id": "AS_RadioButtonGroup_b84f38c24d3f43e78f57ff3a37729c2f",
        "type": "ACTION_SEQUENCE",
        "name": "onSelectionRBNewBillKA",
        "params": [{
            "datatype": "collection",
            "name": "eventobject"
        }],
        "contextObj": {
            "name": "frmNewBillKA",
            "type": "forms",
            "platform": "",
            "KUID": "94b57de480514c9f98e1f6979b71a37b"
        },
        "language": "js",
        "actions": [{
            "id": "ADD_SNIPPET__hbe12b9eebcf42a1928df02c655e67d2",
            "type": "ADD_SNIPPET",
            "codeSnippet": "onChangingradioBtnNewBillKA();",
            "parentId": null,
            "callbackType": null
        }]
    }
}