{
    "AS_Button_dc4c1b07ec1b478a96d02c428258a3a7": {
        "id": "AS_Button_dc4c1b07ec1b478a96d02c428258a3a7",
        "type": "ACTION_SEQUENCE",
        "name": "onSetupFaceIdFromSettings",
        "params": [{
            "datatype": "collection",
            "name": "eventobject"
        }],
        "language": "js",
        "actions": [{
            "id": "ADD_SNIPPET_ide_onClick_d9a86996364441f0a10171382268ce00",
            "type": "ADD_SNIPPET",
            "codeSnippet": "kony.print(\"Removed\");",
            "callbackType": null
        }]
    }
}