{
    "AS_Switch_j44875200dbd4afb9f74ec852deaa2fe": {
        "id": "AS_Switch_j44875200dbd4afb9f74ec852deaa2fe",
        "type": "ACTION_SEQUENCE",
        "name": "onselectSwitchfrmUSerSettingsFaceIDKA",
        "params": [{
            "datatype": "collection",
            "name": "eventobject"
        }, {
            "datatype": "string",
            "name": "x"
        }, {
            "datatype": "string",
            "name": "y"
        }],
        "contextObj": {
            "type": "forms",
            "platform": "",
            "KUID": "h33d1f3b10e240a5905eff93ee52b623"
        },
        "language": "js",
        "actions": [{
            "id": "ADD_SNIPPET__g4694ced1fc54282b52035c2b442e4d2",
            "type": "ADD_SNIPPET",
            "codeSnippet": "kony.print(\"removed\");",
            "parentId": null,
            "callbackType": null
        }]
    }
}