{
    "AS_Calendar_da082b7e4bb24f558bff3e9cbf6b40c8": {
        "id": "AS_Calendar_da082b7e4bb24f558bff3e9cbf6b40c8",
        "type": "ACTION_SEQUENCE",
        "name": "onSelectionCalendarDateTo",
        "params": [{
            "datatype": "collection",
            "name": "eventobject"
        }, {
            "datatype": "boolean",
            "name": "isValidDateSelected"
        }],
        "language": "js",
        "actions": [{
            "id": "ADD_SNIPPET_ide_onSelection_c25d8a80c98f416fb44134241cd44e5e",
            "type": "ADD_SNIPPET",
            "codeSnippet": "calendar_DateRange(frmFilterTransaction.calDateTo, \"To\", \"Others\");\nkony.print(\"Onselection\");",
            "callbackType": null
        }]
    }
}