{
    "AS_TextField_jd1d867de52a48858d5d062c92c79e48": {
        "id": "AS_TextField_jd1d867de52a48858d5d062c92c79e48",
        "type": "ACTION_SEQUENCE",
        "name": "onTextChangeEditBillerNickName",
        "params": [{
            "datatype": "collection",
            "name": "eventobject"
        }, {
            "datatype": "string",
            "name": "changedtext"
        }],
        "contextObj": {
            "name": "frmEditPayeeKA",
            "type": "forms",
            "platform": "",
            "KUID": "acf9bb71b94d4dc3ac913d05db7ddee3"
        },
        "language": "js",
        "actions": [{
            "id": "ADD_SNIPPET__h37196ca3716488a8758e86a6974131e",
            "type": "ADD_SNIPPET",
            "codeSnippet": "if (frmEditPayeeKA.txtBillerName.text.match(/^[\\s]/g) !== null) {\n  frmEditPayeeKA.txtBillerName.text = frmEditPayeeKA.txtBillerName.text.replace(/\\s/g, \"\");\n}\n\nif (frmEditPayeeKA.txtBillerName.text === \"\") {\n  frmEditPayeeKA.lblUnderline.skin = \"sknFlxOrangeLine\";\n} else {\n  frmEditPayeeKA.lblUnderline.skin = \"sknFlxGreenLine\";\n}",
            "parentId": null,
            "callbackType": null
        }]
    }
}