{
    "AS_TextField_e2928993b4f74feeb62cbf61a2291285": {
        "id": "AS_TextField_e2928993b4f74feeb62cbf61a2291285",
        "type": "ACTION_SEQUENCE",
        "name": "ontextchangeRegJP",
        "params": [{
            "datatype": "collection",
            "name": "eventobject"
        }, {
            "datatype": "string",
            "name": "changedtext"
        }],
        "language": "js",
        "actions": [{
            "id": "ADD_SNIPPET_ide_onTextChange_j55a5659f41f43cba842ccb6cb63fa8a",
            "type": "ADD_SNIPPET",
            "codeSnippet": "if(!/^[a-zA-Z0-9\\s]+$/.test(frmJoMoPayRegistration.txtNationalID.text))\n  frmJoMoPayRegistration.txtNationalID.text = frmJoMoPayRegistration.txtNationalID.text.substring(0, frmJoMoPayRegistration.txtNationalID.text.length - 1);\nnextCheck();\n// if(frmJoMoPayRegistration.txtNationalID!==null&&frmJoMoPay.txtAliasDetail!==\"\"&&frmJoMoPay.txtFieldAmount.text!=null&&frmJoMoPay.txtFieldAmount.text!=\"\"&&frmJoMoPay.txtFieldAmount.text!==\"0\"&&frmJoMoPay.txtPhoneNo.text!=null&&frmJoMoPay.txtPhoneNo.text!=\"\")\n//   {\n//     frmJoMoPay.btnNext.skin=\"jomopaynextEnabled\";\n//     frmJoMoPay.btnNext.focusSkin=\"jomopaynextEnabled\";\n//   }\n// else\n//   {\n//     frmJoMoPay.btnNext.skin=\"jomopaynextDisabled\";\n//     frmJoMoPay.btnNext.focusSkin=\"jomopaynextDisabled\";\n//   }",
            "callbackType": null
        }]
    }
}