{
    "AS_TextField_e27da843a9024ef5bbd5b674f9bad259": {
        "id": "AS_TextField_e27da843a9024ef5bbd5b674f9bad259",
        "type": "ACTION_SEQUENCE",
        "name": "onTextChangeSearchTransferStatus",
        "params": [{
            "datatype": "collection",
            "name": "eventobject"
        }, {
            "datatype": "string",
            "name": "changedtext"
        }],
        "language": "js",
        "actions": [{
            "id": "ADD_SNIPPET_ide_onTextChange_ec1458cce73747d4a58f9e760b905139",
            "type": "ADD_SNIPPET",
            "codeSnippet": "search_REMITDETAILS(frmTransferStatus.tbxSearch.text);",
            "callbackType": null
        }]
    }
}