{
    "AS_TextField_a6b9e7bf04304329bd3dfb773e71c5a2": {
        "id": "AS_TextField_a6b9e7bf04304329bd3dfb773e71c5a2",
        "type": "ACTION_SEQUENCE",
        "name": "onTextChangeAmountMobile",
        "params": [{
            "datatype": "collection",
            "name": "eventobject"
        }, {
            "datatype": "string",
            "name": "changedtext"
        }],
        "contextObj": {
            "name": "frmEPS",
            "type": "forms",
            "platform": "",
            "KUID": "c49bbb3175be499d86d933cee301b3c4"
        },
        "language": "js",
        "actions": [{
            "id": "ADD_SNIPPET__ef1325b7ac2649f0b559994ff95fe64c",
            "type": "ADD_SNIPPET",
            "codeSnippet": "//Omar Alnajjar\nvalidateLblNext();",
            "parentId": null,
            "callbackType": null
        }]
    }
}