{
    "AS_TextField_cdcc7ee714894e6f822c041a2348871d": {
        "id": "AS_TextField_cdcc7ee714894e6f822c041a2348871d",
        "type": "ACTION_SEQUENCE",
        "name": "onTextChangeAccountNumber",
        "params": [{
            "datatype": "collection",
            "name": "eventobject"
        }, {
            "datatype": "string",
            "name": "changedtext"
        }],
        "language": "js",
        "actions": [{
            "id": "ADD_SNIPPET_ide_onTextChange_c36c392de8744054afb0dbc1ee9e0b2c",
            "type": "ADD_SNIPPET",
            "codeSnippet": "if(frmAddExternalAccountKA.externalAccountNumberTextField.text !== \"\"){\n  frmAddExternalAccountKA.flxUnderlineAccountNumber.skin = \"sknFlxGreenLine\";\n}else{\n  frmAddExternalAccountKA.flxUnderlineAccountNumber.skin = \"sknFlxOrangeLine\";\n}\nkony.boj.addBeneNextStatus();\nif(true){\n  //frmEnrolluserLandingKA.lblNext.skin = \"sknLblNextEnabled\";\n}\nelse{\n // frmEnrolluserLandingKA.lblNext.skin = \"sknLblNextDisabled\";\n}\n",
            "callbackType": null
        }]
    }
}