{
    "AS_TextField_c9325b33f925429fa31c9b993584200c": {
        "id": "AS_TextField_c9325b33f925429fa31c9b993584200c",
        "type": "ACTION_SEQUENCE",
        "name": "onTextChangeUsernameLang",
        "params": [{
            "datatype": "collection",
            "name": "eventobject"
        }, {
            "datatype": "string",
            "name": "changedtext"
        }],
        "language": "js",
        "actions": [{
            "id": "ADD_SNIPPET_ide_onTextChange_g6088ee488c34e7aadce5ecf8ecb2cf5",
            "type": "ADD_SNIPPET",
            "codeSnippet": "animateLabel(\"UP\",\"lblUserName\",frmLanguageChange.tbxusernameTextField.text); ",
            "callbackType": null
        }]
    }
}