{
    "AS_TextField_ac86fc5cf95a40fab8f6dd406221eea0": {
        "id": "AS_TextField_ac86fc5cf95a40fab8f6dd406221eea0",
        "type": "ACTION_SEQUENCE",
        "name": "onTextChangeAliasIPSRegistration",
        "params": [{
            "datatype": "collection",
            "name": "eventobject"
        }, {
            "datatype": "string",
            "name": "changedtext"
        }],
        "contextObj": {
            "name": "frmIPSRegistration",
            "type": "forms",
            "platform": "",
            "KUID": "d9019aaca9814c4fb7b2e6f1a98cc411"
        },
        "language": "js",
        "actions": [{
            "id": "ADD_SNIPPET__a568cfea83c24d328088eaba2e5aeef4",
            "type": "ADD_SNIPPET",
            "codeSnippet": "validate_IPS(frmIPSRegistration.txtAlias.text.trim().toUpperCase(), frmIPSRegistration.txtAlias);",
            "parentId": null,
            "callbackType": null
        }]
    }
}