{
    "AS_Label_b68259506e6842a1a6660e3a8ffd3fbe": {
        "id": "AS_Label_b68259506e6842a1a6660e3a8ffd3fbe",
        "type": "ACTION_SEQUENCE",
        "name": "onTouchEndAccountDetailsDealsFilter",
        "params": [{
            "datatype": "collection",
            "name": "eventobject"
        }, {
            "datatype": "string",
            "name": "x"
        }, {
            "datatype": "string",
            "name": "y"
        }],
        "contextObj": {
            "name": "frmAccountDetailKA",
            "type": "forms",
            "platform": "",
            "KUID": "5ed703cad63c441882fc4a36f5ea0c28"
        },
        "language": "js",
        "actions": [{
            "id": "ADD_SNIPPET__b408cb8c6e3740b9b2ff2598b593d7d7",
            "type": "ADD_SNIPPET",
            "codeSnippet": "frmFilterTransaction.show();",
            "parentId": null,
            "callbackType": null
        }]
    }
}