{
    "AS_TextField_i0bcb5dbac8b4d87bbead7256c2619e1": {
        "id": "AS_TextField_i0bcb5dbac8b4d87bbead7256c2619e1",
        "type": "ACTION_SEQUENCE",
        "name": "onTouchEndApplyCardProfession",
        "params": [{
            "datatype": "collection",
            "name": "eventobject"
        }, {
            "datatype": "string",
            "name": "x"
        }, {
            "datatype": "string",
            "name": "y"
        }],
        "contextObj": {
            "name": "frmApplyNewCardsKA",
            "type": "forms",
            "platform": "",
            "KUID": "a05ce8d2e4404e40bfbc8dad585d28dc"
        },
        "language": "js",
        "actions": [{
            "id": "ADD_SNIPPET__b228fff922414318b220dbd5d5f76353",
            "type": "ADD_SNIPPET",
            "codeSnippet": "animate_NEWCARDSOPTIOS(\"UP\", \"lblProfessionTitle\", frmApplyNewCardsKA.txtProfession.text);",
            "parentId": null,
            "callbackType": null
        }]
    }
}