{
    "AS_TextField_a3f64cca64a14855a44d81e05cd95f47": {
        "id": "AS_TextField_a3f64cca64a14855a44d81e05cd95f47",
        "type": "ACTION_SEQUENCE",
        "name": "onTouchEndApplyCardMonthlyIncome",
        "params": [{
            "datatype": "collection",
            "name": "eventobject"
        }, {
            "datatype": "string",
            "name": "x"
        }, {
            "datatype": "string",
            "name": "y"
        }],
        "contextObj": {
            "name": "frmApplyNewCardsKA",
            "type": "forms",
            "platform": "",
            "KUID": "a05ce8d2e4404e40bfbc8dad585d28dc"
        },
        "language": "js",
        "actions": [{
            "id": "ADD_SNIPPET__b3c8c8e1d5b849feb47ef59f03120014",
            "type": "ADD_SNIPPET",
            "codeSnippet": "animate_NEWCARDSOPTIOS(\"UP\", \"lblMonthlyIncomeTitle\", frmApplyNewCardsKA.txtMonthlyIncome.text);",
            "parentId": null,
            "callbackType": null
        }]
    }
}