{
    "AS_Label_d803739e56b54fdc941e5e36180f1e5d": {
        "id": "AS_Label_d803739e56b54fdc941e5e36180f1e5d",
        "type": "ACTION_SEQUENCE",
        "name": "onTouchEndPaymentHistoryFilter",
        "params": [{
            "datatype": "collection",
            "name": "eventobject"
        }, {
            "datatype": "string",
            "name": "x"
        }, {
            "datatype": "string",
            "name": "y"
        }],
        "contextObj": {
            "name": "frmJoMoPayLanding",
            "type": "forms",
            "platform": "",
            "KUID": "d298f6fe5af04a4dbf76c2b5625a9f8c"
        },
        "language": "js",
        "actions": [{
            "id": "ADD_SNIPPET__ib9822c924b845319965d78b09e62b7f",
            "type": "ADD_SNIPPET",
            "codeSnippet": "fromAccounts = false;\nfromCards = false;\nfrmFilterTransaction.show();",
            "parentId": null,
            "callbackType": null
        }]
    }
}