{
    "AS_Form_e186b2d2bc564610bc8894c777744cd1": {
        "id": "AS_Form_e186b2d2bc564610bc8894c777744cd1",
        "type": "ACTION_SEQUENCE",
        "name": "pinEntry2PreShow",
        "params": [{
            "datatype": "collection",
            "name": "eventobject"
        }],
        "contextObj": {
            "name": "frmPinEntryStep2",
            "type": "forms",
            "platform": null,
            "KUID": "e015f1b273d34ea480f2c966bc9044d2"
        },
        "language": "js",
        "actions": [{
            "id": "ADD_SNIPPET_ide_preShow_i3d14e4959694d43af774933a7b783f4",
            "type": "ADD_SNIPPET",
            "codeSnippet": "pinEntry2PreShow();",
            "callbackType": null
        }]
    }
}