{
    "AS_Form_hb7109ebaa124276b493423a431753ab": {
        "id": "AS_Form_hb7109ebaa124276b493423a431753ab",
        "type": "ACTION_SEQUENCE",
        "name": "PostShowAnimations",
        "params": [{
            "datatype": "collection",
            "name": "eventobject"
        }],
        "contextObj": {
            "name": "frmJoMoPay",
            "type": "forms",
            "platform": "",
            "KUID": "d41a38dfc97d4e0a8f3b1db96d6a1ca0"
        },
        "language": "js",
        "actions": [{
            "id": "ADD_SNIPPET__c9f11a6230044472aef8336c804c0049",
            "type": "ADD_SNIPPET",
            "codeSnippet": "if (frmJoMoPay.txtPhoneNo.text !== \"\")\n\tanimate_NEWCARDSOPTIOS(\"UP\",\"lblBeneficiaryStaticText\",frmJoMoPay.txtPhoneNo.text);",
            "parentId": null,
            "callbackType": null
        }]
    }
}