{
    "AS_Form_f8a51fc00ee94f90a69129ace255817e": {
        "id": "AS_Form_f8a51fc00ee94f90a69129ace255817e",
        "type": "ACTION_SEQUENCE",
        "name": "postshowmanagecard",
        "params": [{
            "datatype": "collection",
            "name": "eventobject"
        }],
        "contextObj": {
            "name": "frmManageCardsKA",
            "type": "forms",
            "platform": "",
            "KUID": "75db60b6b4944b7faf9c556f4dbcaf8d"
        },
        "language": "js",
        "actions": [{
            "id": "ADD_SNIPPET__44c4ff80f5db46f989b6da3377d5c601",
            "type": "ADD_SNIPPET",
            "codeSnippet": "frmManageCardsKA.segCardsKA.pageSkin = \"sknSuccessBkg\";\nkony.print(\"currentIndex\"+customerAccountDetails.currentIndex);\nfrmManageCardsKA.segCardsKA.selectedIndex = [0,parseInt(customerAccountDetails.currentIndex)];\n//alert(\"selectedd:\"+JSON.stringify(frmManageCardsKA.segCardsKA.selectedIndex));\nkony.print(\"selectedd:\"+JSON.stringify(frmManageCardsKA.segCardsKA.selectedIndex));\n/*\nvar segdata = frmManageCardsKA.segCardsKA.data[0];\n  kony.print(\"onSwipeCardsSegmentDetailsKA::\"+segdata);\n  if(segdata.cardType===\"Visa Election Web Card\")\n    {\n      frmManageCardsKA.flxWebPay.setVisibility(true);\n      frmManageCardsKA.flxCreditCardPay.setVisibility(false);\n    }\n  else if(segdata.cardType===\"Visa Election Credit Card\")\n    {\n      frmManageCardsKA.flxCreditCardPay.setVisibility(true);\n      frmManageCardsKA.flxWebPay.setVisibility(false);\n    }\n  else\n    {\n      frmManageCardsKA.flxWebPay.setVisibility(false);\n      frmManageCardsKA.flxCreditCardPay.setVisibility(false);\n    }*/",
            "parentId": null,
            "callbackType": null
        }]
    }
}