{
    "AS_Form_bdefaf8bc28e451a9461234684a72847": {
        "id": "AS_Form_bdefaf8bc28e451a9461234684a72847",
        "type": "ACTION_SEQUENCE",
        "name": "preShowfrmFilterTransaction",
        "params": [{
            "datatype": "collection",
            "name": "eventobject"
        }],
        "contextObj": {
            "name": "frmFilterTransaction",
            "type": "forms",
            "platform": "",
            "KUID": "ff5ea79e22414b03ba4cca716d18a58c"
        },
        "language": "js",
        "actions": [{
            "id": "ADD_SNIPPET__da8668e9f3744d2bbcdd7c89e3fde1bc",
            "type": "ADD_SNIPPET",
            "codeSnippet": "var month = (new Date().getMonth()+1)+\"\";\nfrmFilterTransaction.lblCurrentMonth.text = list_Month[month];\nfrmFilterTransaction.lblYear.text = geti18Value(\"i18n.filtertransaction.year\")+\" \"+new Date().getFullYear();\nvar currForm = \"\";\n//#ifdef android\n\tcurrForm = kony.application.getCurrentForm().id;\n//#endif\n\n//#ifdef iphone\n\tcurrForm = kony.application.getPreviousForm().id;\n//#endif\nkony.print(\"previous form ::\"+kony.application.getPreviousForm());\nif(currForm === \"frmManageCardsKA\"){\n\tfrmFilterTransaction.lblCurrency.text = \"JOD\";\n}else{\n    var value = kony.retailBanking.globalData.accountsDashboardData.accountsData[parseInt(customerAccountDetails.currentIndex)];\n    frmFilterTransaction.lblCurrency.text = value.currencyCode;\n}\nfrmFilterTransaction.flxAmountMinLine.skin = \"skntextFieldDivider\";\nfrmFilterTransaction.flxAmountMaxLine.skin = \"skntextFieldDivider\";\nif(fromAccounts === true){\n\tfrmFilterTransaction.CopyLabel0ge4b0af66b9b44.isVisible = true;\n\tfrmFilterTransaction.flxIncomming.isVisible = true;\n\tfrmFilterTransaction.flxOutgoing.isVisible = true;\n\tfrmFilterTransaction.flxCard.isVisible = false;\n}else if(fromCards == true){\n\tfrmFilterTransaction.CopyLabel0ge4b0af66b9b44.isVisible = false;\n\tfrmFilterTransaction.flxIncomming.isVisible = true;\n\tfrmFilterTransaction.flxOutgoing.isVisible = true;\n\tfrmFilterTransaction.flxCard.isVisible = false;\n}",
            "parentId": null,
            "callbackType": null,
            "disabled": false
        }]
    }
}