{
    "AS_TextField_d8bf3f576c664f3db4f78a43e163637e": {
        "id": "AS_TextField_d8bf3f576c664f3db4f78a43e163637e",
        "type": "ACTION_SEQUENCE",
        "name": "RetunrPayment_Amount_OnTextChange",
        "params": [{
            "datatype": "collection",
            "name": "eventobject"
        }, {
            "datatype": "string",
            "name": "changedtext"
        }],
        "language": "js",
        "actions": [{
            "id": "ADD_SNIPPET_ide_onTextChange_ffe0c852609946138a584cca24611c2c",
            "type": "ADD_SNIPPET",
            "codeSnippet": "validateLblNext();",
            "callbackType": null
        }]
    }
}