{
    "AS_Segment_0ebdd5674f3a4f5b9779918359f33cd1": {
        "id": "AS_Segment_0ebdd5674f3a4f5b9779918359f33cd1",
        "type": "ACTION_SEQUENCE",
        "name": "segLoginSettingsClick",
        "params": [{
            "datatype": "collection",
            "name": "eventobject"
        }, {
            "datatype": "number",
            "name": "sectionNumber"
        }, {
            "datatype": "number",
            "name": "rowNumber"
        }],
        "contextObj": {
            "name": "frmUserSettingsMyProfileKA",
            "type": "forms",
            "platform": "",
            "KUID": "469d331305a541b8b65c6d8bdf903828"
        },
        "language": "js",
        "actions": [{
            "id": "INVOKE_FUNCTION___1d0e43b66017488b90fb060ef45c1de9",
            "type": "INVOKE_FUNCTION",
            "display": "onLoginSettingsRowClick",
            "inputparams": [],
            "parentId": null,
            "callbackType": null,
            "source": "module"
        }]
    }
}