{
    "AS_FlexContainer_i5f6051bb8064a368a698db1f988f7e5": {
        "id": "AS_FlexContainer_i5f6051bb8064a368a698db1f988f7e5",
        "type": "ACTION_SEQUENCE",
        "name": "TouchDiableSwitchClick",
        "params": [{
            "datatype": "collection",
            "name": "eventobject"
        }],
        "language": "js",
        "actions": [{
            "id": "ADD_SNIPPET_ide_onClick_b47f60dabfaf42f59e28fd93b641ac77",
            "type": "ADD_SNIPPET",
            "codeSnippet": "ShowUserSettigsTouchPage();"
        }]
    }
}