{
    "AS_TextField_a97a99d890794fdbae84264ec2f33229": {
        "id": "AS_TextField_a97a99d890794fdbae84264ec2f33229",
        "type": "ACTION_SEQUENCE",
        "name": "touchStartOfpwd",
        "params": [{
            "datatype": "collection",
            "name": "eventobject"
        }, {
            "datatype": "string",
            "name": "x"
        }, {
            "datatype": "string",
            "name": "y"
        }],
        "contextObj": {
            "name": "frmLoginKA",
            "type": "forms",
            "platform": "",
            "KUID": "7b1aa8fceb6b4070833e9eab879b0e5e"
        },
        "language": "js",
        "actions": [{
            "id": "ADD_SNIPPET__i0bd81776ee5445bbdd1d0b49fc66474",
            "type": "ADD_SNIPPET",
            "codeSnippet": "try{\n  var currentForm = kony.application.getCurrentForm();\nif(currentForm.id === \"frmLoginKA\" || currentForm.id === \"frmLanguageChange\"){\n\tcurrentForm.lblInvalidCredentialsKA.isVisible = false;\n\tcurrentForm.lblClosePass.setVisibility(true);\n\t//frmLoginKA.lblShowPass.setVisibility(true);\n\tcurrentForm.lblClose.setVisibility(false);\n\tcurrentForm.flxbdrpwd.skin=\"skntextFieldDividerBlue\";\n\tif(currentForm.tbxusernameTextField.text!==null&& currentForm.tbxusernameTextField.text!==\"\")\n\t{\n\t  currentForm.borderBottom.skin=\"skntextFieldDividerGreen\";\n\t}\n\telse\n\t  {\n\t\tcurrentForm.borderBottom.skin=\"skntextFieldDivider\";\n\t  }\n}\n}catch(err){\n  kony.print( \"err in pwd::\"+err);\n}",
            "parentId": null
        }]
    }
}