{
    "AS_TextField_d898582466cd4e7192a1901693dc903a": {
        "id": "AS_TextField_d898582466cd4e7192a1901693dc903a",
        "type": "ACTION_SEQUENCE",
        "name": "txtemail1onDone",
        "params": [{
            "datatype": "collection",
            "name": "eventobject"
        }, {
            "datatype": "string",
            "name": "changedtext"
        }],
        "contextObj": {
            "name": "frmEstatementLandingKA",
            "type": "forms",
            "platform": "",
            "KUID": "d1dcb94f4a054dda97d66cbdc216d96a"
        },
        "language": "js",
        "actions": [{
            "id": "ADD_SNIPPET__a1b59fa8a8994d7da050c18ea84a6a27",
            "type": "ADD_SNIPPET",
            "codeSnippet": "try {\n  frmEstatementLandingKA.txtEmail1.text = frmEstatementLandingKA.txtEmail1.text.trim();\n  if (frmEstatementLandingKA.txtEmail1.text !== null && frmEstatementLandingKA.txtEmail1.text !== \"\" && isValidEmaill(frmEstatementLandingKA.txtEmail1.text)) {\n    frmEstatementLandingKA.txtEmail2.text = frmEstatementLandingKA.txtEmail2.text.trim();\n    if (frmEstatementLandingKA.txtEmail2.text == null || frmEstatementLandingKA.txtEmail2.text == \"\") {\n      frmEstatementLandingKA.borderBottom1.skin = \"skntextFieldDividerGreen\";\n      frmEstatementLandingKA.lblInvalidEmail1.setVisibility(false);\n      frmEstatementLandingKA.borderBottom2.skin = \"skntextFieldDividerGreen\";\n      frmEstatementLandingKA.lblInvalidEmail2.setVisibility(false);\n      if (frmEstatementLandingKA.flxSwitchOnTouchLogin.isVisible && frmEstatementLandingKA.lblTermsandConditionsCheckBox.text === \"p\")\n        frmEstatementLandingKA.lblNext.skin = \"sknLblNextEnabled\";\n      else\n        frmEstatementLandingKA.lblNext.skin = \"sknLblNextDisabled\";\n    } else {\n      if (isValidEmaill(frmEstatementLandingKA.txtEmail2.text)) {\n        frmEstatementLandingKA.borderBottom1.skin = \"skntextFieldDividerGreen\";\n        frmEstatementLandingKA.lblInvalidEmail1.setVisibility(false);\n        frmEstatementLandingKA.borderBottom2.skin = \"skntextFieldDividerGreen\";\n        frmEstatementLandingKA.lblInvalidEmail2.setVisibility(false);\n        if (frmEstatementLandingKA.flxSwitchOnTouchLogin.isVisible && frmEstatementLandingKA.lblTermsandConditionsCheckBox.text === \"p\")\n          frmEstatementLandingKA.lblNext.skin = \"sknLblNextEnabled\";\n        else\n          frmEstatementLandingKA.lblNext.skin = \"sknLblNextDisabled\";\n      } else {\n        frmEstatementLandingKA.borderBottom2.skin = \"skntextFieldDivider\";\n        frmEstatementLandingKA.lblInvalidEmail2.text = geti18Value(\"i18n.Estmt.invalidEmail\");\n        frmEstatementLandingKA.lblInvalidEmail2.setVisibility(true);\n        frmEstatementLandingKA.lblNext.skin = \"sknLblNextDisabled\";\n      }\n    }\n  } else {\n    frmEstatementLandingKA.borderBottom1.skin = \"skntextFieldDivider\";\n    frmEstatementLandingKA.lblInvalidEmail1.text = geti18Value(\"i18n.Estmt.invalidEmail\");\n    frmEstatementLandingKA.lblInvalidEmail1.setVisibility(true);\n    frmEstatementLandingKA.lblNext.skin = \"sknLblNextDisabled\";\n  }\n\n} catch (err) {\n  kony.print(\"err in pwd::\" + err);\n}",
            "parentId": null,
            "callbackType": null
        }]
    }
}