{
    "DNDConfig": null,
    "__parentReadjusting__": false,
    "_height_": {
        "type": "string",
        "value": "100%"
    },
    "_left_": {
        "type": "string",
        "value": "0dp"
    },
    "_margin_": [
        0,
        0,
        0,
        0
    ],
    "_padding_": [
        0,
        0,
        0,
        0
    ],
    "_skin_": "s33c2b827d6745b5a56322e35bc3c999",
    "_top_": {
        "type": "string",
        "value": "0dp"
    },
    "_width_": {
        "type": "string",
        "value": "100%"
    },
    "allboxes": [],
    "allowhorizontalbounce": false,
    "allowverticalbounce": true,
    "bounces": true,
    "canUpdateUI": true,
    "children": [
        "accountsInnerScroll"
    ],
    "clipbounds": true,
    "containerweight": 100,
    "decelerat": false,
    "dragg": false,
    "enabled": false,
    "enablescrolling": true,
    "horizontalscrollindicator": true,
    "id": "accountsOuterScroll",
    "info": null,
    "isvisible": true,
    "kuid": "0c6b14a5ee974267a5fbc33ec8050075",
    "layouttype": 2,
    "name": "kony.ui.FlexScrollContainer",
    "onscrolling": "AS_FlexScrollContainer_a15b7500a04e48c0afa2ff334e0b1317",
    "ontouchend": "AS_FlexScrollContainer_eff01ea249ec4b70b738d9a14ebc6f2c",
    "orientation": 6,
    "pagingenabled": false,
    "parent": "overview",
    "percent": true,
    "pf": "frmPickAProductKA",
    "scrolldirection": 2,
    "snapgridsize": 10,
    "snaptogrid": true,
    "track": false,
    "verticalscrollindicator": false,
    "vizProps": {
        "hide": false
    },
    "wType": "FlexScrollContainer",
    "widgetalignment": 1
}