{
    "DNDConfig": null,
    "__parentReadjusting__": false,
    "_height_": {
        "type": "string",
        "value": "80%"
    },
    "_margin_": [
        0,
        0,
        0,
        0
    ],
    "_orientation_": 6,
    "_padding_": [
        0,
        0,
        0,
        0
    ],
    "_percent_": true,
    "_skin_": "s388f0c575ef4d08ac3a5ed0a4b90085",
    "_width_": {
        "type": "string",
        "value": "10%"
    },
    "allboxes": [],
    "autogrowmode": 0,
    "canUpdateUI": true,
    "centerx": {
        "type": "string",
        "value": "71%"
    },
    "centery": {
        "type": "string",
        "value": "50%"
    },
    "children": [
        "imgSortDateDesc"
    ],
    "clipbounds": true,
    "containerweight": 100,
    "enablescrolling": true,
    "id": "flxSortDateDesc",
    "ide_onClick": "AS_FlexContainer_ef5b204a0565442db02d4bf6b6f166f7",
    "info": null,
    "isvisible": true,
    "kuid": "bd372771641d489381e1444b9f611d65",
    "layouttype": 2,
    "name": "kony.ui.FlexContainer",
    "parent": "flxDate",
    "pf": "frmStandingInstructions",
    "snapgridsize": 10,
    "snaptogrid": true,
    "wType": "FlexContainer",
    "widgetalignment": 1,
    "zindex": 1
}