{
    "@class": "com.kony.gen.viz.model.component.KVizButton",
    "DNDConfig": null,
    "_margin_": [
        6,
        4,
        6,
        6
    ],
    "_padding_": [
        3,
        3,
        3,
        3
    ],
    "_skin_": "s064afd968c64abb94c8e379d3f4c61f",
    "_text_": "Submit",
    "canUpdateUI": true,
    "containerweight": 100,
    "contentalignment": 5,
    "disabledSkins": {
        "focusSkin": "s10149300144466da99cbf92f4fdacc8"
    },
    "displaytext": true,
    "id": "btnSubmit",
    "ide_onClick": "AS_Button_ac2f6245e35943fea1d1a7ae55592a7c",
    "info": null,
    "isvisible": true,
    "kuid": "gbf5803551df46e6bbc354d3831d70b4",
    "margininpixel": false,
    "name": "kony.ui.Button",
    "paddInPixel": [
        -11.56,
        -11.56,
        -11.56,
        -11.56
    ],
    "paddinginpixel": false,
    "parent": "HBxSubmit",
    "pf": "PopupCancelAndReplaceCard",
    "wType": "Button",
    "widgetalignment": 5
}