{
    "@class": "com.kony.gen.viz.model.container.KVizHBox",
    "DNDConfig": null,
    "_margin_": [
        0,
        0,
        0,
        1
    ],
    "_orientation_": 1,
    "_padding_": [
        0,
        0,
        0,
        0
    ],
    "_percent_": true,
    "_position_": 3,
    "_skin_": "s066e1f55806426ca40936afa9e01f49",
    "allboxes": [],
    "canUpdateUI": true,
    "children": [
        "RdBtnCancelCard"
    ],
    "containerweight": 100,
    "contextmenu": null,
    "id": "HBoxCacelCard",
    "info": null,
    "isvisible": true,
    "kuid": "f6904b7419784022b976c16b2f496b96",
    "layouttype": 0,
    "margininpixel": false,
    "name": "kony.ui.Box",
    "parent": "PopupCancelAndReplaceCard",
    "pf": "PopupCancelAndReplaceCard",
    "wType": "HBox",
    "widgetalignment": 1
}