{
    "@class": "com.kony.gen.viz.model.container.KVizHBox",
    "DNDConfig": null,
    "_margin_": [
        0,
        0,
        0,
        0
    ],
    "_orientation_": 1,
    "_padding_": [
        0,
        5,
        0,
        5
    ],
    "_percent_": true,
    "_position_": 3,
    "_skin_": "s066e1f55806426ca40936afa9e01f49",
    "allboxes": [],
    "canUpdateUI": true,
    "children": [
        "lblCardCancelTitle"
    ],
    "containerweight": 100,
    "contextmenu": null,
    "id": "HBxTitle",
    "info": null,
    "isvisible": true,
    "kuid": "a5023382bfa8478dad42f5130f549b0b",
    "layouttype": 0,
    "margininpixel": false,
    "name": "kony.ui.Box",
    "paddinginpixel": false,
    "parent": "PopupCancelAndReplaceCard",
    "pf": "PopupCancelAndReplaceCard",
    "wType": "HBox",
    "widgetalignment": 5
}