{
    "@class": "com.kony.gen.viz.model.component.KVizLabel",
    "DNDConfig": null,
    "__parentReadjusting__": false,
    "_height_": {
        "type": "ref",
        "value": "preferred"
    },
    "_margin_": [
        1,
        1,
        1,
        1
    ],
    "_padding_": [
        0,
        0,
        0,
        0
    ],
    "_skin_": "sab70dfbb4984f21a5c64e8cfa44cc65",
    "_text_": "",
    "_width_": {
        "type": "ref",
        "value": "preferred"
    },
    "_wrapping_": 2,
    "android": {
        "textStyle": {
            "letterSpacing": 0,
            "strikeThrough": false
        }
    },
    "canUpdateUI": true,
    "centerx": {
        "type": "string",
        "value": "50%"
    },
    "centery": {
        "type": "string",
        "value": "35%"
    },
    "containerweight": 100,
    "contentalignment": 5,
    "id": "lblThirdCharacter",
    "info": null,
    "ipad": {
        "psp": {
            "wrapping": 2
        }
    },
    "iphone": {
        "psp": {
            "wrapping": 2
        }
    },
    "iscustomlayout": true,
    "isvisible": false,
    "kuid": "f62141eba9414b77b11c66dc0fab3bc3",
    "name": "kony.ui.Label",
    "parent": "flxThirdCharacter",
    "pf": "frmPinManagement",
    "retaincontentalignment": true,
    "retainflexpositionproperties": true,
    "textstyle": {},
    "tooltip": "",
    "wType": "Label",
    "zindex": 1
}