{
    "@class": "com.kony.gen.viz.model.component.KVizButton",
    "DNDConfig": null,
    "__parentReadjusting__": false,
    "_height_": {
        "type": "string",
        "value": "50dp"
    },
    "_left_": {
        "type": "string",
        "value": "25dp"
    },
    "_margin_": [
        6,
        6,
        6,
        6
    ],
    "_padding_": [
        0,
        0,
        0,
        0
    ],
    "_skin_": "sf7766faf6e34d0789442a84c1e76e1a",
    "_text_": "Button",
    "_top_": {
        "type": "string",
        "value": "15%"
    },
    "_width_": {
        "type": "string",
        "value": "70%"
    },
    "canUpdateUI": true,
    "centerx": {
        "type": "string",
        "value": "50%"
    },
    "containerweight": 100,
    "contentalignment": 5,
    "disabledSkins": {},
    "displaytext": true,
    "focusskin": "sf7766faf6e34d0789442a84c1e76e1a",
    "id": "btnMobileNumberConfirm",
    "ide_onClick": "AS_Button_ae0c8fa3fc1d4b758e389919082b4370",
    "info": null,
    "isvisible": true,
    "kuid": "c532c9410d8c4ed78009dda13636eda7",
    "name": "kony.ui.Button",
    "parent": "flxTxtMobileNukber",
    "pf": "frmRegisterUser",
    "texti18n": "i18n.Bene.Confirm",
    "wType": "Button",
    "zindex": 1
}