{
    "@class": "com.kony.gen.viz.model.component.KVizButton",
    "DNDConfig": null,
    "__parentReadjusting__": false,
    "_height_": {
        "type": "string",
        "value": "9%"
    },
    "_margin_": [
        6,
        6,
        6,
        6
    ],
    "_padding_": [
        0,
        0,
        0,
        0
    ],
    "_skin_": "s6ad00d3508642fca1a046651f5c47c2",
    "_text_": "",
    "_width_": {
        "type": "string",
        "value": "75%"
    },
    "canUpdateUI": true,
    "centerx": {
        "type": "string",
        "value": "50%"
    },
    "centery": {
        "type": "string",
        "value": "15%"
    },
    "containerweight": 100,
    "contentalignment": 5,
    "displaytext": true,
    "focusskin": "s0e9f0a5840d4cb38fce87f5afb0c29d",
    "id": "btnRTPDecline",
    "ide_onClick": "AS_Button_fa28a1fd29fc4eff95b3670b19477296",
    "info": null,
    "isvisible": true,
    "kuid": "f9ebf62aba8a4ef9bfee3793f6c61251",
    "name": "kony.ui.Button",
    "parent": "flxRPRBody",
    "pf": "frmIPSPendingRTP",
    "texti18n": "i18n.CLIQ.Reject",
    "wType": "Button",
    "zindex": 1
}