{
    "@class": "com.kony.gen.viz.model.component.KVizButton",
    "DNDConfig": null,
    "__parentReadjusting__": false,
    "_height_": {
        "type": "string",
        "value": "60%"
    },
    "_left_": {
        "type": "string",
        "value": "4%"
    },
    "_margin_": [
        6,
        6,
        6,
        6
    ],
    "_padding_": [
        0,
        0,
        0,
        0
    ],
    "_skin_": "scba750aa7f9473cadaf087f2356ea10",
    "_text_": "",
    "_width_": {
        "type": "string",
        "value": "14%"
    },
    "canUpdateUI": true,
    "centery": {
        "type": "string",
        "value": "50%"
    },
    "containerId": true,
    "containerweight": 100,
    "contentalignment": 5,
    "displaytext": true,
    "focusskin": "scba750aa7f9473cadaf087f2356ea10",
    "id": "btnBillsPayAccounts",
    "ide_onClick": "AS_Button_c6eb27e074334d02bed90f4d7e2d0732",
    "info": null,
    "isvisible": true,
    "kuid": "e2411e392ba54f1091b2f002fe96e461",
    "name": "kony.ui.Button",
    "parent": "flxToAnimate",
    "pf": "segmanagepayeetmplt",
    "wType": "Button",
    "zindex": 1
}