{
    "DNDConfig": null,
    "__parentReadjusting__": false,
    "_height_": {
        "type": "string",
        "value": "90%"
    },
    "_left_": {
        "type": "string",
        "value": "2%"
    },
    "_margin_": [
        0,
        0,
        0,
        0
    ],
    "_orientation_": 6,
    "_padding_": [
        0,
        0,
        0,
        0
    ],
    "_percent_": true,
    "_skin_": "s388f0c575ef4d08ac3a5ed0a4b90085",
    "_top_": {
        "type": "string",
        "value": "0dp"
    },
    "_width_": {
        "type": "string",
        "value": "20%"
    },
    "allboxes": [],
    "autogrowmode": 0,
    "canUpdateUI": true,
    "children": [
        "CopylblBackIcon0j69715f7147640",
        "CopylblBack0f85cf5afc95843"
    ],
    "clipbounds": true,
    "containerweight": 100,
    "enablescrolling": true,
    "id": "flxBackPayNow",
    "ide_onClick": "AS_FlexContainer_c2e8fe1aa70e4bb4b85207de137fe2c9",
    "info": null,
    "iscustomlayout": true,
    "isvisible": true,
    "kuid": "b0b79c2db93244dc82ffa8ef9c3bddcc",
    "layouttype": 3,
    "name": "kony.ui.FlexContainer",
    "parent": "flxTopPayNow",
    "pf": "frmBulkPaymentKA",
    "retainflexpositionproperties": true,
    "snapgridsize": 10,
    "snaptogrid": true,
    "wType": "FlexContainer",
    "widgetalignment": 1,
    "zindex": 1
}