{
    "DNDConfig": null,
    "__parentReadjusting__": false,
    "_bottom_": {
        "type": "string",
        "value": "4%"
    },
    "_height_": {
        "type": "string",
        "value": "60%"
    },
    "_margin_": [
        0,
        0,
        0,
        0
    ],
    "_orientation_": 6,
    "_padding_": [
        0,
        0,
        0,
        0
    ],
    "_percent_": true,
    "_skin_": "s388f0c575ef4d08ac3a5ed0a4b90085",
    "_width_": {
        "type": "string",
        "value": "100%"
    },
    "allboxes": [],
    "autogrowmode": 0,
    "canUpdateUI": true,
    "centerx": {
        "type": "string",
        "value": "50%"
    },
    "children": [
        "lblPaymentMode",
        "lblArrowPaymentMode",
        "lblBranchCode"
    ],
    "clipbounds": true,
    "containerweight": 100,
    "enablescrolling": true,
    "id": "flxPaymentModeTypeHolderBulk",
    "ide_onClick": "AS_FlexContainer_ea323e6592234ad0a2513ff300b2552f",
    "info": null,
    "isvisible": true,
    "kuid": "f8d40e33b14e4bbb8d75c5a9e99fcb2c",
    "layouttype": 2,
    "name": "kony.ui.FlexContainer",
    "parent": "flxPaymentModeBulk",
    "pf": "frmBulkPaymentKA",
    "snapgridsize": 10,
    "snaptogrid": true,
    "wType": "FlexContainer",
    "widgetalignment": 1,
    "zindex": 2
}