{
    "DNDConfig": null,
    "__parentReadjusting__": false,
    "_height_": {
        "type": "string",
        "value": "70%"
    },
    "_margin_": [
        0,
        0,
        0,
        0
    ],
    "_orientation_": 6,
    "_padding_": [
        0,
        0,
        0,
        0
    ],
    "_percent_": true,
    "_skin_": "sb057b48385e4da2b5319653181a76cf",
    "_top_": {
        "type": "string",
        "value": "0%"
    },
    "_width_": {
        "type": "string",
        "value": "80%"
    },
    "allboxes": [],
    "autogrowmode": 0,
    "canUpdateUI": true,
    "centerx": {
        "type": "string",
        "value": "50%"
    },
    "children": [
        "lblSaver1",
        "lblSaver2",
        "lblSaver3",
        "lblSaver4",
        "lblSaver5",
        "lblSaver6",
        "lblSaver7",
        "lblSaver8",
        "lblSaver9",
        "lblSaver10",
        "lblSaver11",
        "lblSaver12",
        "lblSaver13",
        "lblSaver14",
        "lblSaver15",
        "lblSaver16",
        "lblSaver17",
        "lblSaver18",
        "lblSaver19",
        "lblSaver20",
        "lblSaver21",
        "lblSaver22",
        "lblSaver23",
        "lblSaver24",
        "lblSmartDesc"
    ],
    "clipbounds": true,
    "containerweight": 100,
    "enablescrolling": true,
    "id": "FlexContainer0e6dd425320e142",
    "info": null,
    "iscustomlayout": true,
    "isvisible": true,
    "kuid": "j7f37cf989dd45a2b0326a221b3d80d1",
    "layouttype": 2,
    "name": "kony.ui.FlexContainer",
    "parent": "FlexScrollContainer0c7fbb045130942",
    "pf": "frmSmartInfo",
    "retaincontentalignment": false,
    "retainflexpositionproperties": true,
    "retainflowhorizontalalignment": false,
    "snapgridsize": 10,
    "snaptogrid": true,
    "wType": "FlexContainer",
    "widgetalignment": 1,
    "zindex": 1
}