{
    "@class": "com.kony.gen.viz.model.component.KVizLabel",
    "DNDConfig": null,
    "__parentReadjusting__": false,
    "_height_": {
        "type": "ref",
        "value": "preferred"
    },
    "_left_": {
        "type": "string",
        "value": "0%"
    },
    "_margin_": [
        1,
        1,
        1,
        1
    ],
    "_padding_": [
        0,
        0,
        0,
        0
    ],
    "_skin_": "sb33ad39221449a5aee228b4de5ec4f7",
    "_text_": "label",
    "_top_": {
        "type": "string",
        "value": "70%"
    },
    "_width_": {
        "type": "string",
        "value": "100%"
    },
    "_wrapping_": 2,
    "android": {
        "textStyle": {
            "letterSpacing": 0,
            "strikeThrough": false
        }
    },
    "canUpdateUI": true,
    "containerweight": 100,
    "contentalignment": 4,
    "id": "lblSmartDesc",
    "info": null,
    "ipad": {
        "psp": {
            "wrapping": 2
        }
    },
    "iphone": {
        "psp": {
            "wrapping": 2
        }
    },
    "iscustomlayout": false,
    "isvisible": true,
    "kuid": "a1e493a0deaf44cfb3e5e98fa7ac496f",
    "name": "kony.ui.Label",
    "parent": "FlexContainer0e6dd425320e142",
    "pf": "frmSmartInfo",
    "retaincontentalignment": false,
    "retainflexpositionproperties": false,
    "texti18n": "i18n.smartSaver.desc",
    "textstyle": {},
    "tooltip": "",
    "wType": "Label",
    "zindex": 1
}