{
    "DNDConfig": null,
    "__parentReadjusting__": false,
    "_height_": {
        "type": "string",
        "value": "22%"
    },
    "_left_": {
        "type": "string",
        "value": "0%"
    },
    "_margin_": [
        0,
        0,
        0,
        0
    ],
    "_padding_": [
        0,
        0,
        0,
        0
    ],
    "_skin_": "s77117634aa14e58908cea4332c51ada",
    "_top_": {
        "type": "string",
        "value": "0%"
    },
    "_width_": {
        "type": "string",
        "value": "100%"
    },
    "allboxes": [],
    "autogrowmode": 0,
    "canUpdateUI": true,
    "children": [
        "Copydivider0bd2aac76ff0c4f",
        "btnActivateKA",
        "lblStopCardDesc",
        "lblStopCard",
        "CopybtnInfo0f7307994311842",
        "Switch0d629a02ec15c4b",
        "flxStopCardSwitchOff",
        "flxStopCardSwitchOn"
    ],
    "clipbounds": true,
    "containerweight": 100,
    "enabled": false,
    "enablescrolling": true,
    "id": "flxDeactivateKA",
    "ide_onClick": "AS_FlexContainer_fe19cbaf68994ef2b24d6324a92042d6",
    "info": null,
    "isvisible": true,
    "kuid": "f702d3b1ec074aba9696d181b534f3fb",
    "layouttype": 2,
    "name": "kony.ui.FlexContainer",
    "orientation": 6,
    "parent": "accountsOuterScroll",
    "percent": true,
    "pf": "frmManageCardsKA",
    "snapgridsize": 10,
    "snaptogrid": true,
    "wType": "FlexContainer",
    "widgetalignment": 1,
    "zindex": 1
}