{
    "DNDConfig": null,
    "__parentReadjusting__": false,
    "_height_": {
        "type": "string",
        "value": "84%"
    },
    "_left_": {
        "type": "string",
        "value": "0dp"
    },
    "_margin_": [
        0,
        0,
        0,
        0
    ],
    "_padding_": [
        0,
        0,
        0,
        0
    ],
    "_skin_": "s15e4ac2d02f475fbc70f4dcf387a73a",
    "_top_": {
        "type": "string",
        "value": "0dp"
    },
    "_width_": {
        "type": "string",
        "value": "100%"
    },
    "allboxes": [],
    "autogrowmode": 0,
    "canUpdateUI": true,
    "children": [
        "NoCards",
        "titleBarAccountInfo",
        "segCardsKA",
        "flxPageIndicator",
        "flxCardOptions",
        "lblSaperatorSettings",
        "flxSegDetails",
        "flxAccountdetailsSortContainer"
    ],
    "clipbounds": true,
    "containerweight": 100,
    "disabledSkins": {
        "focusSkin": "se20a06b135d43d3ba7073d6f6fc8faf"
    },
    "enabled": false,
    "enablescrolling": true,
    "id": "overview",
    "info": null,
    "isvisible": true,
    "kuid": "d2ab445fce8d40aa98fad6f7cadb27a0",
    "layouttype": 4,
    "name": "kony.ui.FlexContainer",
    "orientation": 6,
    "parent": "frmManageCardsKA",
    "percent": true,
    "pf": "frmManageCardsKA",
    "snapgridsize": 10,
    "snaptogrid": true,
    "vizProps": {
        "hide": false
    },
    "wType": "FlexContainer",
    "widgetalignment": 1,
    "zindex": 1
}