{
    "DNDConfig": null,
    "__parentReadjusting__": false,
    "_height_": {
        "type": "string",
        "value": "15%"
    },
    "_left_": {
        "type": "string",
        "value": "0%"
    },
    "_margin_": [
        0,
        0,
        0,
        0
    ],
    "_orientation_": 6,
    "_padding_": [
        0,
        0,
        0,
        0
    ],
    "_percent_": true,
    "_skin_": "s388f0c575ef4d08ac3a5ed0a4b90085",
    "_top_": {
        "type": "string",
        "value": "3%"
    },
    "_width_": {
        "type": "string",
        "value": "100%"
    },
    "allboxes": [],
    "autogrowmode": 0,
    "canUpdateUI": true,
    "children": [
        "lblTotalRedeemPoints",
        "lblTotalRedeemPointsNote",
        "CopyflxBorderAmount0f30eb79d279b4e",
        "lblCalculatedAmount"
    ],
    "clipbounds": true,
    "containerweight": 100,
    "enablescrolling": true,
    "id": "flxInstantCashTotalRedeemPoints",
    "info": null,
    "isvisible": true,
    "kuid": "ed34e3b2a97b49848a94d4ff1cfeec89",
    "layouttype": 2,
    "name": "kony.ui.FlexContainer",
    "parent": "flxInstantCashBody",
    "pf": "frmInstantCash",
    "snapgridsize": 10,
    "snaptogrid": true,
    "wType": "FlexContainer",
    "widgetalignment": 1,
    "zindex": 1
}