{
    "@class": "com.kony.gen.viz.model.component.KVizTextBox2",
    "DNDConfig": null,
    "__parentReadjusting__": false,
    "_height_": {
        "type": "string",
        "value": "40%"
    },
    "_left_": {
        "type": "string",
        "value": "0%"
    },
    "_margin_": [
        0,
        0,
        0,
        0
    ],
    "_padding_": [
        0,
        0,
        0,
        0
    ],
    "_placeholder_": "0.000",
    "_skin_": "sa25e426dcb94c13ab46f59a2b31a09a",
    "_text_": "455.00",
    "_top_": {
        "type": "string",
        "value": "32%"
    },
    "_width_": {
        "type": "string",
        "value": "100%"
    },
    "android": {
        "psp": {
            "keyboardActionLabel": 1
        }
    },
    "autocapitalize": "none",
    "autocomplete": false,
    "autocorrect": false,
    "autofilter": false,
    "canUpdateUI": true,
    "containerheight": "",
    "containerheightmode": 1,
    "containerweight": 100,
    "contentalignment": 4,
    "focusskin": "sa25e426dcb94c13ab46f59a2b31a09a",
    "id": "txtRedeemAmount",
    "ide_onTextChange": "AS_TextField_e57f99ac5bf34cc7b214eed78181c195",
    "info": null,
    "iphone": {
        "psp": {
            "keyboardActionLabel": 1,
            "showClearButton": false,
            "showCloseButton": true,
            "showProgressIndicator": false
        }
    },
    "isvisible": true,
    "keyboardactionlabel": 4,
    "keyboardstyle": "number",
    "keyboardtype": "A",
    "kuid": "e3550bd0366f4ae5beff3c5c1054db88",
    "maxtextlength": 9,
    "mode": "N",
    "name": "kony.ui.TextBox2",
    "paddinginpixel": false,
    "parent": "flxRedeemedAmount",
    "pf": "frmInstantCash",
    "securetextentry": false,
    "showclearbutton": false,
    "showoprogressindicator": false,
    "spa": {},
    "textinputmode": "N",
    "viewtype": "default",
    "wType": "TextField",
    "zindex": 1
}