{
    "DNDConfig": null,
    "__parentReadjusting__": false,
    "_height_": {
        "type": "string",
        "value": "100%"
    },
    "_left_": {
        "type": "string",
        "value": "23%"
    },
    "_margin_": [
        0,
        0,
        0,
        0
    ],
    "_orientation_": 6,
    "_padding_": [
        0,
        0,
        0,
        0
    ],
    "_percent_": true,
    "_skin_": "s388f0c575ef4d08ac3a5ed0a4b90085",
    "_top_": {
        "type": "string",
        "value": "0dp"
    },
    "_width_": {
        "type": "string",
        "value": "54%"
    },
    "allboxes": [],
    "autogrowmode": 0,
    "canUpdateUI": true,
    "children": [
        "lblCurrency",
        "CopylblCurrency0c4373e11aa8641",
        "lblDescriptionEn",
        "lblDescriptionAr",
        "CopylblDescriptionAr0ca1638a7c3ee4b",
        "lblDecimal",
        "lblCurrCode"
    ],
    "clipbounds": true,
    "containerId": true,
    "containerweight": 100,
    "enablescrolling": true,
    "id": "flxCurrencydetails",
    "info": null,
    "isvisible": true,
    "kuid": "ieae86dfaf6d45e1897f2d158aeb3bee",
    "layouttype": 3,
    "name": "kony.ui.FlexContainer",
    "parent": "tmpFlxCurrency",
    "pf": "tmpCurrency",
    "snapgridsize": 10,
    "snaptogrid": true,
    "wType": "FlexContainer",
    "widgetalignment": 1,
    "zindex": 1
}