{
    "@class": "com.kony.gen.viz.model.component.KVizButton",
    "DNDConfig": null,
    "__parentReadjusting__": false,
    "_height_": {
        "type": "string",
        "value": "90%"
    },
    "_margin_": [
        6,
        6,
        6,
        6
    ],
    "_padding_": [
        0,
        0,
        0,
        0
    ],
    "_right_": {
        "type": "string",
        "value": "0%"
    },
    "_skin_": "s0c042beeeab49f58c4132537779445b",
    "_text_": "save",
    "_top_": {
        "type": "string",
        "value": "0%"
    },
    "_width_": {
        "type": "string",
        "value": "20%"
    },
    "canUpdateUI": true,
    "containerweight": 100,
    "contentalignment": 5,
    "displaytext": true,
    "focusskin": "s0c042beeeab49f58c4132537779445b",
    "id": "btnSaveAccountsReorder",
    "ide_onClick": "AS_Button_a413a573416e41da964af1b4d54bb0a5",
    "info": null,
    "iscustomlayout": true,
    "isvisible": true,
    "kuid": "fa8384d6a9304775b3f0018244895c4d",
    "name": "kony.ui.Button",
    "parent": "flxSettingsHeader",
    "pf": "frmAccountsReorderKA",
    "retainflexpositionproperties": true,
    "texti18n": "i18n.common.save",
    "wType": "Button",
    "zindex": 2
}