{
    "@class": "com.kony.gen.viz.model.container.KVizSegment2",
    "DNDConfig": null,
    "__parentReadjusting__": false,
    "_data_": [
        {
            "lblAccNumber": {
                "@class": "com.viz.ide.model.segment.SimpleTextSegmentData",
                "text": "Label"
            },
            "lblAccount": {
                "@class": "com.viz.ide.model.segment.SimpleTextSegmentData",
                "text": ""
            },
            "lblAccountName": {
                "@class": "com.viz.ide.model.segment.SimpleTextSegmentData",
                "text": ""
            },
            "lblIncommingRing": {
                "@class": "com.viz.ide.model.segment.SimpleTextSegmentData",
                "text": "s"
            },
            "lblIncommingTick": {
                "@class": "com.viz.ide.model.segment.SimpleTextSegmentData",
                "text": "r"
            }
        },
        {
            "lblAccNumber": {
                "@class": "com.viz.ide.model.segment.SimpleTextSegmentData",
                "text": "Label"
            },
            "lblAccount": {
                "@class": "com.viz.ide.model.segment.SimpleTextSegmentData",
                "text": ""
            },
            "lblAccountName": {
                "@class": "com.viz.ide.model.segment.SimpleTextSegmentData",
                "text": ""
            },
            "lblIncommingRing": {
                "@class": "com.viz.ide.model.segment.SimpleTextSegmentData",
                "text": "s"
            },
            "lblIncommingTick": {
                "@class": "com.viz.ide.model.segment.SimpleTextSegmentData",
                "text": "r"
            }
        },
        {
            "lblAccNumber": {
                "@class": "com.viz.ide.model.segment.SimpleTextSegmentData",
                "text": "Label"
            },
            "lblAccount": {
                "@class": "com.viz.ide.model.segment.SimpleTextSegmentData",
                "text": ""
            },
            "lblAccountName": {
                "@class": "com.viz.ide.model.segment.SimpleTextSegmentData",
                "text": ""
            },
            "lblIncommingRing": {
                "@class": "com.viz.ide.model.segment.SimpleTextSegmentData",
                "text": "s"
            },
            "lblIncommingTick": {
                "@class": "com.viz.ide.model.segment.SimpleTextSegmentData",
                "text": "r"
            }
        }
    ],
    "_height_": {
        "type": "string",
        "value": "80%"
    },
    "_indicator_": "none",
    "_left_": {
        "type": "string",
        "value": "0%"
    },
    "_margin_": [
        0,
        0,
        0,
        0
    ],
    "_orientation_": 2,
    "_padding_": [
        0,
        0,
        0,
        0
    ],
    "_top_": {
        "type": "string",
        "value": "0%"
    },
    "_width_": {
        "type": "string",
        "value": "100%"
    },
    "android": {
        "enableReordering": true,
        "viewType": "tableview"
    },
    "autogrowmode": 0,
    "canUpdateUI": true,
    "containerweight": 100,
    "counter": "02",
    "editstyle": "icon",
    "enablereordering": true,
    "focusedindex": null,
    "focuseditem": null,
    "groupcells": false,
    "hasSections": false,
    "id": "segReOrderAccounts",
    "info": null,
    "ipad": {
        "psp": {
            "indicator": "rowselect"
        }
    },
    "iphone": {
        "enableReordering": true,
        "psp": {
            "editStyle": "icon",
            "indicator": "none",
            "showProgressIndicator": false
        },
        "viewType": "tableview"
    },
    "isvisible": true,
    "kuid": "c994b4032dbd4627a5e2c4fb01b5e6af",
    "masterdata": {},
    "name": "kony.ui.SegmentedUI2",
    "needpageindicator": true,
    "pageoffdotimage": "pageoffdot.png",
    "pageondotimage": "pageondot.png",
    "paginationconfig": {
        "position": "bottom"
    },
    "parent": "FlexScrollContainer0aaefdaacee1040",
    "pf": "frmAccountsReorderKA",
    "retainselection": false,
    "rowTemplateId": "eaffaf4411374873a8e4ac5cab51cca8",
    "rowcounter": 2,
    "rowfocusskin": "s27c76e85b844e03945d12f1113a8f87",
    "rowskin": "s27c76e85b844e03945d12f1113a8f87",
    "rowtemplate": "flxSegQuickBalance",
    "screenlevelwidget": false,
    "seccounter": 0,
    "sectionHeaderTemplateId": null,
    "sectionheaderskin": "s67621b8a82d49f285da06b4f5a0c993",
    "selectedRows": null,
    "selectedState": false,
    "selectedindex": null,
    "selectedindices": null,
    "selecteditems": null,
    "selectedsectionindex": 0,
    "selectionbehavior": "default",
    "separatorcolor": "ffffff64",
    "separatorrequired": true,
    "separatorthickness": 0,
    "showprogressindicator": false,
    "showscrollbars": false,
    "viewtype": "tableview",
    "vizProps": {},
    "wType": "Segment",
    "widgetalignment": 5,
    "widgetdatamap": {
        "flxSegQuickBalance": "flxSegQuickBalance",
        "lblAccNumber": "lblAccNumber",
        "lblAccount": "lblAccount",
        "lblAccountName": "lblAccountName",
        "lblIncommingRing": "lblIncommingRing",
        "lblIncommingTick": "lblIncommingTick"
    },
    "zindex": 1
}