{
    "@class": "com.kony.gen.viz.model.component.KVizButton",
    "DNDConfig": null,
    "__parentReadjusting__": false,
    "_height_": {
        "type": "string",
        "value": "100%"
    },
    "_left_": {
        "type": "string",
        "value": "0%"
    },
    "_margin_": [
        6,
        6,
        6,
        6
    ],
    "_padding_": [
        0,
        0,
        0,
        0
    ],
    "_skin_": "s4ef49a499ff460eaa936de577f463b0",
    "_text_": "All",
    "_top_": {
        "type": "string",
        "value": "0dp"
    },
    "_width_": {
        "type": "string",
        "value": "33%"
    },
    "canUpdateUI": true,
    "centery": {
        "type": "string",
        "value": "50.01%"
    },
    "containerweight": 100,
    "contentalignment": 5,
    "displaytext": true,
    "focusskin": "sf31a7f2de3f4239a785d44cc5239e61",
    "id": "btnAll",
    "ide_onClick": "AS_Button_c5ba055f0b3c430294bf8ffd11eebe00",
    "info": null,
    "isvisible": true,
    "kuid": "f52b2d01205e40cb9051057d28bf15b4",
    "name": "kony.ui.Button",
    "paddinginpixel": false,
    "parent": "flxContent",
    "pf": "frmIPSRequests",
    "texti18n": "i18n.Bene.All",
    "wType": "Button",
    "zindex": 2
}