{
    "DNDConfig": null,
    "__parentReadjusting__": false,
    "_height_": {
        "type": "string",
        "value": "31dp"
    },
    "_margin_": [
        0,
        0,
        0,
        0
    ],
    "_orientation_": 6,
    "_padding_": [
        0,
        0,
        0,
        0
    ],
    "_percent_": true,
    "_right_": {
        "type": "string",
        "value": "2.04%"
    },
    "_skin_": "s388f0c575ef4d08ac3a5ed0a4b90085",
    "_top_": {
        "type": "string",
        "value": "11.75%"
    },
    "_width_": {
        "type": "string",
        "value": "17.33%"
    },
    "allboxes": [],
    "autogrowmode": 0,
    "canUpdateUI": true,
    "centery": {
        "type": "string",
        "value": "50%"
    },
    "children": [
        "lblNextRP"
    ],
    "clipbounds": true,
    "containerweight": 100,
    "enablescrolling": true,
    "id": "flxNextRP",
    "ide_onClick": "AS_FlexContainer_f9dd2a4fa0424d289d5610b6e2c54657",
    "info": null,
    "iscustomlayout": true,
    "isvisible": true,
    "kuid": "b0a0cf2aeaa94ede8f84cc8739354045",
    "layouttype": 2,
    "name": "kony.ui.FlexContainer",
    "parent": "flxRequestPaymentHeader",
    "pf": "frmIPSRequests",
    "retainflexpositionproperties": true,
    "snapgridsize": 10,
    "snaptogrid": true,
    "wType": "FlexContainer",
    "widgetalignment": 1,
    "zindex": 1
}