{
    "DNDConfig": null,
    "__parentReadjusting__": false,
    "_height_": {
        "type": "string",
        "value": "2%"
    },
    "_margin_": [
        0,
        0,
        0,
        0
    ],
    "_orientation_": 6,
    "_padding_": [
        0,
        0,
        0,
        0
    ],
    "_percent_": true,
    "_skin_": "sf303b8b84544d6b90ee79b602fda7ca",
    "_top_": {
        "type": "string",
        "value": "94%"
    },
    "_width_": {
        "type": "string",
        "value": "100%"
    },
    "allboxes": [],
    "autogrowmode": 0,
    "canUpdateUI": true,
    "centerx": {
        "type": "string",
        "value": "50%"
    },
    "children": [],
    "clipbounds": true,
    "containerweight": 100,
    "enablescrolling": true,
    "id": "flxrRPUnderlineDate",
    "info": null,
    "isvisible": true,
    "kuid": "i077fdcb965f44f5ab35a8996ba27fc0",
    "layouttype": 2,
    "name": "kony.ui.FlexContainer",
    "parent": "flxRPIbanDetails",
    "pf": "frmIPSRequests",
    "snapgridsize": 10,
    "snaptogrid": true,
    "wType": "FlexContainer",
    "widgetalignment": 1,
    "zindex": 2
}