{
    "DNDConfig": null,
    "__parentReadjusting__": false,
    "_height_": {
        "type": "string",
        "value": "91%"
    },
    "_left_": {
        "type": "string",
        "value": "0"
    },
    "_margin_": [
        0,
        0,
        0,
        0
    ],
    "_orientation_": 6,
    "_padding_": [
        0,
        0,
        0,
        0
    ],
    "_percent_": true,
    "_skin_": "s388f0c575ef4d08ac3a5ed0a4b90085",
    "_top_": {
        "type": "string",
        "value": "0"
    },
    "_width_": {
        "type": "string",
        "value": "100%"
    },
    "allboxes": [],
    "autogrowmode": 0,
    "canUpdateUI": true,
    "children": [
        "flxRPRAccounFrom",
        "lblrprSplit",
        "flxRPRDetailsIBAN",
        "flxRPRRequestReason",
        "btnReject",
        "CopybtnReject0bd54b13e669d47"
    ],
    "clipbounds": true,
    "containerweight": 100,
    "enablescrolling": true,
    "id": "flxRPRBody",
    "info": null,
    "iscustomlayout": false,
    "isvisible": true,
    "kuid": "d8c65c6462204157a476478d9e65bbe7",
    "layouttype": 4,
    "name": "kony.ui.FlexContainer",
    "parent": "flxRequestToPay",
    "pf": "frmIPSRequests",
    "retaincontentalignment": false,
    "retainflexpositionproperties": false,
    "retainflowhorizontalalignment": false,
    "snapgridsize": 10,
    "snaptogrid": true,
    "wType": "FlexContainer",
    "widgetalignment": 1,
    "zindex": 1
}