{
    "@class": "com.kony.gen.viz.model.component.KVizButton",
    "DNDConfig": null,
    "__parentReadjusting__": false,
    "_bottom_": {
        "type": "string",
        "value": "5dp"
    },
    "_height_": {
        "type": "string",
        "value": "50dp"
    },
    "_left_": {
        "type": "string",
        "value": "28dp"
    },
    "_margin_": [
        6,
        6,
        6,
        6
    ],
    "_padding_": [
        0,
        0,
        0,
        0
    ],
    "_skin_": "s51d68053cae4eba826625de179be4ae",
    "_text_": "Submit",
    "_width_": {
        "type": "string",
        "value": "300dp"
    },
    "canUpdateUI": true,
    "centerx": {
        "type": "string",
        "value": "50%"
    },
    "containerweight": 100,
    "contentalignment": 5,
    "disabledSkins": {
        "focusSkin": "s10149300144466da99cbf92f4fdacc8"
    },
    "displaytext": true,
    "id": "btnSubmit",
    "ide_onClick": "AS_Button_h4a5fd8e0da34155bef6c5d9eefcfa45",
    "info": null,
    "isvisible": true,
    "kuid": "ec1702558a3a4b90a394ef394e0d887d",
    "name": "kony.ui.Button",
    "parent": "flxStopCard",
    "pf": "frmStopCardKA",
    "texti18n": "i18n.NUO.Submit",
    "wType": "Button",
    "zindex": 1
}