{
    "@class": "com.kony.gen.viz.model.container.KVizHBox",
    "DNDConfig": null,
    "_margin_": [
        0,
        0,
        0,
        0
    ],
    "_orientation_": 1,
    "_padding_": [
        0,
        0,
        0,
        0
    ],
    "_percent_": true,
    "_position_": 3,
    "_skin_": "s066e1f55806426ca40936afa9e01f49",
    "allboxes": [],
    "canUpdateUI": true,
    "children": [
        "btnYes",
        "btnNo"
    ],
    "containerweight": 100,
    "contextmenu": null,
    "id": "HBxSubmit",
    "info": null,
    "isvisible": true,
    "kuid": "cf3e927d3ef748ed845b4b9f533aaea0",
    "layouttype": 0,
    "margininpixel": false,
    "name": "kony.ui.Box",
    "paddinginpixel": false,
    "parent": "PopupDeviceRegistration",
    "pf": "PopupDeviceRegistration",
    "wType": "HBox",
    "widgetalignment": 1
}