{
  "operationConfig" : {
    "name" : "prDcActivation9222",
    "type" : "MappedToBackend",
    "cachable" : false,
    "smsEnabled" : false,
    "security" : "public",
    "responseEncoding" : "UTF-8",
    "httpMethod" : "GET",
    "decodeResponseBody" : false,
    "iMapping" : "<?xml version=\"1.0\" encoding=\"UTF-8\" standalone=\"yes\"?><mapper xmlns=\"http://www.kony.com/ns/mapper\">  <map inputpath=\"request_in\" outputpath=\"request_out\">    <set-param inputpath=\"usr\" outputpath=\"usr\"/>    <set-param inputpath=\"pass\" outputpath=\"pass\"/>    <set-param inputpath=\"custId\" outputpath=\"custId\"/>    <set-param inputpath=\"p_fcdb_ref_no\" outputpath=\"p_fcdb_ref_no\"/>    <set-param inputpath=\"action\" outputpath=\"action\"/>    <set-param inputpath=\"CardNum\" outputpath=\"CardNum\"/>    <set-param inputpath=\"p_user_id\" outputpath=\"p_user_id\"/>    <set-param inputpath=\"Reason\" outputpath=\"Reason\"/>    <set-param inputpath=\"p_channel\" outputpath=\"p_channel\"/>  </map></mapper>",
    "oMapping" : "<?xml version=\"1.0\" encoding=\"UTF-8\" standalone=\"yes\"?><mapper xmlns=\"http://www.kony.com/ns/mapper\">  <map inputpath=\"response_in\" outputpath=\"response_out\">    <set-param inputpath=\"ErrorCode\" outputpath=\"ErrorCode\"/>    <set-param inputpath=\"referenceId\" outputpath=\"referenceId\"/>  </map></mapper>",
    "applyCommonMapping" : true,
    "backendMeta" : {
      "serviceVersion" : "1.0",
      "operationName" : "prDcActivation",
      "serviceName" : "BojprDcActivation"
    },
    "relationshipHierarchyMapping" : {
      "children" : [ ],
      "name" : "Cards",
      "selected" : true
    },
    "requestXmlMappingOverride" : true,
    "responseXmlMappingOverride" : true
  }
}