{
  "operationConfig" : {
    "name" : "prCcInternetMailorder4207",
    "type" : "MappedToBackend",
    "cachable" : false,
    "smsEnabled" : false,
    "security" : "authorized_app_user",
    "responseEncoding" : "UTF-8",
    "httpMethod" : "GET",
    "decodeResponseBody" : false,
    "iMapping" : "<?xml version=\"1.0\" encoding=\"UTF-8\" standalone=\"yes\"?><mapper xmlns=\"http://www.kony.com/ns/mapper\">          <map inputpath=\"request_in\" outputpath=\"request_out\">                    <set-param inputpath=\"usr\" outputpath=\"usr\"/>                    <set-param inputpath=\"pass\" outputpath=\"pass\"/>                    <set-param inputpath=\"p_card_no\" outputpath=\"p_card_no\"/>                    <set-param inputpath=\"p_internetaction\" outputpath=\"p_internetaction\"/>                    <set-param inputpath=\"p_internetdailylimit\" outputpath=\"p_internetdailylimit\"/>                    <set-param inputpath=\"custId\" outputpath=\"custId\"/>                    <set-param inputpath=\"p_mailaction\" outputpath=\"p_mailaction\"/>                    <set-param inputpath=\"p_maildailylimit\" outputpath=\"p_maildailylimit\"/>                    <set-param inputpath=\"p_user_id\" outputpath=\"p_user_id\"/>                    <set-param inputpath=\"p_periodicity\" outputpath=\"p_periodicity\"/>                    <set-param inputpath=\"p_channel\" outputpath=\"p_channel\"/>          </map></mapper>",
    "oMapping" : "<?xml version=\"1.0\" encoding=\"UTF-8\" standalone=\"yes\"?><mapper xmlns=\"http://www.kony.com/ns/mapper\">        <map inputpath=\"response_in\" outputpath=\"response_out\">                <set-param inputpath=\"ErrorCode\" outputpath=\"ErrorCode\"/>        </map></mapper>",
    "applyCommonMapping" : false,
    "backendMeta" : {
      "serviceVersion" : "1.0",
      "operationName" : "prCcInternetMailorder",
      "serviceName" : "prCcInternetMailorder"
    },
    "relationshipHierarchyMapping" : {
      "children" : [ ],
      "name" : "Cards",
      "selected" : true
    },
    "requestXmlMappingOverride" : true,
    "responseXmlMappingOverride" : true
  }
}